<?xml version="1.0" encoding="UTF-8" standalone="no"?>
<svg
   xmlns:dc="http://purl.org/dc/elements/1.1/"
   xmlns:cc="http://creativecommons.org/ns#"
   xmlns:rdf="http://www.w3.org/1999/02/22-rdf-syntax-ns#"
   xmlns:svg="http://www.w3.org/2000/svg"
   xmlns="http://www.w3.org/2000/svg"
   id="svg5422"
   version="1.1"
   viewBox="0 0 135.22729 24.261047"
   height="24.261047mm"
   width="135.22729mm">
  <defs
     id="defs5416" />
  <metadata
     id="metadata5419">
    <rdf:RDF>
      <cc:Work
         rdf:about="">
        <dc:format>image/svg+xml</dc:format>
        <dc:type
           rdf:resource="http://purl.org/dc/dcmitype/StillImage" />
        <dc:title></dc:title>
      </cc:Work>
    </rdf:RDF>
  </metadata>
  <g
     transform="translate(-38.797216,-158.51513)"
     id="layer1">
    <path
       id="path6029"
       d="m 85.195828,182.19667 c -0.873125,-0.30219 -1.984375,-0.7063 -2.469445,-0.89801 -0.485069,-0.19172 -2.078337,-0.32047 -3.540598,-0.28611 -1.462257,0.0344 -3.843507,-0.18472 -5.291667,-0.48683 -1.480375,-0.30884 -4.373779,-0.54943 -6.609509,-0.54959 -3.645256,-2.7e-4 -4.166862,-0.0866 -6.261806,-1.0365 -1.256921,-0.56991 -2.28531,-1.2031 -2.28531,-1.40708 0,-0.3504 -0.65799,-1.26281 -1.700893,-2.35858 -1.018321,-1.06993 -4.284365,-0.086 -5.703602,1.71825 -0.581753,0.73958 -0.913939,0.84252 -2.368714,0.73407 -0.930638,-0.0694 -2.201717,-0.14362 -2.824619,-0.16496 -0.622903,-0.0213 -1.120041,-0.139 -1.104752,-0.26145 0.07674,-0.61464 -0.09262,-0.88767 -0.325739,-0.52513 -0.31588,0.49124 -2.905015,-0.43466 -2.905015,-1.03887 0,-0.21116 -0.40882,-0.81065 -0.908488,-1.33219 -0.499668,-0.52154 -0.971854,-1.32398 -1.049302,-1.78319 -0.07745,-0.45922 -0.380299,-1.86681 -0.673002,-3.12799 -0.566908,-2.44266 -0.505122,-3.175 0.267868,-3.175 0.30004,0 0.481442,0.39985 0.481442,1.0612 0,0.60289 0.330112,1.41259 0.764352,1.87482 0.420394,0.44749 0.764352,1.00182 0.764352,1.23185 0,0.23003 0.15875,0.41824 0.352778,0.41824 0.490223,0 0.440382,-0.4509 -0.137145,-1.24072 -0.269457,-0.3685 -0.416144,-0.86227 -0.325971,-1.09725 0.09017,-0.23499 -0.07398,-0.79727 -0.364783,-1.24951 -0.290804,-0.45223 -0.58068,-1.37161 -0.644168,-2.04306 -0.105622,-1.11705 0.01337,-1.29247 1.399909,-2.06375 0.833437,-0.46362 2.050991,-0.84293 2.705675,-0.84293 0.800333,0 1.450939,-0.27741 1.985736,-0.84667 1.009093,-1.07413 1.568918,-1.06883 2.283417,0.0216 0.495261,0.75586 0.791681,0.85498 2.289024,0.76541 0.946049,-0.0566 1.874308,-0.008 2.062798,0.10891 0.188489,0.1165 0.657075,0.9452 1.041301,1.84156 0.781299,1.8227 0.8463,1.88305 2.382385,2.21214 1.054914,0.22601 1.150502,0.14352 2.535968,-2.18857 1.893485,-3.18721 4.504065,-5.00652 7.4803,-5.21301 0.679097,-0.0471 1.591909,-0.19998 2.028472,-0.33969 0.600573,-0.19219 0.79375,-0.11522 0.79375,0.3163 0,0.31367 0.15875,0.57031 0.352778,0.57031 0.194028,0 0.31309,-0.19571 0.264583,-0.43491 -0.06258,-0.30859 0.716566,-0.46477 2.682346,-0.53769 2.538437,-0.0942 3.011297,0.005 5.644445,1.17938 5.106892,2.27836 5.500949,2.33827 15.284066,2.32354 4.885313,-0.007 9.330315,0.10547 9.877775,0.25071 0.78684,0.20876 1.01829,0.49586 1.10467,1.37028 0.076,0.76954 0.34442,1.1835 0.88195,1.36024 0.99018,0.32556 11.88517,0.43122 11.88517,0.11526 0,-0.24509 -2.44658,-0.49923 -8.73125,-0.90696 -2.05039,-0.13303 -3.61598,-0.38923 -3.61598,-0.59174 0,-0.4702 8.95809,-0.0686 13.42332,0.60183 1.8335,0.27527 5.0005,0.89677 7.0378,1.38109 2.55298,0.60693 4.26226,0.82345 5.49996,0.6967 1.27337,-0.1304 2.40227,0.023 3.88055,0.52737 3.29203,1.12316 17.99751,2.14302 22.12125,1.53415 2.26367,-0.33423 2.56221,-0.49376 5.34478,-2.85613 1.62096,-1.37616 3.2281,-2.93083 3.57142,-3.45481 1.74816,-2.66802 3.65649,-3.17915 3.69048,-0.98845 0.0105,0.67622 0.0417,0.68309 0.47987,0.10583 0.69015,-0.90916 2.54833,-0.80578 3.17032,0.17639 1.59526,2.51902 0.97126,5.08633 -2.01767,8.3012 -1.21206,1.30368 -2.50366,3.05596 -2.87023,3.89395 -0.8528,1.94956 -2.1954,2.69723 -4.19908,2.33839 -4.31439,-0.77268 -11.52907,-0.0549 -16.47014,1.63855 -2.48713,0.85243 -5.25127,0.84815 -9.51897,-0.0147 -5.54797,-1.12174 -6.4728,-1.1197 -10.7566,0.0237 -5.88435,1.57057 -9.28884,2.14546 -11.36275,1.91876 -1.14403,-0.12506 -1.85208,-0.0664 -1.85208,0.1534 0,0.19572 -0.28887,0.35586 -0.64194,0.35586 -0.35307,0 -1.00033,0.41218 -1.43836,0.91596 -0.55815,0.64193 -1.02062,0.85734 -1.54581,0.72 -0.41218,-0.10779 -1.47148,-0.0264 -2.35401,0.18075 -2.46621,0.579 -5.61174,0.3731 -7.10284,-0.46495 -1.02219,-0.5745 -1.433941,-0.64266 -2.012341,-0.33311 -0.588663,0.31504 -11.088734,1.87124 -11.993891,1.77759 -0.138099,-0.0143 -0.965465,-0.27322 -1.83859,-0.57541 z m 5.423958,-0.85978 c 1.007178,-0.0457 0.982889,-0.0686 -0.281103,-0.26458 -0.760946,-0.11799 -1.448446,-0.41171 -1.527779,-0.65272 -0.106881,-0.32469 0.52559,-0.42765 2.441868,-0.39749 1.422361,0.0224 3.340174,-0.0763 4.261806,-0.21922 1.771922,-0.27486 2.210104,-0.0191 0.881945,0.51474 -0.727424,0.29239 -0.734794,0.32074 -0.08819,0.33924 0.388056,0.0111 1.160265,-0.21696 1.716021,-0.50681 1.352645,-0.70545 1.674749,-0.67377 3.609526,0.35496 1.67897,0.89271 3.86639,1.10525 5.78695,0.56227 l 0.88194,-0.24934 -0.85176,-0.22681 c -0.72314,-0.19255 -0.7832,-0.30941 -0.39777,-0.77382 0.30708,-0.37001 0.32585,-0.54703 0.058,-0.54703 -0.21779,0 -0.39598,-0.18086 -0.39598,-0.40191 0,-0.27532 0.55922,-0.33569 1.77527,-0.19167 1.09341,0.1295 1.69516,0.0806 1.56668,-0.12725 -0.11472,-0.18562 -0.90225,-0.3375 -1.75007,-0.3375 -0.9622,0 -1.76025,-0.21877 -2.12365,-0.58217 -0.46565,-0.46564 -1.40624,-0.59558 -4.6995,-0.64917 -2.26454,-0.0369 -4.434843,0.0469 -4.822899,0.18603 -0.388055,0.13918 -2.134305,0.039 -3.880556,-0.22255 -1.74625,-0.26157 -4.92125,-0.45301 -7.055555,-0.42542 -3.56203,0.0461 -4.032438,-0.0272 -5.730911,-0.89216 -1.017693,-0.51829 -2.026331,-0.94234 -2.241413,-0.94234 -1.01819,0 -9.782518,-2.83702 -12.393422,-4.01177 -1.266674,-0.56992 -1.670249,-0.94189 -1.675694,-1.54448 -0.0083,-0.91821 0.0907,-0.9499 1.102039,-0.35278 0.616551,0.36404 0.778952,0.35135 0.930794,-0.0727 0.101162,-0.28252 0.725099,-1.0709 1.386526,-1.75195 1.044534,-1.07553 1.188175,-1.43523 1.092892,-2.73677 -0.06034,-0.82417 0.04905,-1.54392 0.243076,-1.59943 0.555703,-0.159 0.650548,4.635 0.105261,5.32048 -1.113668,1.4 -1.343397,2.10949 -0.844559,2.60833 0.263851,0.26385 2.681258,1.07584 5.372015,1.80443 5.72248,1.54949 7.341024,2.13041 8.520385,3.0581 0.475502,0.37403 1.013199,0.58818 1.194879,0.4759 0.181678,-0.11229 1.750519,-0.19741 3.486313,-0.18916 1.73579,0.008 3.149071,-0.0962 3.140622,-0.23201 -0.0084,-0.13586 -0.145912,-0.92185 -0.30547,-1.74666 -0.312724,-1.61655 0.30173,-5.04819 1.222851,-6.82944 0.728528,-1.40882 0.666348,-2.78341 -0.125906,-2.78341 -0.34925,0 -0.785813,-0.14273 -0.970139,-0.31719 -0.184327,-0.17445 -1.525764,-0.40567 -2.980973,-0.51384 -2.281121,-0.16954 -2.439165,-0.14727 -1.146528,0.16156 1.643476,0.39266 2.113189,1.2142 0.529167,0.92553 -1.446071,-0.26352 -5.102804,-1.27821 -5.909028,-1.63966 -0.388056,-0.17397 -0.993429,-0.40896 -1.345276,-0.5222 -0.351846,-0.11324 -0.55324,-0.34581 -0.447541,-0.51684 0.1057,-0.17103 1.266702,0.0652 2.579998,0.52505 1.3133,0.45981 2.546569,0.77585 2.740597,0.70232 0.194028,-0.0735 0.03528,-0.24557 -0.352778,-0.38231 -0.388055,-0.13674 -1.73743,-0.70121 -2.998611,-1.25436 -1.261181,-0.55316 -2.769306,-1.10558 -3.351389,-1.2276 -0.957037,-0.20063 -0.999243,-0.17363 -0.440972,0.28204 0.339548,0.27714 0.617361,0.58901 0.617361,0.69303 0,0.39966 -3.312185,-0.67847 -3.461618,-1.12677 -0.08932,-0.26796 0.0046,-0.37282 0.216475,-0.24183 0.205793,0.12718 0.473883,0.0699 0.595753,-0.12729 0.248733,-0.40245 -0.311732,-0.45348 -1.495749,-0.13618 -0.966654,0.25905 -1.0059,0.55668 -0.134091,1.01691 3.278166,1.73056 3.490789,1.91249 3.730882,3.19229 0.132585,0.70675 0.155424,1.37063 0.05075,1.47531 -0.269674,0.26967 -1.591811,-1.38992 -1.61429,-2.0263 -0.01027,-0.29105 -0.928374,-1.06658 -2.040209,-1.72342 -1.821011,-1.0758 -2.286787,-1.19391 -4.696017,-1.1908 -1.49942,0.002 -3.0494,0.20324 -3.527778,0.45817 -1.566505,0.83481 -3.826148,2.62587 -4.020251,3.18657 -0.105506,0.30478 -0.662914,1.29697 -1.238686,2.20487 -1.172024,1.84809 -1.836686,2.01999 -3.884618,1.00469 l -1.234722,-0.61213 -0.731514,1.42283 c -0.458385,0.89158 -1.018188,1.46492 -1.499306,1.53556 -0.983224,0.14436 -0.9874,-0.41003 -0.008,-1.06033 0.620958,-0.4123 0.776567,-0.90367 0.851528,-2.68887 0.08728,-2.07866 0.05194,-2.18437 -0.730407,-2.18437 -0.452172,0 -0.904762,0.19844 -1.005755,0.44098 -0.13047,0.31332 -0.342168,0.24418 -0.731309,-0.23883 -0.683348,-0.8482 -1.211435,-0.41666 -0.629814,0.51467 0.647653,1.03705 0.553674,1.10921 -1.118172,0.8585 -0.9812,-0.14714 -1.633054,-0.0906 -1.784709,0.15477 -0.367384,0.59444 -0.902205,0.45855 -0.908237,-0.23078 -0.0046,-0.52655 -0.05484,-0.53952 -0.341472,-0.0882 -0.214023,0.337 -0.212062,0.57188 0.0054,0.64676 0.507149,0.17465 0.413774,1.11713 -0.110676,1.11713 -0.248683,0 -0.66308,-0.71437 -0.920883,-1.5875 -0.257803,-0.87312 -0.570274,-1.5869 -0.694378,-1.58618 -0.493275,0.003 -2.518701,1.42218 -2.518701,1.76495 0,0.65677 1.8457,3.17262 2.327523,3.17262 0.40507,0 1.200255,1.01968 1.200255,1.53911 0,0.0959 -0.250882,0.42527 -0.557515,0.7319 -0.769698,0.7697 -0.481252,1.32299 0.36478,0.69972 0.380433,-0.28027 0.696532,-0.93879 0.705555,-1.46987 0.01126,-0.66302 0.22843,-1.00294 0.698585,-1.09346 0.926911,-0.17845 1.651363,0.89573 1.367331,2.0274 -0.21693,0.86432 -0.197734,0.87904 0.385571,0.29574 0.337627,-0.33763 0.847613,-0.61387 1.133301,-0.61387 0.285688,0 0.473864,-0.19844 0.418168,-0.44097 -0.153181,-0.66705 0.550704,-0.74938 0.95228,-0.11138 0.272227,0.4325 0.128786,0.74078 -0.628212,1.35016 -0.539545,0.43433 -1.064389,1.26594 -1.16632,1.84802 -0.171124,0.97721 -0.147354,1.00688 0.310111,0.38708 0.285286,-0.38653 0.674337,-0.56069 0.91719,-0.4106 0.231962,0.14336 0.65292,0.0688 0.935462,-0.16569 0.422323,-0.3505 0.513713,-0.29314 0.513713,0.32241 0,0.80811 0.554243,1.0263 0.792368,0.31192 0.110651,-0.33195 0.350615,-0.34347 0.999537,-0.048 1.336721,0.6087 3.140815,0.21011 3.176383,-0.70178 0.07602,-1.9489 0.303158,-2.48595 1.589253,-3.75764 1.380605,-1.36515 3.320238,-2.20873 3.320238,-1.44404 0,0.21506 -0.125357,0.39102 -0.27857,0.39102 -0.153213,0 -0.946963,0.58223 -1.763889,1.29385 -1.342592,1.16952 -1.48499,1.44918 -1.481895,2.91042 0.0028,1.30614 0.234946,1.90779 1.209101,3.13314 2.405201,3.02541 2.905805,3.20354 9.474739,3.37136 3.644874,0.0931 4.027676,0.0503 3.086806,-0.34532 -1.624725,-0.68314 -1.291023,-0.96204 0.778014,-0.65023 1.018646,0.15351 2.28098,0.26033 2.805187,0.23737 0.698955,-0.0306 0.90055,0.0952 0.756006,0.4719 -0.124329,0.324 -0.736699,0.52993 -1.658659,0.55778 l -1.461562,0.0442 1.5875,0.29104 c 0.873125,0.16008 3.173843,0.31225 5.112703,0.33815 2.12543,0.0284 3.620086,0.20061 3.76415,0.43372 0.131424,0.21264 0.450081,0.43442 0.708131,0.49285 0.25805,0.0584 1.262934,0.3425 2.233073,0.63128 0.970138,0.28878 2.220295,0.45058 2.778125,0.35957 0.55783,-0.091 1.51033,-0.18801 2.116666,-0.21554 z m -5.565376,-1.26728 c -0.116248,-0.11625 -0.21136,-0.35247 -0.21136,-0.52494 0,-0.41492 2.110543,-0.16575 2.213331,0.2613 0.0884,0.36727 -1.667153,0.59845 -2.001971,0.26364 z m -16.791916,-2.56322 c 0,-0.19402 0.15875,-0.35277 0.352777,-0.35277 0.194028,0 0.352778,0.15875 0.352778,0.35277 0,0.19403 -0.15875,0.35278 -0.352778,0.35278 -0.194027,0 -0.352777,-0.15875 -0.352777,-0.35278 z m 12.019241,-4.14513 c 0.01365,-0.33955 0.155717,-0.93487 0.315733,-1.32292 0.276722,-0.67108 0.307718,-0.66246 0.634404,0.17639 0.188905,0.48507 0.267966,1.08038 0.17569,1.32291 -0.254303,0.6684 -1.154095,0.52742 -1.125827,-0.17638 z m 5.972426,-0.61737 c 0,-0.29104 0.15875,-0.52916 0.352778,-0.52916 0.194028,0 0.352778,0.23812 0.352778,0.52916 0,0.29105 -0.15875,0.52917 -0.352778,0.52917 -0.194028,0 -0.352778,-0.23812 -0.352778,-0.52917 z M 50.7003,170.39714 c 0.121842,-0.36553 2.963758,-1.30284 4.068443,-1.34184 1.031543,-0.0364 0.314507,0.66675 -1.209372,1.18599 -1.944601,0.66259 -3.048035,0.72274 -2.859071,0.15585 z m 29.909416,-0.43772 c 0,-0.5013 1.016022,-1.0796 1.335487,-0.76013 0.225195,0.22519 -0.616113,1.25155 -1.025903,1.25155 -0.170272,0 -0.309584,-0.22114 -0.309584,-0.49142 z m 4.056945,0.15171 c -0.59744,-0.24566 -0.620275,-0.32515 -0.149031,-0.51877 0.540996,-0.22227 2.442087,0.30192 2.442087,0.67336 0,0.27694 -1.487477,0.17666 -2.293056,-0.15459 z m -30.868057,-2.30612 c 0.241543,-0.29105 0.657856,-0.52917 0.92514,-0.52917 0.267284,0 0.485971,0.23812 0.485971,0.52917 0,0.33584 -0.337978,0.52916 -0.92514,0.52916 -0.782348,0 -0.857356,-0.0817 -0.485971,-0.52916 z m 27.16389,-0.3736 c 0,-0.30249 0.15875,-0.45188 0.352778,-0.33196 0.194028,0.11992 0.352778,0.36741 0.352778,0.54999 0,0.18257 -0.15875,0.33195 -0.352778,0.33195 -0.194028,0 -0.352778,-0.24749 -0.352778,-0.54998 z m -2.692128,-2.0256 c -0.716083,-0.65624 -1.14475,-1.29032 -0.952599,-1.40908 0.391534,-0.24198 2.47366,1.10298 2.737817,1.76851 0.378223,0.95292 -0.559125,0.7642 -1.785218,-0.35943 z m -11.985708,-0.39369 c -0.301242,-0.78502 0.08743,-1.61684 0.755474,-1.61684 0.403627,0 0.531976,0.26773 0.452044,0.94294 -0.127843,1.07991 -0.88876,1.50457 -1.207518,0.6739 z m 21.380614,-0.91128 c 0,-0.19403 0.308131,-0.35278 0.684735,-0.35278 0.376604,0 0.782849,0.15875 0.902766,0.35278 0.123655,0.20008 -0.172728,0.35278 -0.684735,0.35278 -0.496521,0 -0.902766,-0.15875 -0.902766,-0.35278 z m 22.754168,15.52222 c -0.11992,-0.19403 -0.4071,-0.35035 -0.63818,-0.34737 -0.25245,0.003 -0.20894,0.14189 0.10901,0.34737 0.67773,0.43798 0.79986,0.43798 0.52917,0 z m 4.34166,-1.25632 c 0.36925,0.11719 1.04243,0.0758 1.49595,-0.092 l 0.82459,-0.30503 -0.96607,-0.24247 c -0.53134,-0.13336 -1.11753,-0.14887 -1.30263,-0.0345 -0.1851,0.1144 -0.33655,0.0399 -0.33655,-0.1656 0,-0.20547 0.59531,-0.37733 1.32291,-0.3819 1.75302,-0.011 5.67401,-1.10161 8.73125,-2.42856 1.3582,-0.5895 2.9457,-1.06537 3.52778,-1.05749 l 1.05833,0.0143 -0.88194,0.37336 c -2.17148,0.91925 -3.42677,1.48927 -4.40972,2.00242 -0.58209,0.30388 -2.32834,0.90295 -3.88056,1.33128 -2.22818,0.61485 -2.56233,0.78422 -1.5875,0.80462 1.54323,0.0323 5.93747,-0.79086 6.87981,-1.28879 0.9754,-0.51539 4.65935,-1.15685 6.54698,-1.13997 0.86145,0.008 2.75689,0.24379 4.2121,0.52464 6.48339,1.25126 7.40776,1.33765 9.44197,0.88241 1.07856,-0.24137 2.53065,-0.76038 3.22688,-1.15337 1.88544,-1.06422 3.08714,-1.36376 6.20476,-1.5466 1.55223,-0.091 3.06035,-0.17966 3.35139,-0.19695 0.29104,-0.0173 0.68792,-0.13974 0.88195,-0.27213 0.19402,-0.13239 0.82201,-0.27042 1.39553,-0.30675 1.60108,-0.1014 1.85556,-0.60544 0.93459,-1.85112 -0.90868,-1.22906 -0.8012,-1.63077 0.28133,-1.05142 0.92233,0.49361 1.31939,1.96603 0.72373,2.68376 -0.32345,0.38973 -0.3409,0.64642 -0.0629,0.92447 0.45044,0.45043 1.74126,-1.39679 2.07713,-2.97247 0.21987,-1.03147 0.82416,-1.34195 0.82416,-0.42346 0,0.73013 -0.87772,2.39203 -1.56424,2.96179 -0.89261,0.7408 -0.64343,1.07764 0.79719,1.07764 1.49066,0 2.35886,-0.71364 3.42098,-2.81197 0.34089,-0.67346 1.49757,-2.14473 2.5704,-3.26948 1.78855,-1.8751 1.9639,-2.20533 2.11064,-3.97478 0.11851,-1.42904 0.005,-2.16706 -0.43913,-2.84422 l -0.59916,-0.91443 -2.01247,1.88036 c -1.10687,1.03419 -2.77675,2.32207 -3.71086,2.86195 -1.20874,0.69861 -1.63748,1.1403 -1.48714,1.53208 0.4952,1.29046 0.61494,2.24882 0.28099,2.24882 -0.19609,0 -0.52254,-0.47625 -0.72545,-1.05833 -0.20292,-0.58208 -0.43658,-1.05833 -0.51925,-1.05833 -0.0827,0 -0.87142,0.40304 -1.75279,0.89564 -2.89449,1.61777 -8.10433,2.14844 -15.6942,1.5986 -3.05049,-0.22099 -6.49885,-0.46961 -7.66301,-0.55249 -1.16417,-0.0829 -2.15636,-0.15682 -2.20486,-0.16428 -0.0485,-0.007 -0.0882,-0.17233 -0.0882,-0.36636 0,-0.19403 0.74083,-0.35278 1.6463,-0.35278 2.05664,0 1.8786,-0.28693 -0.24571,-0.39599 -0.86734,-0.0445 -2.13025,-0.37052 -2.80648,-0.72443 -0.89302,-0.46737 -2.00522,-0.64347 -4.06403,-0.64347 -1.76907,0 -3.8106,-0.27048 -5.43122,-0.71958 -1.42817,-0.39576 -2.77436,-0.65543 -2.99152,-0.57704 -0.38207,0.13792 1.27822,0.68572 4.19127,1.38288 0.77611,0.18574 2.68111,0.45114 4.23333,0.58977 4.09894,0.36608 5.81257,1.24732 4.6623,2.39759 -0.48011,0.48011 -0.57687,0.46099 -0.92098,-0.18199 -0.44976,-0.84037 -2.48069,-1.60369 -3.36452,-1.26453 -0.33706,0.12934 -1.51223,0.0413 -2.61148,-0.19555 -9.26771,-1.99723 -10.34076,-2.1371 -16.39558,-2.1371 -3.99437,0 -5.53501,0.11501 -5.53501,0.41319 0,0.22726 -0.25105,0.69059 -0.55788,1.02964 -0.64387,0.71146 -0.79623,4.02545 -0.23463,5.10322 0.52015,0.9982 1.07154,2.34355 1.30235,3.17762 0.1487,0.53734 0.77775,0.88802 2.40343,1.33984 1.2111,0.3366 2.59888,0.81771 3.08395,1.06913 0.55793,0.28919 1.03773,0.33707 1.30599,0.13032 0.23322,-0.17975 0.72615,-0.23093 1.09539,-0.11373 z m 20.70556,-3.18381 -2.46944,-0.46424 3.0931,0.19132 c 3.5659,0.22057 6.12959,0.78397 3.43329,0.7545 -0.87313,-0.01 -2.69875,-0.22625 -4.05695,-0.48158 z m -26.99549,-1.9248 c -0.45385,-0.84803 -0.32453,-3.23082 0.18438,-3.39738 0.19403,-0.0635 0.35994,0.24172 0.36869,0.67828 0.009,0.43657 0.13501,1.38907 0.28057,2.11667 0.2917,1.4581 -0.18957,1.80588 -0.83364,0.60243 z m 50.80137,-2.10583 c -0.7037,-0.43491 -0.17986,-0.84088 0.55463,-0.42984 0.33051,0.18496 0.45391,0.42717 0.2742,0.53823 -0.1797,0.11106 -0.55267,0.0623 -0.82883,-0.10839 z m -31.94053,-2.27774 c -0.37664,-0.28487 -0.49934,-0.523 -0.27267,-0.52917 0.6702,-0.0182 1.52816,0.39277 1.52816,0.73208 0,0.46234 -0.47812,0.38507 -1.25549,-0.20291 z m -76.857181,5.94778 c 0.642756,0.24665 0.642045,0.23079 -0.01775,-0.39562 -0.645492,-0.61283 -0.723676,-0.61624 -1.283919,-0.056 -0.328114,0.32811 -0.704706,0.96943 -0.836872,1.42514 -0.220394,0.75994 -0.169504,0.74329 0.614321,-0.20095 0.631616,-0.76088 1.029346,-0.96248 1.524219,-0.77258 z m 47.421,0.92017 c 0,-0.19403 -0.15875,-0.35278 -0.352778,-0.35278 -0.194028,0 -0.352778,0.15875 -0.352778,0.35278 0,0.19402 0.15875,0.35277 0.352778,0.35277 0.194028,0 0.352778,-0.15875 0.352778,-0.35277 z M 43.048988,174.5588 c -0.383683,-0.28056 -0.565998,-0.70726 -0.441174,-1.03254 0.235577,-0.6139 -0.585137,-1.48822 -1.098912,-1.17069 -0.556712,0.34406 0.750816,2.65717 1.509211,2.66989 0.662582,0.0111 0.663584,-0.004 0.03088,-0.46666 z m 3.341282,-1.2442 c 0,-0.39971 -0.126714,-0.36164 -0.517947,0.15562 -0.291756,0.38573 -0.522847,0.49221 -0.529167,0.24381 -0.0062,-0.24253 -0.15233,-0.44097 -0.3248,-0.44097 -0.417358,0 -0.310242,1.1655 0.137192,1.49272 0.408266,0.29859 1.234722,-0.67276 1.234722,-1.45118 z m 58.03195,1.01679 c 0.11991,-0.19402 0.0499,-0.35277 -0.15557,-0.35277 -0.20548,0 -0.3736,0.15875 -0.3736,0.35277 0,0.19403 0.07,0.35278 0.15557,0.35278 0.0856,0 0.25368,-0.15875 0.3736,-0.35278 z m -1.73803,-2.11666 c 0.32063,0 0.4932,-0.35213 0.47545,-0.97014 -0.0153,-0.53358 -0.11453,-0.75186 -0.22048,-0.48507 -0.10595,0.26679 -0.49608,0.78852 -0.86696,1.15939 -0.39061,0.39061 -0.56108,0.85445 -0.40516,1.10244 0.19068,0.30325 0.30486,0.24805 0.39152,-0.18926 0.0673,-0.33955 0.34882,-0.61736 0.62563,-0.61736 z m -8.072959,-2.02847 c -0.08873,-0.33955 -0.161336,-0.0617 -0.161336,0.61736 0,0.67909 0.0726,0.95691 0.161336,0.61736 0.08873,-0.33955 0.08873,-0.89518 0,-1.23472 z m 4.614944,-0.37507 c 0.08593,-0.25779 -0.07535,-0.33663 -0.418924,-0.20479 -0.307255,0.1179 -0.558645,0.36936 -0.558645,0.5588 0,0.46369 0.801787,0.17333 0.977569,-0.35401 z m -32.11643,-0.97708 c 0.0576,-0.47521 0.01564,-0.51897 -0.141092,-0.14716 -0.122685,0.29104 -0.397698,0.66032 -0.61114,0.82061 -0.249604,0.18745 -0.19926,0.23995 0.141092,0.14715 0.291041,-0.0794 0.566054,-0.44863 0.61114,-0.8206 z m 34.666635,0.36119 c 0,-0.3025 -0.15875,-0.45188 -0.35277,-0.33196 -0.19403,0.11991 -0.35278,0.36741 -0.35278,0.54999 0,0.18257 0.15875,0.33195 0.35278,0.33195 0.19402,0 0.35277,-0.24749 0.35277,-0.54998 z m 46.53728,0.0693 c -0.3484,-0.30303 -3.12903,-0.4835 -2.94848,-0.19136 0.10851,0.17557 0.84938,0.31922 1.64638,0.31922 0.797,0 1.38294,-0.0575 1.3021,-0.12786 z m 13.48406,-1.6243 c 0.57864,-0.48205 0.67133,-0.69397 0.30367,-0.69433 -0.56639,-5.7e-4 -1.76389,0.78864 -1.76389,1.16246 0,0.4263 0.62842,0.22483 1.46022,-0.46813 z m -56.14078,-1.5077 c 0,-0.14736 -0.23812,-0.26792 -0.52917,-0.26792 -0.29104,0 -0.52916,0.0664 -0.52916,0.14753 0,0.0812 -0.10239,0.41437 -0.22754,0.74049 -0.2015,0.52509 -0.14094,0.53887 0.52917,0.12038 0.41618,-0.25991 0.7567,-0.59313 0.7567,-0.74048 z m 58.56111,0.1096 c 0,-0.18041 0.73186,-0.69353 1.62635,-1.14026 2.43502,-1.21611 3.74799,-3.29458 2.54921,-4.03547 -0.52292,-0.32318 -2.05889,1.4288 -2.05889,2.34844 0,0.40314 -0.24077,0.68588 -0.58406,0.68588 -0.67956,0 -2.94372,1.64184 -2.94372,2.13462 0,0.18415 0.3175,0.33482 0.70556,0.33482 0.38805,0 0.70555,-0.14761 0.70555,-0.32803 z m -71.89023,-1.85331 c -0.538875,-0.53887 -0.936498,-0.14125 -0.637621,0.63762 0.176474,0.45987 0.329466,0.50544 0.643304,0.1916 0.313842,-0.31384 0.312487,-0.51105 -0.0057,-0.82922 z m 27.76361,0.99729 c -0.39681,-0.33937 -2.44004,-0.52212 -2.44004,-0.21824 0,0.18918 0.58208,0.34396 1.29351,0.34396 0.71144,0 1.22738,-0.0566 1.14653,-0.12572 z m -72.290049,-2.76393 c 0,-0.78704 -0.288119,-0.80599 -1.098844,-0.0723 -0.511831,0.4632 -0.548862,0.68823 -0.204166,1.24069 0.393592,0.63083 0.449838,0.63555 0.862038,0.0723 0.242535,-0.33141 0.440972,-0.88972 0.440972,-1.24069 z m 51.32917,1.47854 c 0.119916,-0.19403 0.04991,-0.35278 -0.155568,-0.35278 -0.205479,0 -0.373599,0.15875 -0.373599,0.35278 0,0.19403 0.07001,0.35278 0.155568,0.35278 0.08556,0 0.253683,-0.15875 0.373599,-0.35278 z"
       style="fill:#000000;stroke-width:0.35277778" />
  </g>
</svg>
