<?xml version="1.0" encoding="UTF-8" standalone="no"?>
<svg
   xmlns:dc="http://purl.org/dc/elements/1.1/"
   xmlns:cc="http://creativecommons.org/ns#"
   xmlns:rdf="http://www.w3.org/1999/02/22-rdf-syntax-ns#"
   xmlns:svg="http://www.w3.org/2000/svg"
   xmlns="http://www.w3.org/2000/svg"
   id="svg8"
   version="1.1"
   viewBox="0 0 190.38339 207.66459"
   height="207.6646mm"
   width="190.38341mm">
  <defs
     id="defs2" />
  <metadata
     id="metadata5">
    <rdf:RDF>
      <cc:Work
         rdf:about="">
        <dc:format>image/svg+xml</dc:format>
        <dc:type
           rdf:resource="http://purl.org/dc/dcmitype/StillImage" />
        <dc:title></dc:title>
      </cc:Work>
    </rdf:RDF>
  </metadata>
  <g
     transform="translate(86.470149,27.627972)"
     id="layer1">
    <path
       id="path7094"
       d="m 75.545546,179.22524 c 0,-0.44626 -0.18909,-1.00047 -0.4202,-1.23158 -0.25578,-0.25578 -0.37011,-1.14614 -0.2922,-2.27542 0.43887,-6.36093 -0.36512,-12.33369 -2.13117,-15.83222 -0.57034,-1.12985 -1.04076,-2.33661 -1.04536,-2.68169 -0.0132,-0.99099 -1.52641,-4.41895 -2.75269,-6.23595 -0.61572,-0.91233 -1.11949,-1.85162 -1.11949,-2.0873 0,-0.23568 -0.32578,-1.03633 -0.72395,-1.77923 -0.39817,-0.7429 -0.6664,-1.52335 -0.59607,-1.73434 0.0703,-0.211 -0.38032,-0.87082 -1.00146,-1.46628 -1.05976,-1.01596 -2.64964,-3.95989 -2.77564,-5.1396 -0.0311,-0.29104 -0.26796,-1.24354 -0.52639,-2.11666 -0.68514,-2.31486 -0.72095,-2.72268 -0.86731,-9.87778 -0.093,-4.5447 -0.28259,-6.86711 -0.62449,-7.6485 -0.58419,-1.33512 -2.75689,-3.27127 -6.02567,-5.36964 -1.30968,-0.84074 -2.38125,-1.64403 -2.38125,-1.78508 0,-0.28085 -4.03952,-3.20251 -6.95737,-5.03204 -4.62156,-2.89777 -8.886607,-5.96543 -9.902392,-7.122348 -0.61069,-0.695536 -1.16617,-1.264613 -1.234404,-1.264613 -0.223524,0 -4.631743,-4.493754 -5.868244,-5.982106 -0.764406,-0.920101 -1.400108,-1.380722 -1.730537,-1.253924 -0.63699,0.244437 -3.234828,-1.490673 -3.234828,-2.160559 0,-0.715095 -0.626649,-0.582245 -1.058333,0.224367 -0.20768,0.388055 -0.708367,0.705555 -1.112633,0.705555 -0.481778,0 -2.817311,2.087905 -6.778561,6.059851 -6.4119688,6.429287 -8.7566398,8.364957 -12.5417438,10.353967 -1.29396804,0.67996 -2.871329,1.71002 -3.50525,2.28901 -0.63392,0.579 -1.261844,1.05348 -1.395391,1.05441 -0.133544,0.001 -0.851359,0.56059 -1.595145,1.24369 -0.743782,0.68309 -2.136743,1.63949 -3.095463,2.12531 -0.958723,0.48582 -3.0268652,2.0654 -4.5958692,3.51017 -3.635837,3.34797 -4.15169,3.45652 -10.888278,2.29129 -1.26118,-0.21814 -3.48368,-0.34706 -4.938889,-0.28647 -8.639831,0.35972 -18.328883,-0.24318 -18.905636,-1.17638 -0.102302,-0.16553 -0.49972,-0.30096 -0.883151,-0.30096 -0.383431,0 -1.088732,-0.25658 -1.567332,-0.57017 -0.495247,-0.3245 -1.261893,-0.49529 -1.779284,-0.39638 -0.57712,0.11032 -0.977138,-0.004 -1.095424,-0.31178 -0.126521,-0.32971 -0.800961,-0.48556 -2.101272,-0.48556 -1.111043,0 -2.255181,-0.22293 -2.725406,-0.53103 -0.445752,-0.29207 -1.908604,-0.61552 -3.250782,-0.71877 -1.342178,-0.10325 -3.511886,-0.27966 -4.821574,-0.39201 -2.380205,-0.20419 -2.38125,-0.20387 -2.38125,0.71063 0,1.18473 -1.407044,2.15556 -2.666091,1.83956 -0.732617,-0.18387 -1.150531,0.0155 -2.170222,1.03515 -0.694585,0.69459 -1.562213,1.47255 -1.928064,1.7288 -0.973681,0.68199 -4.524512,5.46871 -4.524512,6.0993 0,0.87651 -1.476239,3.24267 -2.401217,3.84874 -1.737538,1.13848 -4.654339,0.3432 -4.654339,-1.26903 0,-0.32564 -0.102054,-0.69413 -0.226786,-0.81887 -0.361922,-0.36192 -0.246773,-3.15854 0.169809,-4.12414 0.20927,-0.48507 0.956559,-2.31069 1.660644,-4.05694 0.704084,-1.74625 1.639394,-3.65125 2.078465,-4.23334 0.439071,-0.58208 0.998714,-1.93145 1.24365,-2.99861 0.244937,-1.06715 0.586213,-2.30493 0.75839,-2.75062 0.172178,-0.4457 0.31305,-1.17645 0.31305,-1.62391 0,-1.40491 1.727942,-5.64917 2.557645,-6.28222 1.606492,-1.225719 2.636638,-1.161757 5.695158,0.35361 1.572834,0.77928 3.4747,1.5045 4.226369,1.6116 0.751669,0.1071 1.637294,0.43963 1.968056,0.73897 0.35875,0.32466 1.256987,0.54424 2.226335,0.54424 0.893723,0 2.015837,0.14862 2.493588,0.33026 0.47775,0.18163 0.978299,0.22132 1.112332,0.0882 0.134032,-0.13314 2.174418,-0.25736 4.534191,-0.27607 5.894578,-0.0467 6.552378,-0.0815 7.020958,-0.37108 0.2249,-0.13899 0.734424,-0.28467 1.132276,-0.32373 0.397855,-0.0391 2.055131,-0.25596 3.682841,-0.482 5.431945,-0.75433 11.308038,0.13226 15.851763,2.39173 1.489234,0.74056 1.89467,1.22896 1.61822,1.94937 -0.29851,0.77791 -1.646421,0.72199 -3.332657,-0.13826 -0.767761,-0.39169 -2.150498,-0.81049 -3.072751,-0.93068 -0.922253,-0.1202 -1.838582,-0.34435 -2.036286,-0.49813 -0.530832,-0.41288 -6.899321,-0.62763 -8.683473,-0.29281 -0.847217,0.15899 -3.286648,0.62223 -5.420953,1.02941 -5.117119,0.97625 -13.760926,0.87577 -16.663431,-0.19368 -1.743053,-0.64225 -1.880674,-0.64655 -2.45059,-0.0766 -0.410206,0.41021 -0.576532,1.06639 -0.518708,2.04639 0.04682,0.79341 -0.01205,1.74872 -0.130822,2.12292 -0.243127,0.76603 -1.064121,0.90975 -1.367497,0.23939 -0.109761,-0.24253 -0.161358,-0.12347 -0.114658,0.26459 0.110719,0.92004 2.379066,1.19452 3.062846,0.37061 0.55558,-0.66943 2.168163,-0.69514 8.216888,-0.13099 3.810596,0.35541 4.497916,0.51008 4.497916,1.01216 0,0.38674 0.582179,0.80325 1.675695,1.19885 0.921632,0.33342 2.52023,0.93355 3.55244,1.33363 4.403168,1.70666 6.95421,2.09485 13.821866,2.10329 3.589513,0.004 7.320138,-0.0296 8.290277,-0.0757 0.970139,-0.046 3.704322,0.10375 6.075963,0.33287 3.294574,0.31828 4.494106,0.31916 5.083496,0.004 0.68871,-0.36859 0.708635,-0.44799 0.18584,-0.74055 -0.322065,-0.18026 -0.585576,-0.53687 -0.585576,-0.79248 0,-0.46449 2.511467,-2.32241 3.139341,-2.32241 0.384722,0 5.2730542,-2.44086 5.9783352,-2.98512 3.072895,-2.37136 6.98127396,-6.34668 8.553661,-8.70017 0.696941,-1.04316 1.887566,-2.82316 2.645834,-3.955552 0.758264,-1.132392 1.616787,-2.441798 1.907829,-2.909786 0.291042,-0.467991 0.732585,-0.851175 0.981209,-0.851521 0.907736,-0.0014 0.827991,1.076103 -0.175697,2.373729 -0.565715,0.731393 -1.439143,2.044182 -1.940945,2.917307 -0.501805,0.873123 -1.404116,2.204643 -2.005136,2.958923 -0.60102,0.75429 -1.092764,1.50625 -1.092764,1.67103 0,0.16478 1.199423,-0.46556 2.66538,-1.40075 2.363661,-1.50788 7.9840778,-6.489717 12.3687848,-10.963475 l 1.529595,-1.560657 -1.314521,-0.898797 c -0.722983,-0.494599 -1.81924,-1.158534 -2.436128,-1.475674 l -1.121608,-0.576619 -1.347837,1.881939 c -1.333366,1.861736 -2.5980028,2.492343 -2.5665318,1.27979 0.0088,-0.339549 0.7218888,-1.331736 1.5846138,-2.204861 1.58513,-1.604236 1.877205,-2.116667 1.206469,-2.116667 -0.202343,0 -1.708186,-1.349375 -3.3463198,-2.998611 -1.638131,-1.649236 -3.233692,-2.998611 -3.545688,-2.998611 -0.311993,0 -0.65029,-0.3175 -0.75177,-0.705556 -0.10148,-0.388055 -0.345189,-0.705555 -0.541577,-0.705555 -1.152525,0 -8.489612,8.104547 -12.539374,13.85099 -1.592946,2.260325 -2.8962662,4.197661 -2.8962662,4.305187 0,0.516058 -4.157342,6.003027 -6.514674,8.598237 -1.181883,1.30115 -3.991334,2.87892 -5.126337,2.87892 -0.86692,0 -1.295562,-0.87738 -0.749868,-1.5349 0.213431,-0.25717 1.013241,-0.65489 1.777358,-0.88383 0.799204,-0.23944 1.781112,-0.90052 2.31176,-1.55639 0.507351,-0.62709 1.312799,-1.57947 1.789885,-2.11639 0.477086,-0.53693 0.887275,-1.13225 0.911528,-1.32292 0.02424,-0.19068 0.06394,-0.52912 0.08819,-0.752101 0.02424,-0.222981 0.320848,-0.502497 0.659102,-0.62115 0.56582,-0.19848 3.782518,-4.155349 3.79101,-4.663331 0.0071,-0.424113 2.3092232,-4.047511 3.1822392,-5.008615 0.483129,-0.531876 1.195913,-1.317251 1.583968,-1.745273 0.388056,-0.428025 1.311046,-1.494212 2.051093,-2.369305 0.740043,-0.87509 2.630254,-2.887201 4.20047196,-4.471356 C 1.6983182,78.373474 1.8802992,78.09878 1.3561382,77.574616 0.65317516,76.871657 0.90784916,76.096385 1.9287032,75.831622 c 0.422522,-0.109583 1.155944,-0.798597 1.629827,-1.531144 0.473879,-0.732543 1.089494,-1.522991 1.368026,-1.756551 0.348312,-0.292072 0.526852,-1.283352 0.571863,-3.175 0.04939,-2.075825 0.254621,-3.095142 0.836835,-4.156234 0.424265,-0.773239 0.771395,-1.686052 0.771395,-2.028472 0,-0.342424 0.119062,-0.626339 0.264583,-0.630925 0.145521,-0.0046 0.730578,-0.638228 1.300127,-1.408095 0.569549,-0.769867 1.323612,-1.491188 1.6756948,-1.602934 0.352082,-0.11175 0.64015,-0.408129 0.64015,-0.658626 0,-0.250497 0.833438,-1.031801 1.852083,-1.736238 6.05801,-4.189356 5.840487,-3.885265 6.599556,-9.226046 0.600604,-4.225812 0.596268,-4.534037 -0.07317,-5.203472 -0.339548,-0.339548 -0.617361,-0.830005 -0.617361,-1.0899 0,-0.760793 -3.669164,-2.184742 -7.9375,-3.08042 -1.1641658,-0.244292 -2.2879288,-0.573574 -2.4972538,-0.731739 -0.20932,-0.158168 -1.47932,-0.697759 -2.822222,-1.199095 -1.342898,-0.501336 -3.044952,-1.391486 -3.782339,-1.978113 -0.80866204,-0.643333 -1.56326004,-0.981195 -1.90152804,-0.851387 -0.342777,0.131533 -0.755118,-0.06218 -1.06054896,-0.498249 -0.274849,-0.392402 -0.673125,-0.713458 -0.88506,-0.713458 -0.211931,0 -0.917303,-0.547758 -1.567494,-1.217235 -0.998763,-1.028397 -1.182165,-1.473017 -1.182165,-2.865942 0,-1.514405 0.130701,-1.763751 1.604493,-3.061039 0.882474,-0.776781 2.169393,-1.795681 2.85982496,-2.264223 0.690432,-0.468538 1.67497504,-1.239294 2.18786804,-1.712785 1.32147,-1.219952 4.036332,-3.42355 4.98747,-4.048221 0.443142,-0.291041 1.246854,-0.889501 1.786019,-1.329912 0.539167,-0.440411 2.0648958,-1.236066 3.3905078,-1.768122 2.285661,-0.917391 2.43755,-1.050614 2.939373,-2.578174 0.790098,-2.4050836 2.62182,-4.4375493 5.982479,-6.6381277 1.657343,-1.0852397 3.291167,-2.0871106 3.630715,-2.2263792 0.339549,-0.1392682 0.617361,-0.4170807 0.617361,-0.6173611 0,-0.2002801 0.198438,-0.3691343 0.440973,-0.3752317 0.833169,-0.020944 1.572231,-1.58083781 2.084031,-4.3986363 0.690351,-3.8008317 0.369087,-5.0015557 -1.982728,-7.4104307 -2.398822,-2.4570223 -3.951545,-5.4273843 -3.387771,-6.4808063 0.281676,-0.526313 0.292284,-0.951943 0.03568,-1.431405 -0.573973,-1.072478 -0.442535,-1.601499 0.693145,-2.789881 0.621178,-0.650004 1.058333,-1.486708 1.058333,-2.025627 0,-0.623159 0.227944,-0.977791 0.709415,-1.103698 0.390176,-0.102034 0.804263,-0.563422 0.920189,-1.025307 0.171104,-0.681734 0.440073,-0.83979 1.429096,-0.83979 0.67008,0 2.121306,-0.428357 3.224953,-0.951904 1.774303,-0.841697 2.473615,-0.960051 6.040177,-1.022259 3.899901,-0.06802 4.111641,-0.03235 6.390141,1.07653 2.3133,1.125813 4.47412,3.014666 5.19074,4.537408 0.80931,1.719704 1.95297,5.424331 1.9922,6.45329 0.023,0.603478 0.59484,2.153594 1.27073,3.444703 1.17426,2.2431253 1.20432,2.3903663 0.67627,3.3124903 -0.43818,0.76517 -0.77797,0.947429 -1.64077,0.880077 -0.94282,-0.0736 -1.06273,0.01232 -0.89773,0.643261 0.10473,0.400512 -0.0197,1.364827 -0.27647,2.142923 -0.36792,1.1148131 -0.37825,1.649602 -0.0487,2.5227044 0.36593,0.9694686 0.32972,1.1964825 -0.28968,1.81587639 -0.54892,0.5489204 -1.29239,0.7374075 -3.31065,0.8393246 -2.35638,0.118992 -2.63993,0.2130288 -2.99551,0.99343711 -0.21601,0.4741023 -0.39275,1.0629586 -0.39275,1.3085699 0,0.2456109 -0.47625,0.9028423 -1.05834,1.4605134 -0.58208,0.5576711 -1.05833,1.2039 -1.05833,1.4360631 0,0.2321631 0.59707,0.9615276 1.32682,1.6208128 3.22137,2.910318 4.9116,6.985402 4.51182,10.877846 -0.35118,3.419239 -0.32519,3.928131 0.27927,5.468056 0.30465,0.776111 0.55645,2.442986 0.55957,3.704166 0.005,1.969622 -0.1334,2.476684 -0.9803,3.59493 -0.81548,1.076755 -0.96853,1.595271 -0.88512,2.998611 0.0555,0.933206 -0.12362,2.557974 -0.39797,3.610596 -0.27435,1.052621 -0.41788,2.044809 -0.31897,2.204861 0.0989,0.160052 0.76944,0.291003 1.49004,0.291003 0.7206,0 2.88222,0.39878 4.8036,0.886177 3.6767,0.932671 8.2273,1.227473 11.16643,0.723396 1.49342,-0.256134 1.64859,-0.380866 1.94027,-1.559705 0.24693,-0.997952 0.61172,-1.419807 1.64954,-1.907596 1.50882,-0.709168 2.13839,-0.525413 3.95917,1.155587 0.58208,0.537397 1.45521,1.091808 1.94028,1.232023 0.48507,0.140215 1.3185,0.663678 1.85208,1.163253 0.79457,0.743931 0.97014,1.211429 0.97014,2.583233 0,2.080835 -0.67008,3.628214 -2.8632,6.611818 -0.49996,0.680166 -2.27432,1.461936 -3.30808,1.457519 -0.19531,-7.06e-4 -1.20982,-0.649503 -2.25447,-1.441482 -2.74312,-2.079635 -4.13583,-2.144028 -10.78772,-0.498778 -4.37296,1.081592 -5.8765,1.301408 -8.76246,1.281052 -1.91604,-0.01351 -4.0253,-0.126171 -4.68723,-0.250352 -1.12962,-0.211917 -1.20351,-0.166927 -1.20351,0.732854 0,0.53213 -0.4689,1.550673 -1.05393,2.28933 -1.16211,1.467277 -2.957045,2.122226 -5.816136,2.122226 -1.129735,0 -1.681508,0.163559 -1.82651,0.541423 -0.315627,0.822512 -3.264341,2.721772 -4.225707,2.721772 -0.466905,0 -0.934769,0.138906 -1.039692,0.30868 -0.104927,0.169775 0.05672,0.308681 0.359209,0.308681 0.302493,0 0.549987,0.169559 0.549987,0.376798 0,0.207243 0.46107,0.04849 1.024598,-0.352777 0.563527,-0.401268 1.135923,-0.729577 1.271989,-0.729577 0.13607,0 0.719053,-0.396875 1.295527,-0.881944 0.576471,-0.48507 1.344084,-0.881945 1.705801,-0.881945 0.361717,0 0.75977,-0.165205 0.884565,-0.367128 0.124795,-0.20192 0.517677,-0.274839 0.873076,-0.162038 0.355399,0.1128 0.740974,0.0517 0.856841,-0.13577 0.115863,-0.187473 0.703305,-0.278511 1.305426,-0.202308 0.811746,0.102733 1.260086,-0.06366 1.734266,-0.643629 1.17329,-1.435071 1.36835,-0.334888 0.64317,3.62754 -0.37286,2.037292 -0.59154,4.060377 -0.48597,4.495744 0.12003,0.494986 -0.21895,1.605573 -0.90473,2.964088 -0.907051,1.796856 -1.031426,2.315729 -0.719292,3.000784 0.20756,0.455549 0.639862,0.828273 0.960672,0.828273 1.20873,0 3.28722,1.694314 8.19387,6.679371 5.24045,5.324182 7.94993,8.289315 8.90041,9.740202 0.30399,0.46404 1.18596,1.539515 1.95992,2.389942 1.8021,1.980167 4.16609,5.348309 6.11125,8.707152 2.2951,3.963121 5.57386,7.671351 9.26086,10.473931 0.7173,0.54524 1.46149,1.38822 1.65375,1.87329 0.45372,1.1447 1.099,6.27646 1.099,8.73999 0,1.05877 0.22981,2.66072 0.51068,3.55988 1.66279,5.32313 2.73683,9.42451 3.19958,12.21818 0.28926,1.74625 0.67816,4.04813 0.86423,5.11528 0.18607,1.06715 0.58472,3.92465 0.88588,6.35 0.53374,4.29841 1.62105,9.14055 2.77257,12.34722 0.31354,0.87313 0.8663,2.61938 1.22836,3.88056 0.53755,1.87246 0.84641,2.38231 1.68391,2.77968 0.5641,0.26764 1.34477,0.77551 1.73484,1.1286 0.39006,0.35309 1.73944,1.17872 2.99861,1.83474 2.0859,1.08674 2.5873,1.19873 5.64079,1.25986 3.84417,0.077 5.436904,0.3056 6.748224,0.96872 1.56119,0.78948 1.5474,1.51791 -0.0598,3.15549 -1.19708,1.21975 -2.00401,1.64797 -4.614114,2.44863 -2.91376,0.89381 -3.44764,0.95098 -6.76759,0.72469 -3.22429,-0.21977 -3.80847,-0.16449 -5.54094,0.52434 -1.98161,0.78788 -7.85614,2.10858 -9.37908,2.10858 -0.64952,0 -0.84784,-0.1898 -0.84784,-0.81139 z m 7.58472,-2.75979 c 1.81125,-0.83687 5.48069,-1.33517 7.33504,-0.99608 0.79489,0.14536 1.83883,0.11465 2.31987,-0.0682 0.48103,-0.18289 1.31284,-0.23627 1.84846,-0.11863 0.67756,0.14882 1.75906,-0.12823 3.55469,-0.9106 1.41945,-0.61847 2.658884,-1.19632 2.754284,-1.28411 0.51831,-0.47701 -1.673644,-1.01532 -4.935954,-1.21222 -5.54689,-0.33477 -7.01978,-0.55379 -7.98729,-1.18773 -0.67605,-0.44297 -0.78894,-0.68515 -0.48826,-1.04745 0.76206,-0.91823 -0.48843,-0.81628 -1.58702,0.12939 -0.58671,0.50503 -2.01546,1.2165 -3.175,1.58105 -5.82842,1.83237 -6.2243,2.18491 -5.15869,4.5939 l 0.68306,1.54417 1.71285,-0.18573 c 0.94207,-0.10216 2.34785,-0.47913 3.12396,-0.83772 z m -1.46623,-5.9815 c 2.14895,-0.59671 1.33744,-0.68107 -1.54147,-0.16024 -2.08675,0.37752 -2.3424,0.48325 -1.22563,0.50689 0.77611,0.0164 2.02131,-0.13956 2.7671,-0.34665 z m 1.02526,-1.88412 c 1.39295,-0.67181 1.64637,-1.26114 0.83269,-1.93643 -0.56405,-0.46813 -1.69491,-3.55523 -2.33794,-6.38232 -0.24272,-1.06716 -0.71854,-2.49591 -1.05736,-3.175 -0.33882,-0.6791 -0.73287,-1.9491 -0.87567,-2.82223 -0.14279,-0.87312 -0.43374,-1.905 -0.64654,-2.29305 -0.2128,-0.38806 -0.41796,-1.81681 -0.45591,-3.175 -0.13419,-4.80233 -1.29964,-12.33054 -2.80709,-18.13242 -1.47997,-5.69607 -2.31665,-10.30935 -2.50174,-13.79397 -0.18758,-3.53143 -0.67395,-5.77757 -1.18293,-5.463 -0.32766,0.2025 -4.39563,-3.77078 -6.62053,-6.46643 -1.71057,-2.07249 -3.23172,-4.31797 -4.46521,-6.5914 -0.52636,-0.970139 -1.42544,-2.398889 -1.99794,-3.175 -0.57251,-0.776111 -1.31378,-1.807986 -1.64727,-2.293055 -0.33349,-0.48507 -1.2332,-1.516945 -1.99937,-2.293056 -0.76616,-0.776111 -2.26705,-2.442986 -3.33531,-3.704167 -1.06826,-1.26118 -2.34648,-2.716212 -2.84049,-3.233406 -0.49401,-0.517193 -1.93007,-2.124516 -3.19125,-3.571825 -3.27515,-3.758505 -3.4341,-3.821314 -6.10482,-2.412326 -5.968838,3.148979 -9.180008,5.899933 -11.798657,10.107711 -0.928176,1.491439 -0.977621,1.839228 -0.283541,1.994397 0.280617,0.06273 2.074696,1.622185 3.986844,3.465449 7.037644,6.784118 15.324874,13.407058 16.773474,13.404928 0.42541,-7.1e-4 -2.3747,-2.69943 -4.677,-4.50779 -5.64308,-4.4324 -14.263285,-15.599915 -12.041571,-15.599915 0.248888,0 4.859295,5.457648 6.106071,7.228166 1.23601,1.755235 4.86027,5.720115 5.95083,6.510109 0.74898,0.54257 1.88252,1.60248 2.51896,2.35536 0.63644,0.75287 1.59367,1.79821 2.12717,2.32297 0.53351,0.52475 0.97001,1.27515 0.97001,1.66756 0,0.3924 0.43657,0.99347 0.97014,1.3357 0.53358,0.34224 1.36702,0.99425 1.85209,1.4489 0.48507,0.45466 2.23132,1.74781 3.88055,2.87367 3.11891,2.12913 10.93611,9.83651 10.93611,10.78246 0,0.99421 -1.21848,0.50334 -2.66699,-1.07439 l -1.46085,-1.59116 0.13424,2.73769 c 0.55316,11.28169 1.99641,16.96001 4.71957,18.56862 0.55674,0.32888 1.21646,0.79606 1.46606,1.03817 0.24959,0.24213 0.96974,0.803 1.60033,1.24639 1.77436,1.24761 1.27279,2.47525 -0.60148,1.47216 -0.59044,-0.31599 -0.61821,-0.23628 -0.338,0.97014 0.16791,0.72294 0.30908,1.43349 0.31371,1.57901 0.005,0.14552 0.16529,0.26458 0.35703,0.26458 0.19174,0 0.31081,-0.35068 0.26458,-0.77929 -0.0531,-0.49235 0.13512,-0.82504 0.51116,-0.90354 0.46695,-0.0975 0.78999,0.49241 1.4993,2.73778 0.49727,1.57411 0.90412,3.01258 0.90412,3.1966 0,0.58149 -0.71903,0.36167 -0.925,-0.2828 -0.10852,-0.33955 -0.32727,-0.93486 -0.48611,-1.32291 -0.15884,-0.38806 -0.40714,-1.02306 -0.55177,-1.41112 -0.23488,-0.63017 -0.27875,-0.63959 -0.41064,-0.0882 -0.0812,0.33954 0.24471,1.4744 0.72427,2.5219 0.47957,1.0475 0.98144,2.40313 1.11529,3.01252 0.19205,0.87442 0.38166,1.06409 0.89948,0.89974 0.48766,-0.15478 0.80504,0.0797 1.23608,0.91326 1.0695,2.06818 1.60079,4.47526 1.4123,6.39862 -0.10027,1.02321 -0.006,2.87073 0.20868,4.10561 l 0.39099,2.24523 2.16196,-0.14608 c 1.18909,-0.0804 2.75728,-0.4332 3.48489,-0.78412 z m -14.46389,-48.38851 c -0.63059,-0.49698 -1.14653,-1.13022 -1.14653,-1.4072 0,-0.79798 1.25789,-0.58697 2.44238,0.4097 2.08019,1.75037 0.85554,2.69305 -1.29585,0.9975 z m -7.18418,-8.94559 c -0.4388,-0.59351 -0.97917,-1.0791 -1.20083,-1.0791 -0.22167,0 -0.91605,-0.71437 -1.54308,-1.5875 -0.62703,-0.87312 -1.29295,-1.5875 -1.47981,-1.5875 -0.2991,0 -1.81277,-1.29157 -6.32544,-5.39731 -0.68254,-0.62099 -2.19067,-2.200547 -3.35139,-3.510126 -1.16073,-1.309581 -2.28628,-2.381144 -2.50124,-2.38125 -0.21496,-1.09e-4 -0.95854,-0.91301 -1.65242,-2.028669 -0.69387,-1.11566 -2.38331,-3.124409 -3.7543,-4.463888 -2.30344,-2.250472 -3.019504,-3.385418 -2.13596,-3.385418 0.19622,0 1.29,0.637025 2.43063,1.415609 2.13909,1.46013 3.78545,3.249531 5.49589,5.973392 0.5416,0.862492 1.47911,2.059901 2.08336,2.660915 0.60425,0.60101 1.95624,2.078147 3.00442,3.282526 1.04818,1.204379 2.08006,2.195249 2.29305,2.201929 0.64464,0.0202 10.0595,9.28638 10.16598,10.00542 0.16295,1.10035 -0.67561,1.03506 -1.52886,-0.11903 z m 5.80335,-0.92642 c -0.11669,-0.30409 -0.0635,-0.70155 0.11822,-0.88327 0.44551,-0.4455 1.71282,0.49761 1.38388,1.02985 -0.36239,0.58636 -1.25424,0.49933 -1.5021,-0.14658 z m 18.93152,57.70288 c 0,-0.19403 -0.07,-0.35278 -0.15557,-0.35278 -0.0856,0 -0.25368,0.15875 -0.37359,0.35278 -0.11992,0.19403 -0.0499,0.35278 0.15556,0.35278 0.20548,0 0.3736,-0.15875 0.3736,-0.35278 z M -80.189547,121.21094 c 0.668278,-0.72761 1.215809,-1.44198 1.216736,-1.5875 9.17e-4,-0.14552 0.229113,-0.26459 0.507079,-0.26459 0.277967,0 0.606165,-0.3175 0.729329,-0.70555 0.123164,-0.38806 0.449109,-0.70556 0.724323,-0.70556 0.275214,0 0.901909,-0.60674 1.392657,-1.34831 0.490747,-0.74156 1.466632,-1.6222 2.168632,-1.95696 l 1.276363,-0.60866 -0.178335,-2.22168 c -0.09808,-1.22192 0.02689,-3.31378 0.277726,-4.64856 0.250833,-1.33479 0.379959,-2.55002 0.286945,-2.70052 -0.310504,-0.50241 -2.156355,-0.28143 -2.938308,0.35175 -0.886826,0.71811 -2.042407,3.86569 -2.269096,6.18058 -0.108057,1.10346 -0.526292,2.06668 -1.386927,3.19417 -0.677719,0.88786 -1.345736,2.13114 -1.484483,2.76286 -0.138747,0.63171 -0.386827,1.3919 -0.551289,1.68931 -0.164461,0.29741 -0.541151,1.15545 -0.837087,1.90674 -0.948886,2.40896 -0.687552,2.57141 1.065735,0.66248 z m 66.985725,-5.56383 c 0.373892,-0.28286 0.594819,-0.59928 0.490947,-0.70315 -0.103868,-0.10388 -0.56853,0.12733 -1.032581,0.51378 -0.964723,0.80341 -0.489577,0.96953 0.541634,0.18937 z m -57.23596,-1.65636 c -0.25314,-0.25314 -0.417454,-0.27397 -0.417454,-0.0529 0,0.47089 0.417198,0.88808 0.652639,0.65264 0.100248,-0.10024 -0.0056,-0.37012 -0.235185,-0.59972 z m 0.640879,-6.97912 c 0,-0.36515 0.15875,-0.76203 0.352778,-0.88194 0.194028,-0.11992 0.347496,-0.4071 0.341041,-0.63818 -0.0065,-0.23109 -0.323955,-0.0454 -0.705555,0.41267 -0.712018,0.85468 -0.973556,2.38031 -0.341042,1.9894 0.194028,-0.11992 0.352778,-0.51679 0.352778,-0.88195 z M 25.876605,87.836844 c -0.05946,-0.333142 0.128559,-0.580764 0.440972,-0.580764 0.299547,0 0.544632,-0.15875 0.544632,-0.352778 0,-0.194027 -0.132291,-0.352777 -0.29398,-0.352777 -0.161692,0 -0.293984,-0.222991 -0.293984,-0.495533 0,-0.272542 0.211667,-0.41431 0.470373,-0.315034 0.566956,0.217561 0.633194,-0.458276 0.07851,-0.801088 -0.489864,-0.302751 -2.057464,1.606391 -1.822267,2.2193 0.09512,0.247879 -0.01217,0.450688 -0.238397,0.450688 -0.226236,0 -0.313228,-0.15875 -0.193311,-0.352778 0.119916,-0.194028 -0.108839,-0.352778 -0.508346,-0.352778 -1.015136,0 -0.908417,0.583378 0.155568,0.850421 0.485069,0.121747 0.881944,0.390309 0.881944,0.596811 0,0.206499 0.198438,0.306067 0.440973,0.221263 0.242534,-0.08481 0.394324,-0.415534 0.337312,-0.734953 z m -5.878873,-0.957312 c 0.111838,-0.180954 0.453577,-0.329007 0.759428,-0.329007 0.305848,0 0.944524,-0.419132 1.419282,-0.931401 0.676896,-0.730387 0.761764,-0.995701 0.393231,-1.229321 -0.676099,-0.42859 -0.99913,-0.376594 -0.99913,0.160831 0,0.258255 -0.436563,0.673651 -0.970139,0.923103 -0.533577,0.249453 -1.22966,0.583699 -1.54685,0.74277 -0.317193,0.159075 -0.912505,0.201412 -1.322916,0.09409 -0.784822,-0.205235 -1.065499,0.424579 -0.305234,0.684911 0.827249,0.28327 2.368532,0.21378 2.572328,-0.115972 z m -1.425801,-1.951447 c 1.164167,-0.360179 2.304221,-0.907838 2.533456,-1.217019 0.229235,-0.309182 1.056005,-0.753661 1.837274,-0.987736 0.781265,-0.234071 1.515893,-0.579959 1.632504,-0.768639 0.349772,-0.565947 -0.472701,-0.392437 -2.409109,0.508226 -3.716588,1.72866 -6.316691,2.350216 -6.769125,1.618163 -0.271677,-0.439586 -1.477511,-0.46337 -1.742644,-0.03436 -0.232244,0.375782 1.934439,1.847532 2.4482,1.662976 0.194028,-0.0697 1.305278,-0.421421 2.469444,-0.781596 z m -2.315559,-2.292346 c 2.56775,-0.711902 3.924462,-1.373907 2.827087,-1.379478 -0.997394,-0.005 -7.037917,1.581094 -7.037917,1.848055 0,0.461585 1.429647,0.302496 4.21083,-0.468577 z m -2.198955,-1.096232 c 0.542706,-0.233702 1.270733,-0.709952 1.617842,-1.058334 0.347105,-0.348385 0.946348,-0.633426 1.331648,-0.633426 0.411864,0 0.83118,-0.343602 1.017566,-0.833833 0.365316,-0.960854 0.598587,-1.072931 4.502824,-2.163448 1.59337,-0.445054 3.437731,-1.143357 4.098586,-1.551785 0.660852,-0.408432 1.438978,-0.742601 1.729165,-0.742601 0.290188,0 0.906452,-0.369108 1.369473,-0.82024 0.463021,-0.451132 1.607072,-1.339561 2.542343,-1.974282 0.935267,-0.634725 1.608,-1.246526 1.494966,-1.359563 -0.113037,-0.113034 -0.643202,0.118074 -1.178144,0.513574 -0.534941,0.395499 -1.366428,0.843523 -1.847744,0.995605 -0.481316,0.152086 -1.510122,0.779371 -2.286233,1.393967 -2.125122,1.68287 -2.961467,2.113061 -5.468055,2.812598 -1.261181,0.35197 -2.80651,0.791076 -3.434066,0.975794 -0.627557,0.184714 -1.463217,0.745462 -1.857026,1.246106 -0.393806,0.500645 -0.812063,0.814215 -0.929457,0.696818 -0.117397,-0.117394 -0.439815,0.01291 -0.716491,0.289598 -0.276677,0.276677 -1.124197,0.670306 -1.883386,0.874734 -1.456891,0.3923 -1.946776,0.827938 -1.586519,1.410847 0.273424,0.442411 0.289652,0.441621 1.482708,-0.07213 z m 9.228737,-0.756899 c -0.03464,-0.223132 0.06102,-0.690355 0.212608,-1.038271 0.151586,-0.347917 0.187184,-0.721 0.07911,-0.829074 -0.348255,-0.348255 -0.948997,0.248204 -0.948997,0.942231 0,0.418073 -0.179324,0.604852 -0.472648,0.492294 -0.259955,-0.09976 -0.663092,0.0481 -0.895862,0.32857 -0.355621,0.428502 -0.222617,0.509944 0.832789,0.509944 0.747892,0 1.230517,-0.164123 1.193,-0.405694 z m 4.921504,-0.455207 c 0.133128,-0.204061 0.638926,-0.46894 1.123996,-0.588624 0.485069,-0.119687 1.081726,-0.541002 1.325904,-0.936265 0.398195,-0.644564 0.359072,-0.718654 -0.379476,-0.718654 -0.452892,0 -1.196283,0.396875 -1.651984,0.881944 -0.4557,0.48507 -1.180761,0.881945 -1.611252,0.881945 -0.430488,0 -0.877394,0.246754 -0.993123,0.54834 -0.16734,0.436079 0.01009,0.523155 0.866733,0.425333 0.592434,-0.06765 1.186074,-0.289962 1.319202,-0.494019 z M 13.19207,79.648618 c 1.46909,-0.51731 2.252508,-1.211982 1.366813,-1.211982 -0.515038,0 -4.277229,1.738919 -4.277229,1.976973 0,0.23586 0.268686,0.165238 2.910416,-0.764991 z m 8.456669,-0.77101 c 2.487959,-1.065781 4.538585,-2.368145 3.273193,-2.078817 -0.667555,0.152632 -3.996722,1.441206 -5.094281,1.971766 -0.487698,0.235755 -0.967687,1.07719 -0.614475,1.07719 0.09398,0 1.189986,-0.436563 2.435563,-0.970139 z m 4.225414,0.49669 c 0.260396,-0.2604 0.866627,-0.683874 1.347174,-0.941056 0.48055,-0.257182 0.700599,-0.525311 0.489002,-0.595845 -0.517934,-0.172643 -3.3819,1.475644 -3.083126,1.774419 0.356239,0.356239 0.723064,0.286364 1.24695,-0.237518 z M 13.19207,78.049899 c 1.309688,-0.445554 2.38125,-0.937683 2.38125,-1.093625 0,-0.155938 -0.126689,-0.283527 -0.281534,-0.283527 -0.710604,0 -6.2467878,2.122466 -6.3509028,2.434812 -0.127932,0.38379 0.400678,0.252278 4.2511868,-1.05766 z m 21.607639,1.092292 c 0.127547,-0.206375 -0.23846,-0.352778 -0.881944,-0.352778 -0.643484,0 -1.009491,0.146403 -0.881945,0.352778 0.119917,0.194028 0.516792,0.352778 0.881945,0.352778 0.365153,0 0.762028,-0.15875 0.881944,-0.352778 z M 7.9720002,78.380008 c 0.494199,-0.225171 0.898542,-0.639255 0.898542,-0.920186 0,-0.369789 0.245449,-0.449181 0.889184,-0.287616 1.1524898,0.289257 2.5316598,-0.394727 1.9562228,-0.970164 -0.305269,-0.305269 -0.480021,-0.284511 -0.707827,0.08409 -0.166363,0.269184 -0.537764,0.399144 -0.825331,0.288791 -0.5873888,-0.2254 -2.8956558,0.481789 -3.4800648,1.066197 -0.209694,0.209695 -0.274602,0.553844 -0.144236,0.76478 0.293818,0.475407 0.314103,0.475033 1.41351,-0.02589 z M 33.212209,77.53387 c 0,-0.302493 -0.15875,-0.451873 -0.352777,-0.331957 -0.194028,0.119917 -0.352778,0.367411 -0.352778,0.549988 0,0.182577 0.15875,0.331957 0.352778,0.331957 0.194027,0 0.352777,-0.247495 0.352777,-0.549988 z M 6.6076492,76.185349 c 0.06309,-0.429877 -0.07422,-0.561827 -0.439,-0.421848 -0.291948,0.112028 -0.676578,0.20369 -0.854738,0.20369 -0.178156,0 -0.323924,0.16812 -0.323924,0.373599 0,0.205479 0.15875,0.275484 0.352778,0.155568 0.194027,-0.119916 0.352777,-0.03668 0.352777,0.184968 0,0.638447 0.810278,0.197842 0.912107,-0.495977 z M 30.67017,76.472221 c 0.434474,-0.304317 0.697502,-0.702896 0.584504,-0.88573 -0.118368,-0.191523 -0.527957,-0.106528 -0.96634,0.200529 -1.06239,0.744125 -1.398175,0.66523 -1.109959,-0.260801 0.244779,-0.786462 0.24015,-0.787591 -0.504147,-0.122841 -0.574764,0.513338 -0.658485,0.782616 -0.356465,1.146528 0.522658,0.629765 1.382942,0.601356 2.352407,-0.07768 z m 7.833706,-0.50503 c 0,-0.194028 -0.15875,-0.352778 -0.35278,-0.352778 -0.19403,0 -0.35278,0.15875 -0.35278,0.352778 0,0.194028 0.15875,0.352778 0.35278,0.352778 0.19403,0 0.35278,-0.15875 0.35278,-0.352778 z M 10.458042,75.320433 c 0,-0.638055 -0.6904908,-0.521571 -0.8274398,0.139587 -0.0762,0.367845 0.05605,0.529117 0.352778,0.430206 0.2610628,-0.08702 0.4746618,-0.34343 0.4746618,-0.569793 z m 8.206871,0.317087 c 0.336917,-0.18132 1.125964,-0.536448 1.753443,-0.789171 0.627479,-0.252723 1.209887,-0.639353 1.294243,-0.859179 0.08444,-0.220042 -0.468909,-0.09903 -1.231131,0.269233 -0.761481,0.367908 -1.859827,0.763986 -2.440774,0.880173 -0.580944,0.116191 -1.056263,0.35016 -1.056263,0.519935 0,0.405556 0.908999,0.3942 1.680482,-0.02099 z m -7.942287,-2.143968 c 0.921632,-0.420366 1.675694,-0.90889 1.675694,-1.08561 0,-0.476511 -0.233659,-0.405356 -1.692053,0.515292 -0.7288908,0.460128 -1.8369878,0.94899 -2.4624338,1.086361 -0.65507,0.143877 -1.137179,0.47068 -1.137179,0.770848 0,0.459409 0.114822,0.45932 0.970138,-7.05e-4 0.533577,-0.28701 1.724202,-0.865774 2.6458338,-1.28614 z m 5.854827,1.213079 c 0.611893,-0.305251 1.112534,-0.707714 1.112534,-0.894358 0,-0.372407 -0.760211,-0.02639 -1.940278,0.883126 -0.914756,0.705037 -0.572332,0.709683 0.827744,0.01122 z m 7.14375,-0.03052 c 0.6604,-0.32203 1.859174,-1.155467 2.663941,-1.852083 0.804764,-0.696613 2.743144,-2.139696 4.307505,-3.206849 1.564365,-1.067153 2.850607,-2.064925 2.858319,-2.217272 0.0194,-0.383039 -1.060598,0.219872 -4.690936,2.618758 -2.435708,1.609488 -3.254093,1.986851 -3.74227,1.725588 -0.525593,-0.281291 -0.609942,-0.198911 -0.53116,0.518766 0.07455,0.679136 -0.223492,1.039016 -1.461202,1.764362 -0.855172,0.501163 -1.554857,0.98389 -1.554857,1.072723 0,0.336095 0.993648,0.140201 2.15066,-0.423993 z m 13.018784,-0.296425 c 0.461769,-0.491536 0.634889,-0.881944 0.391079,-0.881944 -0.697025,0 -1.700974,0.638503 -1.926004,1.224922 -0.325194,0.847442 0.613667,0.637656 1.534925,-0.342978 z m -22.380621,0.01122 c 0.376633,-0.284868 0.49572,-0.522993 0.264636,-0.529166 -0.231083,-0.0062 -0.519867,0.150121 -0.641738,0.347313 -0.12187,0.197192 -0.358397,0.273978 -0.52561,0.170635 -0.167214,-0.103343 -0.40374,-0.02656 -0.525611,0.170635 -0.333753,0.540022 0.648529,0.430389 1.428323,-0.159417 z m 16.383399,0.185117 c 0,-0.18306 0.47625,-0.614161 1.058333,-0.958007 0.582084,-0.343845 1.058334,-0.759559 1.058334,-0.923808 0,-0.16425 -0.714375,0.214386 -1.5875,0.841417 -1.743619,1.252174 -1.836914,1.37323 -1.058334,1.37323 0.291042,0 0.529167,-0.149776 0.529167,-0.332832 z m 4.313209,-1.002697 c 0.334973,-0.287461 0.516664,-0.672126 0.403754,-0.854816 -0.21736,-0.351698 -1.894741,1.035629 -1.894741,1.567103 0,0.348671 0.574467,0.07423 1.490987,-0.712287 z M 21.062144,73.34655 c 0.630439,-0.463973 0.636714,-0.522612 0.07906,-0.738833 -0.740092,-0.286964 -2.473141,0.248842 -2.664819,0.823881 -0.199041,0.597122 1.745749,0.533156 2.585755,-0.08505 z m 1.959776,-1.1877 c -0.580009,-0.193337 -0.477725,-0.777773 0.136123,-0.777773 0.291041,0 0.529166,-0.219611 0.529166,-0.488022 0,-0.268411 0.357188,-0.596597 0.79375,-0.729298 0.436563,-0.132701 0.607216,-0.319228 0.379229,-0.414503 -0.56806,-0.237391 -2.927099,1.33677 -2.9325,1.956823 -0.0025,0.275763 0.273445,0.80923 0.612993,1.185482 0.587428,0.650927 0.623588,0.652928 0.745822,0.0412 0.07065,-0.353592 -0.04841,-0.701851 -0.264583,-0.773909 z m -8.778441,0.28056 c 0.789294,-0.735337 0.636509,-0.841008 -0.698631,-0.483203 -0.436562,0.116992 -0.79375,0.432326 -0.79375,0.700737 0,0.693194 0.61032,0.60423 1.492381,-0.217534 z m -3.961825,-0.352777 c 0,-0.194028 -0.07001,-0.352778 -0.155568,-0.352778 -0.08556,0 -0.2536828,0.15875 -0.3735988,0.352778 -0.119916,0.194027 -0.04991,0.352777 0.155568,0.352777 0.2054788,0 0.3735988,-0.15875 0.3735988,-0.352777 z m 26.811112,0.0588 c 0,-0.459345 -0.419373,-0.764836 -0.760516,-0.553999 -0.36485,0.225492 -0.05025,0.847979 0.428558,0.847979 0.182578,0 0.331958,-0.132291 0.331958,-0.29398 z M 19.017691,71.734009 c 0.336917,-0.193943 1.071153,-0.515884 1.631639,-0.715426 0.560487,-0.199538 0.933697,-0.448165 0.82936,-0.552503 -0.282903,-0.282906 -2.82586,0.470147 -3.623215,1.072953 -0.62884,0.475407 -0.635709,0.526228 -0.07251,0.536384 0.34218,0.0062 0.897805,-0.147464 1.234722,-0.341408 z m 15.958407,-1.51e-4 c 0,-0.194028 -0.15875,-0.352778 -0.352777,-0.352778 -0.194028,0 -0.352778,0.15875 -0.352778,0.352778 0,0.194028 0.15875,0.352778 0.352778,0.352778 0.194027,0 0.352777,-0.15875 0.352777,-0.352778 z M 16.278876,71.38108 c 0,-0.194028 -0.247495,-0.352778 -0.549988,-0.352778 -0.302493,0 -0.451873,0.15875 -0.331957,0.352778 0.119917,0.194028 0.367411,0.352778 0.549988,0.352778 0.182577,0 0.331957,-0.15875 0.331957,-0.352778 z m -2.822222,-1.625244 c 0,-0.07625 -0.238125,-0.138645 -0.529167,-0.138645 -0.291042,0 -0.529167,0.153769 -0.529167,0.341708 0,0.187935 0.238125,0.250327 0.529167,0.138645 0.291042,-0.111686 0.529167,-0.265451 0.529167,-0.341708 z m 7.009655,-0.346375 c 1.35515,-0.502306 2.557219,-1.15644 2.671258,-1.453628 0.163848,-0.426977 0.03972,-0.486011 -0.591643,-0.281389 -0.439445,0.142423 -1.414018,0.33886 -2.165717,0.436527 -0.912739,0.118586 -1.42094,0.384874 -1.529927,0.801649 -0.08976,0.343242 -0.50661,0.790194 -0.926331,0.993228 -1.479913,0.715874 0.108589,0.405726 2.54236,-0.496387 z m 8.865345,-0.953307 c 0,-0.17906 -0.198438,-0.241466 -0.440972,-0.138681 -1.647229,0.698073 -2.376107,1.184363 -2.378499,1.586872 -0.0021,0.327441 0.411579,0.230681 1.40836,-0.329544 0.776111,-0.436199 1.411111,-0.939588 1.411111,-1.118647 z M 17.23193,68.70024 c 1.139063,-1.055648 0.897484,-1.406602 -0.464302,-0.674521 -0.559855,0.300972 -1.464035,0.702504 -2.009284,0.892298 -0.556447,0.193686 -0.889939,0.509193 -0.760166,0.719166 0.350001,0.566318 2.185564,0.0345 3.233752,-0.936943 z m -6.201372,0.221379 c 0.849285,-0.382566 2.082384,-1.255691 2.740223,-1.940278 1.663979,-1.731634 0.579565,-1.600154 -1.372461,0.166406 -0.857592,0.776111 -1.733709,1.411111 -1.946927,1.411111 -0.5218258,0 -1.8644098,1.032859 -1.3611118,1.047115 0.217872,0.0062 1.0909968,-0.301791 1.9402768,-0.684354 z m 22.887207,-0.362761 c 0,-0.194028 -0.07,-0.352778 -0.155568,-0.352778 -0.08556,0 -0.253683,0.15875 -0.373599,0.352778 -0.119916,0.194027 -0.04991,0.352777 0.155568,0.352777 0.205479,0 0.373599,-0.15875 0.373599,-0.352777 z m -21.889516,-2.3853 c 3.093978,-1.671246 2.455355,-1.933307 -0.783502,-0.321511 -1.6269578,0.809649 -2.9004858,1.585087 -2.8300568,1.723192 0.159854,0.313468 1.147671,-0.0697 3.6135588,-1.401681 z m 23.587259,0.996237 c 0.08819,-0.264583 -0.0441,-0.396875 -0.308681,-0.30868 -0.254663,0.08489 -0.532472,0.362698 -0.617361,0.617361 -0.08819,0.264583 0.0441,0.396875 0.308681,0.30868 0.25466,-0.08489 0.532472,-0.362701 0.617361,-0.617361 z M 20.864987,66.971358 c 0.241543,-0.291042 0.657856,-0.529167 0.925139,-0.529167 0.267285,0 0.485972,-0.15875 0.485972,-0.352778 0,-0.521155 -0.556383,-0.428424 -1.058333,0.176389 -0.241544,0.291042 -0.648487,0.529167 -0.904321,0.529167 -0.255831,0 -0.563263,0.15875 -0.683179,0.352778 -0.348566,0.563989 0.750577,0.406968 1.234722,-0.176389 z m -2.871579,-1.058334 c 1.031155,-0.679097 1.99512,-1.234722 2.14214,-1.234722 0.147021,0 0.554641,-0.3175 0.905828,-0.705555 0.709242,-0.783707 0.496863,-0.901894 -0.582574,-0.324196 -0.391918,0.209747 -0.780764,0.313175 -0.864101,0.229835 -0.170384,-0.170382 3.855586,-2.721688 4.322071,-2.738946 0.164783,-0.0061 0.612084,-0.43911 0.994005,-0.962247 l 0.694404,-0.95116 -1.223571,0.72481 c -0.672962,0.398646 -1.619853,0.950719 -2.104203,1.226831 -0.48435,0.276109 -1.295703,0.819517 -1.803008,1.207573 -0.507306,0.388055 -1.277225,0.94368 -1.710937,1.234722 -1.852465,1.2431 -1.998063,1.387796 -1.408614,1.399893 0.300743,0.0062 0.769338,-0.18722 1.041319,-0.429754 0.413565,-0.368787 0.426187,-0.349727 0.07711,0.116448 -0.229574,0.306578 -1.053532,0.862203 -1.831019,1.234722 -0.777491,0.372516 -1.41544,0.796364 -1.417666,0.941885 -0.0085,0.558828 0.965323,0.217604 2.768819,-0.970139 z m 14.721632,0.26718 c -0.244652,-0.244648 -0.913942,0.25243 -0.913942,0.67878 0,0.233927 0.202417,0.207162 0.537694,-0.07109 0.29573,-0.245434 0.465042,-0.518894 0.376248,-0.607688 z m -7.087553,0.261987 c 0.119916,-0.194028 -0.01623,-0.352778 -0.30256,-0.352778 -0.286325,0 -0.593347,-0.198437 -0.682279,-0.440972 -0.128115,-0.349409 -0.261796,-0.346357 -0.643809,0.01468 -0.406957,0.384623 -0.400082,0.50753 0.0441,0.788349 0.687091,0.434392 1.312605,0.430727 1.584551,-0.0093 z m 1.720197,-0.542519 c 0.117729,-0.306793 -0.01587,-0.628506 -0.307502,-0.74041 -0.680438,-0.261109 -0.436217,-1.729289 0.278014,-1.671334 0.327953,0.0266 0.472066,-0.149762 0.360316,-0.440973 -0.274785,-0.716082 -0.677654,-0.596483 -1.496254,0.4442 -0.866394,1.10144 -0.923907,1.539925 -0.201993,1.539925 0.29398,0 0.529167,0.313581 0.529167,0.705555 0,0.833374 0.540667,0.93853 0.838252,0.163037 z m 2.336748,-0.204675 c 0,-0.194028 -0.15875,-0.254667 -0.352778,-0.13475 -0.194028,0.119916 -0.352778,0.376777 -0.352778,0.570805 0,0.194027 0.15875,0.254666 0.352778,0.13475 0.194028,-0.119916 0.352778,-0.376777 0.352778,-0.570805 z m 6.614583,-0.04473 c 0.684151,-0.547353 0.522333,-0.971963 -0.370417,-0.971963 -0.908865,0 -1.658055,0.60053 -1.658055,1.329052 0,0.517895 1.19852,0.306909 2.028472,-0.357089 z M 10.22601,65.328711 c 0.686417,-0.556916 0.748577,-0.687955 0.232032,-0.489144 -0.388055,0.149359 -0.9833678,0.351441 -1.3229158,0.449069 -0.339549,0.09763 -0.617361,0.317747 -0.617361,0.489144 0,0.535319 0.732197,0.342836 1.7082448,-0.449069 z m 13.020178,-0.503466 c -0.33618,-0.336183 -1.010176,0.20835 -0.759637,0.613727 0.148915,0.240947 0.346238,0.234862 0.599595,-0.01848 0.207702,-0.207702 0.279722,-0.475555 0.160042,-0.595232 z m 6.085466,-0.67611 c 0.4557,-0.485069 1.118372,-0.881944 1.472604,-0.881944 0.354234,0 0.644062,-0.234047 0.644062,-0.520107 0,-0.286061 0.436563,-0.753287 0.970139,-1.038282 1.356135,-0.724341 4.189208,-3.263653 3.934228,-3.526285 -0.116001,-0.119483 -0.751001,0.264167 -1.411112,0.852551 -0.66011,0.588387 -2.05669,1.646357 -3.103516,2.351045 -1.587634,1.068744 -2.011839,1.213474 -2.557639,0.87262 -0.404933,-0.252885 -0.654322,-0.273036 -0.654322,-0.05286 0,0.195671 0.15875,0.355765 0.352778,0.355765 0.580453,0 0.400498,0.671601 -0.352778,1.316578 -0.388055,0.332263 -0.705555,0.727583 -0.705555,0.87849 0,0.522768 0.586415,0.270281 1.411111,-0.607568 z m 2.116666,-0.261249 c 0,-0.509327 -0.537471,-0.2653 -0.981434,0.445601 -0.413308,0.661807 -0.393891,0.681224 0.267917,0.267917 0.392433,-0.245079 0.713517,-0.566163 0.713517,-0.713518 z M 20.794371,61.330893 c 1.022111,-0.773924 1.698918,-1.460285 1.504016,-1.525253 -0.426579,-0.142194 -6.019511,3.80558 -6.019511,4.248877 0,0.382312 2.033079,-0.843986 4.515495,-2.723624 z m 1.834505,2.652924 c 0,-0.187936 -0.238125,-0.250328 -0.529167,-0.138645 -0.291041,0.111685 -0.529166,0.265451 -0.529166,0.341707 0,0.07625 0.238125,0.138645 0.529166,0.138645 0.291042,0 0.529167,-0.153768 0.529167,-0.341707 z m -8.975619,-1.21695 c 0.376325,-0.275177 0.580876,-0.603676 0.454557,-0.729999 -0.261316,-0.261317 -1.709494,0.553974 -1.709494,0.962406 0,0.41214 0.500133,0.319518 1.254937,-0.232407 z m 19.294369,0.0092 c 0.902226,-0.684883 0.753809,-0.96707 -0.264583,-0.503061 -0.48507,0.221015 -0.881945,0.535111 -0.881945,0.697996 0,0.421569 0.430897,0.348308 1.146528,-0.194935 z M 12.747489,61.329231 c 2.371658,-1.520197 3.162946,-2.280567 1.855692,-1.783186 -1.004139,0.382048 -4.6678668,2.816412 -4.6712178,3.103788 -0.0052,0.44323 0.2518228,0.32269 2.8155258,-1.320602 z m 10.389786,1.044801 c 0.376632,-0.284872 0.526037,-0.517949 0.332009,-0.517949 -0.194027,0 -0.660932,0.233077 -1.037565,0.517949 -0.376633,0.284868 -0.526038,0.517945 -0.33201,0.517945 0.194028,0 0.660933,-0.233077 1.037566,-0.517945 z m 2.464459,-0.349134 c 0.373892,-0.282868 0.585925,-0.608178 0.471188,-0.722919 -0.278864,-0.278864 -1.680157,0.487849 -1.680157,0.919289 0,0.47406 0.411042,0.407293 1.208969,-0.196373 z M 17.51418,61.06233 c 0.673972,-0.436563 1.227371,-0.903443 1.229773,-1.037513 0.01019,-0.568893 -0.752556,-0.632548 -1.662963,-0.138789 -0.541941,0.293923 -0.742414,0.540494 -0.449336,0.552661 0.360905,0.01499 0.248733,0.241329 -0.352778,0.711835 -1.217845,0.952613 -0.266679,0.884707 1.235304,-0.08819 z m 11.817474,0.08819 c 0,-0.194027 -0.16812,-0.352777 -0.373599,-0.352777 -0.205479,0 -0.275484,0.15875 -0.155568,0.352777 0.119916,0.194028 0.288036,0.352778 0.373599,0.352778 0.08556,0 0.155568,-0.15875 0.155568,-0.352778 z m 6.763194,-0.936621 c 0.74271,-0.672144 0.855688,-1.238698 0.196579,-0.985774 -0.505076,0.193816 -1.453043,1.569618 -1.081511,1.569618 0.131886,0 0.530105,-0.262728 0.884932,-0.583844 z M 20.512209,59.799026 c 0,-0.161241 0.427934,-0.518429 0.950962,-0.79375 0.523032,-0.275322 1.51522,-1.015764 2.204861,-1.645427 1.415369,-1.29227 1.683089,-1.379512 1.845395,-0.601369 0.09893,0.474295 0.203119,0.481393 0.785319,0.05352 0.369668,-0.271682 0.558436,-0.675873 0.420151,-0.899626 -0.442839,-0.716527 -2.011327,-0.453168 -2.728101,0.458061 -0.373948,0.475396 -1.468357,1.375258 -2.432022,1.999692 -1.658564,1.07471 -2.184598,1.722064 -1.399343,1.722064 0.194028,0 0.352778,-0.131925 0.352778,-0.293165 z m 12.619235,-0.346485 c 0.08593,-0.257792 -0.07535,-0.336634 -0.418923,-0.204791 -0.307256,0.117906 -0.558645,0.369366 -0.558645,0.558804 0,0.463687 0.801786,0.173334 0.977568,-0.354013 z M 20.284893,58.164797 c 0.610094,-0.477986 1.395191,-1.121104 1.744663,-1.429156 0.349472,-0.308049 0.984472,-0.694821 1.411111,-0.85949 0.732709,-0.282805 0.738657,-0.314318 0.107333,-0.568445 -0.430904,-0.173454 -0.806927,-0.09006 -1.058334,0.234703 -0.214474,0.277061 -1.104332,1.045478 -1.977457,1.707592 -2.229047,1.690349 -2.323253,1.783857 -1.797177,1.783857 0.253333,0 0.959771,-0.391079 1.569861,-0.869061 z m 6.704891,-0.01288 c 0.111683,-0.291042 0.04929,-0.529167 -0.138645,-0.529167 -0.187939,0 -0.341707,0.238125 -0.341707,0.529167 0,0.291042 0.06239,0.529167 0.138645,0.529167 0.07626,0 0.230021,-0.238125 0.341707,-0.529167 z m -7.332994,-1.31827 c 1.910475,-1.492099 2.30565,-2.036576 1.47278,-2.029228 -0.607963,0.0054 -4.435242,3.489625 -3.85403,3.508615 0.257126,0.0084 1.328688,-0.657323 2.38125,-1.479387 z m 10.733197,-0.273936 c 0,-0.292559 -2.352012,-0.230318 -2.652522,0.07019 -0.121123,0.121123 0.06195,0.54978 0.406838,0.952574 l 0.627059,0.732349 0.809311,-0.76031 c 0.445124,-0.418168 0.809314,-0.865833 0.809314,-0.994805 z m -5.468055,1.063039 c 0.119916,-0.194027 -0.02946,-0.352777 -0.331957,-0.352777 -0.302493,0 -0.549988,0.15875 -0.549988,0.352777 0,0.194028 0.14938,0.352778 0.331957,0.352778 0.182576,0 0.430071,-0.15875 0.549988,-0.352778 z m -5.642487,-2.824384 c 0.945614,-1.044893 0.482293,-1.154928 -0.7213,-0.171302 -0.72172,0.58982 -0.870645,0.857567 -0.481863,0.866334 0.309478,0.007 0.8509,-0.305788 1.203163,-0.695032 z m 17.387221,-0.386702 c 0.40628,-0.253721 0.83013,-0.825651 0.94189,-1.270949 0.11177,-0.4453 0.35893,-0.809635 0.54926,-0.809635 0.74707,0 0.33457,-1.363673 -0.4461,-1.47477 -0.49415,-0.07032 -1.088717,-0.643594 -1.580454,-1.523841 -1.13847,-2.037959 -1.091283,-1.912056 -1.652796,-4.409723 -0.283531,-1.26118 -1.092778,-3.95993 -1.798323,-5.997222 C 31.416528,35.2768 31.39903,35.150668 31.51102,30.498502 l 0.113689,-4.722854 -2.998611,0.07061 c -1.649236,0.03884 -3.316111,0.100372 -3.704166,0.136743 -0.487956,0.04574 -0.705556,-0.147007 -0.705556,-0.624958 0,-0.792282 1.699973,-1.3084 2.840143,-0.862277 0.831328,0.325279 3.333468,0.404262 3.333468,0.105223 0,-0.117379 -0.4644,-0.901527 -1.031995,-1.742549 -0.8751,-1.296649 -0.955551,-1.592573 -0.529167,-1.946441 0.388257,-0.322224 0.623401,-0.317246 1.031995,0.02187 0.291042,0.241544 0.529167,0.595994 0.529167,0.787665 0,0.191675 0.760899,1.402549 1.690889,2.690834 2.464632,3.414165 3.953556,5.959009 3.953556,6.757342 0,1.281888 -0.927167,0.722802 -1.763889,-1.063632 -0.454389,-0.970139 -0.934752,-1.763889 -1.067471,-1.763889 -0.421964,0 -0.675163,4.957286 -0.339972,6.656246 0.385033,1.951602 1.406166,5.3444 2.579131,8.569378 0.469942,1.29208 0.957294,2.897473 1.082999,3.567539 0.373326,1.990002 1.075176,2.350852 5.006056,2.573818 1.92444,0.10916 3.69233,0.260561 3.92865,0.336447 0.23632,0.07589 0.51389,0.0018 0.61682,-0.164817 0.10292,-0.166536 -0.79694,-0.417008 -1.99969,-0.556602 -3.42282,-0.39726 -6.19804,-1.801047 -5.31208,-2.687003 0.21913,-0.219131 0.76842,-0.09622 1.53912,0.344385 2.80887,1.605848 6.85873,1.796831 12.84005,0.605508 4.13956,-0.824491 8.37457,-1.31281 10.20162,-1.176302 1.72826,0.129131 1.84261,0.216327 2.67475,2.039736 0.13282,0.291042 0.68131,0.744848 1.21887,1.008458 0.81908,0.401662 1.12071,0.402586 1.86227,0.0057 0.48668,-0.260463 0.95784,-0.714269 1.04701,-1.008458 0.0892,-0.294188 0.45074,-1.169885 0.80346,-1.945996 0.6185,-1.360915 0.72454,-3.534608 0.2128,-4.362612 -0.13593,-0.219936 -0.6556,-0.399885 -1.15482,-0.399885 -0.96607,0 -3.28402,-1.25749 -3.28402,-1.781587 0,-0.641139 -1.02933,0.114307 -1.93351,1.419048 -0.72261,1.042727 -1.30461,1.441835 -2.56553,1.759342 -2.02957,0.511048 -6.79902,0.384319 -8.89371,-0.236312 -2.18294,-0.646783 -8.35848,-1.864903 -9.48773,-1.871447 -1.94295,-0.01125 -2.01856,-0.293282 -1.1588,-4.322445 0.76754,-3.597043 0.7715,-3.737699 0.1822,-6.465567 -0.33133,-1.533691 -0.59311,-3.463219 -0.58173,-4.287837 0.0344,-2.494242 -0.72961,-1.78337 -1.03882,0.966533 -0.0564,0.502144 -0.36148,0.928412 -0.71216,0.995243 -0.5114,0.09746 -0.59393,-0.107227 -0.49632,-1.231117 0.13987,-1.610343 0.77399,-3.262447 1.45421,-3.788714 0.27123,-0.209842 0.97937,-1.329651 1.57364,-2.488469 0.89449,-1.744243 1.07605,-2.503347 1.0547,-4.409723 -0.0182,-1.624368 -0.22376,-2.614573 -0.69779,-3.361114 -0.36961,-0.582084 -0.92789,-1.64621 -1.24063,-2.364723 -0.5704,-1.3104845 -3.23655,-3.8088885 -4.06461,-3.8088885 -0.62793,0 -1.732297,-1.07194 -1.732297,-1.6814377 0,-0.3960813 0.282805,-0.4606961 1.234727,-0.2821164 0.98021,0.1838889 1.23472,0.1187838 1.23472,-0.315849 0,-0.301117 0.39687,-0.8925631 0.88194,-1.3143262 0.48507,-0.4217624 0.88195,-1.0311084 0.88195,-1.3541019 0,-0.3229934 0.3175,-0.87459471 0.70555,-1.22578001 1.04669,-0.9472429 0.8703,-1.41576209 -0.77659,-2.06267689 -1.10031,-0.4322145 -1.37961,-0.6847297 -1.08417,-0.9801772 0.29545,-0.2954478 0.88177,-0.231793 2.2759,0.2470863 1.03285,0.3547837 2.02873,0.7717825 2.21306,0.9266643 0.50558,0.4248186 2.41616,0.3167631 3.01625,-0.1705881 0.3083,-0.2503858 0.52743,-1.0045905 0.52501,-1.8070294 -0.003,-1.0837612 -0.17243,-1.4523622 -0.79375,-1.7296039 -1.07109,-0.4779321 -0.99282,-0.9270581 0.20324,-1.1662691 1.23035,-0.246071 2.12499,-1.456393 1.30821,-1.769822 -0.29544,-0.113369 -0.53716,-0.520596 -0.53716,-0.904947 0,-0.61984 0.15949,-0.671876 1.41111,-0.460415 1.60728,0.271548 1.73093,0.01737 0.83157,-1.7094583 -1.06403,-2.043031 -1.18434,-2.334779 -1.18434,-2.871866 0,-0.293675 -0.22833,-0.533954 -0.50739,-0.533954 -0.33052,0 -0.48424,0.32624 -0.44097,0.935869 0.0538,0.757958 -0.12859,0.98971 -0.95936,1.219092 -1.29792,0.358364 -3.73897,-0.357627 -3.73093,-1.094327 0.008,-0.769849 3.90341,-2.622164 4.86923,-2.315624 0.95346,0.302616 0.95284,0.279278 -0.0531,-1.998145 -0.45237,-1.024179 -0.92279,-2.259018 -1.04537,-2.744087 -0.12258,-0.485069 -0.72421,-1.428751 -1.33694,-2.09707 -1.02952,-1.122906 -1.14851,-1.168028 -1.56784,-0.594556 -0.525,0.717972 -1.80814,0.820164 -5.18391,0.412855 -2.293539,-0.27673 -2.382658,-0.2584 -2.699855,0.555325 -0.579698,1.487142 -2.621329,3.129485 -4.234906,3.406674 l -1.496336,0.25705 1.283812,1.499305 c 1.247224,1.45658 2.992719,2.084926 2.992719,1.077325 0,-0.23209 0.541874,0.103223 1.204165,0.74514 0.662287,0.641916 1.393821,1.103903 1.625621,1.026636 0.23577,-0.07859 -0.23625,-0.734681 -1.071375,-1.489166 -1.154508,-1.043028 -1.560266,-1.240025 -1.790397,-0.869238 -0.236065,0.380352 -0.464016,0.307771 -1.102928,-0.351175 l -0.805363,-0.830618 0.879178,0.264144 c 0.791563,0.237819 0.830499,0.205487 0.390702,-0.324436 -0.642433,-0.774083 -0.226103,-1.161333 0.573676,-0.533605 0.570985,0.448152 0.582796,0.436341 0.134645,-0.134643 -0.891787,-1.136213 -0.05157,-1.109515 1.06631,0.03388 1.200412,1.227812 1.717992,1.406164 1.717992,0.592005 0,-0.291041 0.25797,-0.529166 0.57326,-0.529166 0.44883,0 0.52731,0.229757 0.36157,1.058484 -0.11643,0.582167 -0.047,1.491678 0.1543,2.021136 0.25585,0.67293 0.2532,1.000249 -0.009,1.08758 -0.20613,0.06871 -0.37479,0.370597 -0.37479,0.670856 0,0.664268 -1.868954,0.452074 -3.592848,-0.407919 -1.354191,-0.675559 -2.104419,-0.700909 -1.234913,-0.04173 0.352164,0.266978 0.601627,0.698492 0.554362,0.958919 -0.117877,0.649503 1.177135,2.761581 1.694939,2.76433 0.730063,0.0039 0.919903,0.7536433 0.338126,1.3354203 -0.511383,0.511385 -0.622046,0.50371 -1.276462,-0.08853 -0.394103,-0.356652 -0.716545,-0.8443913 -0.716545,-1.0838663 0,-0.239474 -0.299304,-0.805034 -0.66512,-1.256798 -0.545395,-0.673532 -0.759757,-0.742853 -1.190826,-0.385095 -0.445411,0.369656 -0.457472,0.634779 -0.07896,1.735793 0.24571,0.7147233 0.376287,1.4831093 0.29017,1.7075253 -0.15446,0.402515 -1.230718,1.033852 -2.208322,1.295411 -0.324576,0.08684 -0.545599,0.749744 -0.626117,1.8778793 -0.06845,0.9590116 -0.293282,2.4901843 -0.499639,3.4026063 -0.206354,0.9124216 -0.273618,1.82329839 -0.149472,2.02416969 0.345479,0.5589979 -2.913327,3.83547171 -4.540917,4.56553821 -1.600923,0.7181004 -7.122675,5.5083602 -7.839784,6.8012102 -0.251724,0.453824 -0.463306,1.258037 -0.470178,1.78714 -0.01446,1.113804 -0.787192,1.701669 -3.363892,2.559156 -2.265761,0.754013 -3.3924518,1.611672 -8.0857828,6.155037 -2.11885,2.051145 -4.30166304,4.153705 -4.85069504,4.672358 -1.24052496,1.171875 -1.25874196,1.95827 -0.07495,3.234941 0.662591,0.714573 1.031159,0.887878 1.305278,0.613759 0.63341904,-0.633419 1.41078304,-0.436351 2.71031404,0.687081 1.480559,1.279931 3.797847,2.625707 5.071731,2.94543 0.609166,0.15289 0.925491,0.471138 0.925491,0.931118 0,0.951181 -0.599475,0.881105 -3.037092,-0.355029 -2.340744,-1.187012 -2.254702,-1.156543 -2.254215,-0.798219 0.0011,0.75063 3.940362,2.38899 10.4065848,4.328068 1.358194,0.407293 2.65303,0.818843 2.877414,0.914559 0.297995,0.127116 0.324037,-0.187547 0.09661,-1.167285 -0.171249,-0.737722 -0.315147,-2.004374 -0.319776,-2.814783 -0.0074,-1.296945 -0.1417,-1.539956 -1.120951,-2.028472 -0.611893,-0.305251 -1.238059,-0.555004 -1.391479,-0.555004 -0.153419,0 -0.874363,-0.545476 -1.602098,-1.212169 -1.660938,-1.521619 -3.2768328,-2.211183 -5.8434958,-2.493638 -1.634582,-0.179882 -2.05668,-0.361869 -2.249674,-0.969941 -0.170858,-0.538318 -0.01587,-0.928025 0.551882,-1.387772 1.032002,-0.835663 1.790827,-0.810761 2.020182,0.0663 0.227869,0.871371 1.461678,0.92571 3.6553458,0.160976 2.543728,-0.886764 3.374622,-1.807464 3.62186,-4.013317 l 0.214309,-1.912062 -1.146168,1.110911 c -0.927905,0.899361 -4.8755228,2.889603 -5.7314888,2.889603 -0.114364,0 -0.157205,-0.338483 -0.0952,-0.752186 0.08319,-0.555078 0.641713,-0.94797 2.1313768,-1.499305 1.110255,-0.410916 2.497942,-1.183683 3.083751,-1.717259 0.585808,-0.533577 1.221151,-0.970139 1.411876,-0.970139 0.190726,0 0.602485,-0.494492 0.915021,-1.098868 0.39291,-0.759809 0.681299,-0.985816 0.934643,-0.732472 0.377041,0.377042 -0.149719,4.19699 -0.841389,6.101539 -0.275954,0.759862 -0.11635,1.314196 0.92258,3.204298 1.107642,2.015105 1.25626,2.582132 1.25626,4.793008 0,1.379135 0.137968,2.59279 0.306592,2.697007 0.168628,0.104218 0.325307,-1.183731 0.348181,-2.862107 0.05614,-4.119545 0.325064,-5.331929 1.328529,-5.989426 0.461405,-0.302323 0.83892,-0.831335 0.83892,-1.175582 0,-0.757503 1.255392,-2.386158 1.585715,-2.057196 0.129438,0.128905 0.06373,0.555029 -0.146022,0.946947 -0.209747,0.391919 -0.38136,1.199265 -0.38136,1.794105 0,0.930278 -0.128615,1.081525 -0.919688,1.081525 -0.663645,0 -0.864362,0.144173 -0.720961,0.517867 0.109297,0.284829 0.04691,0.611699 -0.138645,0.726376 -0.187512,0.115888 -0.337372,2.310406 -0.337372,4.940392 0,3.884338 0.157391,5.34972 0.878727,8.181266 1.111931,4.36481 1.111147,6.38791 -0.0035,9.093821 -0.479566,1.164167 -0.872673,2.224201 -0.873573,2.355631 -0.0035,0.495562 3.890469,2.054928 5.179991,2.074422 0.73962,0.01118 1.979765,0.162218 2.755876,0.335633 1.96759,0.439646 8.016342,0.17387 8.922512,-0.392046 z M 24.931019,47.406898 c -0.114917,-0.185942 1.137401,-1.478534 2.782926,-2.872429 1.645525,-1.393893 3.074572,-2.749886 3.17566,-3.013315 0.238224,-0.620808 1.264271,-0.623644 1.264271,-0.0035 0,0.685747 -6.006666,6.227311 -6.749965,6.227311 -0.145172,0 -0.357975,-0.152132 -0.472892,-0.338071 z M 21.441006,37.131317 c -0.411924,-2.059626 -0.269649,-3.850237 0.305925,-3.850237 0.411576,0 0.529167,0.470369 0.529167,2.116666 0,1.164167 0.01189,2.231761 0.02646,2.372431 0.01453,0.14067 -0.123112,0.305622 -0.305925,0.366557 -0.182809,0.06094 -0.432841,-0.391499 -0.555625,-1.005417 z m -9.190799,-0.441134 c -1.642255,-0.495505 -2.105886,-1.292437 -0.751897,-1.292437 1.272589,0 3.469217,0.96429 3.197634,1.403717 -0.272979,0.441696 -0.673375,0.423478 -2.445737,-0.11128 z m 5.641128,-12.54094 c -0.304973,-0.493455 0.749378,-9.763481 1.207925,-10.620286 0.221312,-0.413523 0.588419,-0.68985 0.815799,-0.614056 0.540152,0.180051 0.345599,2.399982 -0.357347,4.077427 -0.298633,0.712632 -0.62558,2.610022 -0.726552,4.216424 -0.172403,2.7429 -0.475619,3.691594 -0.939825,2.940491 z m 1.967911,-2.975627 c -0.376975,-0.454227 0.03408,-4.46265 0.54187,-5.284301 0.113397,-0.183476 0.383219,-1.130311 0.599606,-2.104076 0.411826,-1.853247 1.310001,-2.835645 1.97999,-2.165657 0.259824,0.259824 0.08908,0.98763 -0.568883,2.424801 -0.522312,1.140872 -1.102723,3.28496 -1.305955,4.824285 -0.370734,2.808033 -0.551585,3.142421 -1.246628,2.304948 z m 19.61434,-5.972398 c -0.19079,-2.425724 0.1339,-3.192716 0.98942,-2.337202 1.0352,1.035198 0.61147,4.542063 -0.54881,4.542063 -0.14695,0 -0.34522,-0.992187 -0.44061,-2.204861 z m -11.80342,-0.303293 c -0.945205,-0.945205 2.01725,-5.7481401 3.784928,-6.1363897 1.31209,-0.2881806 1.947682,0.052356 1.378271,0.7384521 -0.227207,0.2737662 -0.63179,0.4977589 -0.899072,0.4977589 -0.267286,0 -0.485976,0.1984377 -0.485983,0.4409717 -7e-6,0.242535 -0.536346,0.868917 -1.191867,1.391956 -0.787989,0.628738 -1.271566,1.375868 -1.427088,2.204861 -0.246807,1.31561 -0.510096,1.511483 -1.159189,0.86239 z M 24.039987,7.9286552 c 0,-0.36189 0.3175,-1.0616177 0.705556,-1.5549492 0.388055,-0.4933315 0.705555,-1.0457639 0.705555,-1.2276208 0,-0.5386388 1.322377,-1.574539 1.54668,-1.2116083 0.235857,0.3816245 -2.204081,4.6521583 -2.657979,4.6521583 -0.164896,0 -0.299812,-0.29609 -0.299812,-0.65798 z M 34.282953,1.2014937 c -0.513912,-0.96025651 -0.456674,-2.4926364 0.09311,-2.4926364 0.533457,0 1.454058,2.2965975 1.130473,2.8201655 -0.340187,0.5504389 -0.822851,0.4212393 -1.223583,-0.3275291 z m 1.815137,-6.599687 c -0.359501,-0.6423934 -0.149673,-1.8901714 0.317853,-1.8901714 0.384641,0 1.029603,1.200895 1.029603,1.9170855 0,0.7283535 -0.935238,0.7096732 -1.347456,-0.026913 z m 5.134726,0.015617 c -0.33246,-0.3324564 0.11626,-1.2889804 1.11513,-2.3771194 1.30108,-1.417347 2.08688,-1.78673 2.70668,-1.272342 0.42622,0.353733 0.20923,0.699915 -1.34207,2.141147 -1.87949,1.7461244 -2.10485,1.8832039 -2.47974,1.5083144 z m -6.256718,-6.8446777 c 0,-0.194028 0.15875,-0.352778 0.352778,-0.352778 0.194028,0 0.352778,0.15875 0.352778,0.352778 0,0.194028 -0.15875,0.352778 -0.352778,0.352778 -0.194028,0 -0.352778,-0.15875 -0.352778,-0.352778 z m 1.058334,-7.90614 c 0,-0.815579 2.146464,-2.436495 2.608324,-1.969691 0.28613,0.289199 0.0608,0.668544 -0.84444,1.421493 -1.387749,1.154313 -1.763884,1.271212 -1.763884,0.548198 z M 55.241686,48.48149 c 0.10939,-0.176991 -0.0354,-0.287421 -0.32175,-0.245395 -0.75538,0.110868 -1.11282,0.567207 -0.44429,0.567207 0.31193,0 0.65665,-0.144815 0.76604,-0.321812 z M 16.984431,31.324768 c 0,-0.299861 -0.396875,-0.942079 -0.881944,-1.427148 -0.485069,-0.48507 -0.881944,-1.179245 -0.881944,-1.542613 0,-1.036398 -0.383209,-1.776705 -0.919689,-1.776705 -0.27028,0 -0.491423,0.14322 -0.491423,0.318265 0,0.175049 -0.490569,0.489282 -1.09015,0.698299 -1.392238,0.485334 -1.228242,0.921558 1.043545,2.775797 1.878961,1.533617 3.221605,1.93125 3.221605,0.954105 z M 44.945566,27.72483 c 0.10448,-0.921632 -0.0102,-2.70757 -0.25495,-3.968751 -0.44263,-2.281304 -0.44714,-2.287629 -0.88057,-1.234722 -0.42295,1.027473 -0.2968,5.027479 0.19934,6.320395 0.38762,1.01013 0.74313,0.585989 0.93618,-1.116922 z M 29.831967,-8.2080527 c 0.306913,-0.117773 0.55802,-0.435273 0.55802,-0.705556 0,-0.610998 -0.590677,-0.648032 -0.804675,-0.05045 -0.100535,0.280731 -0.446314,0.08169 -0.951562,-0.547744 -1.048614,-1.3063583 -1.358956,-0.9427503 -0.374893,0.439239 0.850406,1.194281 0.794215,1.163402 1.57311,0.864512 z m 0.636414,-2.3337073 c -0.420391,-0.420394 -0.858633,-0.670072 -0.973864,-0.55484 -0.115231,0.115232 0.146618,0.541299 0.581889,0.946815 1.032242,0.9616803 1.388936,0.6049863 0.391975,-0.391975 z m -1.489505,-0.09799 c -0.241543,-0.291042 -0.59792,-0.529167 -0.791947,-0.529167 -0.19679,0 -0.158588,0.233983 0.08639,0.529167 0.241544,0.291041 0.59792,0.529166 0.791948,0.529166 0.19679,0 0.158587,-0.233983 -0.08639,-0.529166 z m -0.8757,-2.492615 c -1.424228,-1.867259 -0.695061,-1.991897 0.8942,-0.152847 0.816536,0.944874 1.375815,1.364589 1.382084,1.037194 0.0206,-1.076088 -2.789047,-3.628931 -3.6362,-3.303848 -0.895192,0.343518 -0.704692,1.228917 0.540932,2.514071 1.499076,1.546656 2.024528,1.485981 0.818984,-0.09457 z m 3.571624,-1.008227 c -0.321179,-0.490179 -1.059152,-1.24256 -1.639944,-1.671956 -1.127044,-0.833262 -1.351971,-1.353591 -0.585128,-1.353591 0.258971,0 0.900145,0.481804 1.424831,1.070675 0.524687,0.588871 1.119569,0.968332 1.321961,0.843247 0.544131,-0.336291 -1.443828,-2.2667 -2.334274,-2.2667 -0.411685,0 -1.031325,0.206795 -1.376984,0.459545 -0.579151,0.423488 -0.480645,0.615171 1.255494,2.443063 1.871207,1.970098 3.113398,2.27564 1.934044,0.475717 z m -6.086295,-2.522009 c 0.148463,-0.386886 0.03528,-0.520347 -0.373994,-0.440973 -0.322791,0.0626 -0.652963,0.312261 -0.733718,0.554796 -0.21597,0.648638 0.857455,0.538338 1.107712,-0.113823 z m 4.344695,-2.11964 c 0.542276,-0.362801 1.677388,-0.982498 2.522477,-1.377104 1.034902,-0.483238 1.790196,-1.170585 2.313549,-2.105423 0.938406,-1.676232 2.014611,-2.059616 5.03613,-1.794056 1.29457,0.113779 2.27243,0.04788 2.40207,-0.161874 0.12025,-0.194576 0.56647,-0.360131 0.99158,-0.367899 0.68409,-0.0125 0.65129,-0.07995 -0.28541,-0.586885 -1.59928,-0.865521 -6.341676,-0.220204 -8.286536,1.127584 -0.778168,0.539271 -1.414851,1.203666 -1.414851,1.476432 0,1.341503 -3.496348,3.341138 -4.453301,2.546937 -0.412972,-0.342736 -0.711838,-0.231851 -1.556677,0.577554 -0.575067,0.55095 -1.045577,1.10975 -1.045577,1.241778 0,0.49094 2.825556,0.0592 3.776546,-0.577044 z m -3.649162,-1.20612 c 0.231754,0 0.693219,-0.3175 1.025483,-0.705556 0.68212,-0.796659 1.535546,-0.924855 1.761391,-0.264583 0.111393,0.325658 0.568226,0.240488 1.746988,-0.325697 1.205462,-0.579014 1.64303,-1.010758 1.787687,-1.763889 0.105346,-0.548471 0.158909,-1.030641 0.119027,-1.071488 -0.03988,-0.04085 -0.774866,0.390706 -1.633294,0.959008 -0.858428,0.568303 -2.04209,1.134394 -2.630361,1.257982 -1.125318,0.236412 -3.029454,1.782446 -2.982009,2.421196 0.01531,0.206234 0.107922,0.176534 0.205786,-0.066 0.09786,-0.242535 0.367552,-0.440972 0.599302,-0.440973 z m 3.863217,-3.951172 c 0.967623,-0.620922 1.571748,-1.191472 1.342496,-1.267888 -0.229249,-0.07642 -0.829603,0.153798 -1.334118,0.511588 -0.504518,0.35779 -1.216617,0.825318 -1.582444,1.038951 -0.969935,0.566413 -1.186265,0.846298 -0.654132,0.846298 0.257885,0 1.260574,-0.508027 2.228198,-1.128949 z m -67.84338,140.087043 c -2.561607,-0.13431 -4.909365,-0.47986 -6.369618,-0.93747 -1.271968,-0.39862 -2.888925,-0.81634 -3.593239,-0.92827 -1.816756,-0.28873 -3.619087,-1.37697 -3.619087,-2.18519 0,-0.9247 1.496335,-1.05701 3.22684,-0.28531 2.331403,1.03966 3.801527,1.53954 4.543969,1.54505 0.393393,0.003 1.041181,0.2336 1.439534,0.51262 1.017009,0.71234 9.922669,1.1108 11.563717,0.51739 1.355256,-0.49006 2.413409,-0.23391 2.126146,0.51468 -0.4148,1.08096 -3.81109,1.53528 -9.318262,1.2465 z m 15.3035,-6.12037 c -0.295567,-0.77025 0.08362,-1.14775 1.401117,-1.39491 0.654601,-0.12281 1.47471,-0.53768 1.822461,-0.92194 0.735637,-0.81287 2.286811,-0.94414 2.286811,-0.19351 0,0.49678 -1.473447,1.71515 -3.122164,2.58166 -1.119537,0.58839 -2.146843,0.55772 -2.388225,-0.0713 z"
       style="fill:#000000;stroke-width:0.35277778" />
  </g>
</svg>
