<?xml version="1.0" encoding="UTF-8" standalone="no"?>
<svg
   xmlns:dc="http://purl.org/dc/elements/1.1/"
   xmlns:cc="http://creativecommons.org/ns#"
   xmlns:rdf="http://www.w3.org/1999/02/22-rdf-syntax-ns#"
   xmlns:svg="http://www.w3.org/2000/svg"
   xmlns="http://www.w3.org/2000/svg"
   id="svg8"
   version="1.1"
   viewBox="0 0 75.506237 112.42688"
   height="112.42689mm"
   width="75.506241mm">
  <defs
     id="defs2" />
  <metadata
     id="metadata5">
    <rdf:RDF>
      <cc:Work
         rdf:about="">
        <dc:format>image/svg+xml</dc:format>
        <dc:type
           rdf:resource="http://purl.org/dc/dcmitype/StillImage" />
        <dc:title></dc:title>
      </cc:Work>
    </rdf:RDF>
  </metadata>
  <g
     transform="translate(-30.44941,9.8473894)"
     id="layer1">
    <path
       id="path6347"
       d="m 77.616051,102.34432 c 9.9e-5,-0.16169 0.333199,-1.16711 0.740223,-2.23426 0.407025,-1.067156 1.100053,-3.179416 1.540066,-4.693916 0.638055,-2.19615 0.696616,-2.71395 0.28926,-2.55764 -0.280921,0.1078 -0.735905,0.196 -1.011079,0.196 -0.27517,0 -0.500313,0.20456 -0.500313,0.45458 0,0.25001 -0.296898,1.03692 -0.659768,1.74867 -0.362875,0.71175 -1.174468,2.57095 -1.803541,4.13154 -1.074424,2.665386 -1.770024,3.559236 -1.770024,2.274466 0,-0.30962 0.772784,-2.356026 1.717297,-4.547556 1.61223,-3.74082 1.699483,-4.0973 1.426105,-5.826669 -0.462249,-2.924161 -0.459035,-17.073831 0.0041,-17.939156 0.817224,-1.526995 1.491485,-1.626129 11.945815,-1.756374 8.697064,-0.108349 10.088744,-0.05175 10.840578,0.440862 1.80266,1.181153 1.96807,2.057288 2.25961,11.968978 l 0.2714,9.227049 1.63991,4.23333 c 1.64157,4.237616 1.77612,5.115276 0.78419,5.115276 -0.34618,0 -0.72303,-0.70447 -1.0851,-2.02847 -0.30509,-1.115656 -1.05692,-3.417536 -1.67072,-5.115276 -1.09527,-3.02944 -1.13758,-3.0868 -2.27736,-3.0868 -0.638754,0 -1.161354,0.0994 -1.161354,0.22084 0,0.23108 2.112244,5.72167 3.058614,7.950586 0.52785,1.24321 0.42983,2.05912 -0.24736,2.05912 -0.17715,0 -0.58286,-0.91281 -0.90157,-2.02847 -0.74027,-2.591356 -2.611784,-7.572686 -3.006464,-8.002166 -0.16642,-0.1811 -0.37425,-0.2576 -0.46184,-0.17 -0.20081,0.20081 0.83579,3.99495 1.94025,7.10163 0.639684,1.799316 0.743664,2.467606 0.43237,2.778896 -0.3113,0.3113 -0.50645,0.0385 -0.8115,-1.13432 -0.82664,-3.178216 -2.65786,-8.497226 -2.91292,-8.460966 -0.1455,0.0207 -3.02779,0.0376 -6.405069,0.0376 h -6.140551 l -0.250765,1.85209 c -0.137922,1.01864 -0.291779,2.09021 -0.341908,2.38125 -0.05013,0.29104 -0.202763,1.59906 -0.339186,2.9067 -0.228741,2.192476 -0.616165,3.144086 -1.009233,2.478906 -0.08786,-0.14868 0.04031,-1.54033 0.284829,-3.092556 0.244517,-1.55222 0.520256,-3.65566 0.61275,-4.6743 0.146407,-1.61232 0.08575,-1.85209 -0.468591,-1.85209 -0.5086,0 -0.943007,0.97079 -2.158206,4.82301 -0.836793,2.652656 -1.717569,4.888376 -1.957282,4.968286 -0.239712,0.0799 -0.435758,0.013 -0.435663,-0.1487 z m 21.419295,-10.916094 2.545854,-0.195598 -0.18788,-6.938366 c -0.21016,-7.760557 -0.53658,-9.875248 -1.691884,-10.960601 -0.77118,-0.724485 -1.04793,-0.74187 -10.411238,-0.654071 l -9.618994,0.0902 -0.801384,0.931809 c -0.79097,0.919703 -0.799497,1.031988 -0.65616,8.643056 0.07987,4.241186 0.216433,8.057427 0.303467,8.480538 0.09436,0.458727 0.478448,0.820967 0.951413,0.897297 1.094532,0.176646 16.441656,-0.05415 19.566806,-0.294259 z m -15.36204,-8.479991 c 0.06835,-0.35494 0.41469,-0.701276 0.76963,-0.769631 0.466048,-0.08975 0.610817,0.05502 0.521064,0.521064 -0.06835,0.35494 -0.414691,0.701276 -0.769631,0.76963 -0.466048,0.08975 -0.610817,-0.05501 -0.521063,-0.521063 z m 2.647597,0.08639 c -0.253503,-0.660622 0.605829,-1.79578 1.119233,-1.478477 0.699485,0.432308 0.495258,1.973354 -0.261517,1.973354 -0.367298,0 -0.753269,-0.222695 -0.857716,-0.494877 z m -6.941139,-6.123827 c 0,-1.827092 0.698052,-2.906296 1.879861,-2.906296 0.839092,0 0.729241,0.476977 -0.204167,0.886485 -0.6445,0.282758 -0.798893,0.642923 -0.821111,1.91546 -0.03903,2.235983 -0.854583,2.335568 -0.854583,0.104351 z m 19.406792,0.283598 c -0.20678,-0.767919 -0.5304,-1.491661 -0.71915,-1.608317 -0.44725,-0.276416 -0.44605,-1.581577 10e-4,-1.581577 0.58304,0 1.32744,1.51087 1.52086,3.086805 0.23186,1.889129 -0.30372,1.957875 -0.80317,0.103089 z M 86.895913,74.24562 c -0.334126,-0.539291 0.236442,-0.705111 2.917776,-0.847965 2.437977,-0.129889 2.667867,-0.0852 2.554577,0.496641 -0.10666,0.547814 -0.49464,0.639378 -2.709186,0.639378 -1.421585,0 -2.66501,-0.129625 -2.763167,-0.288054 z M 58.569603,60.779831 c -0.239492,-0.288569 -0.328161,-0.804238 -0.197041,-1.145931 0.150591,-0.392434 -0.164438,-0.235317 -0.85531,0.426582 -0.887953,0.850713 -1.207436,0.97415 -1.698237,0.656138 -0.624856,-0.404869 -0.689371,-0.906765 -0.253197,-1.969752 0.203568,-0.496108 0.07025,-0.617361 -0.678778,-0.617361 -2.084172,0 -3.631156,-2.095101 -4.484292,-6.07314 -0.475662,-2.217932 -1.335452,-2.18579 -1.02382,0.03828 0.0522,0.372555 -0.234296,0.442327 -1.183683,0.288262 -2.075945,-0.336882 -3.117188,-1.046067 -4.166951,-2.838101 -0.799996,-1.365655 -1.02396,-2.228176 -1.123874,-4.328191 l -0.12478,-2.622656 -2.249244,-1.473945 c -1.237084,-0.810669 -3.042994,-1.891195 -4.013133,-2.401171 -2.046732,-1.075909 -3.380544,-2.829274 -3.328876,-4.375979 0.01992,-0.596304 -0.24728,-1.820792 -0.593777,-2.721084 l -0.629994,-1.6369 0.989764,-1.297647 c 0.54437,-0.713705 1.409966,-1.468088 1.923546,-1.676407 0.51358,-0.208319 2.103605,-0.912978 3.533389,-1.565914 1.429784,-0.652935 3.215721,-1.285674 3.96875,-1.406089 0.753029,-0.120414 1.369143,-0.280425 1.369143,-0.355579 0,-0.07516 -0.47625,-0.980514 -1.058333,-2.011909 -0.582084,-1.031395 -1.058334,-2.353761 -1.058334,-2.938591 0,-0.63936 -0.299562,-1.33128 -0.751313,-1.735364 -1.444338,-1.291936 -2.312622,-3.109587 -2.566933,-5.373572 -0.177802,-1.58287 -0.123256,-2.3856838 0.187536,-2.7601638 0.364226,-0.438866 0.218716,-0.729208 -0.861346,-1.718676 -0.714786,-0.654829 -1.29961,-1.363028 -1.29961,-1.573774 0,-0.273618 -0.208181,-0.271761 -0.728106,0.0065 -0.842064,0.450658 -1.733912,-0.07115 -1.752558,-1.025404 -0.01511,-0.773357 -0.841887,-1.817987 -1.827329,-2.308839 C 31.460595,1.9583955 31.141935,1.3821517 30.938195,0.26389657 29.955364,-5.1305046 30.337429,-6.6527276 33.165874,-8.6116236 c 1.703918,-1.180082 2.137251,-1.3259478 3.557227,-1.1974113 2.736834,0.2477387 4.804829,1.4581418 5.966549,3.4922371 0.962933,1.6860325 0.989477,1.8422489 0.508591,2.9931716 -0.746304,1.7861562 -0.64863,4.02839477 0.223794,5.137502 0.402138,0.5112364 0.953015,0.9295194 1.224171,0.9295194 0.717187,0 4.581927,2.021325 5.132001,2.684124 0.257931,0.310787 1.36686,1.174817 2.464287,1.920065 2.086686,1.417041 3.853936,3.2532288 3.853936,4.0042718 0,0.24224 0.730941,1.380998 1.624312,2.530572 1.798966,2.314876 2.650039,3.854974 3.299464,5.97069 0.262524,0.855261 0.993263,1.905886 1.855093,2.667175 1.213619,1.072039 1.596474,1.789498 2.613205,4.897065 1.884122,5.758692 1.549805,7.768421 -1.891037,11.367872 -1.051875,1.100364 -1.532393,1.324984 -3.222109,1.506196 -1.218293,0.130658 -2.766189,0.02455 -4.004701,-0.274529 -2.351765,-0.567898 -2.347112,-0.501904 0.155689,2.208104 1.75237,1.897447 2.637599,2.391611 5.190206,2.897353 2.95024,0.584524 4.220223,1.973368 3.345757,3.658905 -0.356432,0.687024 -0.405715,1.116189 -0.15676,1.365144 0.644811,0.644811 0.392003,1.346461 -1.048008,2.908688 -1.162686,1.261364 -1.411111,1.782752 -1.411111,2.961595 0,1.611855 -1.41707,4.72647 -2.305543,5.067409 -0.844913,0.324224 -1.088897,0.27698 -1.571284,-0.304264 z m 2.00727,-2.055333 c 0.327178,-0.618289 0.701442,-2.106852 0.831698,-3.307926 0.165894,-1.52968 0.670278,-3.031871 1.683961,-5.015287 l 1.44713,-2.831518 -0.751329,-0.526252 c -0.934649,-0.654654 -1.223629,-0.486156 -1.525811,0.88967 -0.133947,0.609861 -0.994985,1.845268 -1.967419,2.822832 -0.951076,0.956095 -1.729228,1.861655 -1.729228,2.012358 0,0.150703 0.235439,1.177921 0.523199,2.282705 0.327926,1.258993 0.438877,2.623894 0.297271,3.657018 -0.258007,1.882366 0.199779,1.888673 1.190528,0.0164 z M 58.364405,55.72201 c -0.133213,-1.00421 -0.380504,-1.825836 -0.549535,-1.825836 -0.427238,0 -0.387817,2.030793 0.04223,2.175464 0.192257,0.06468 -0.124564,0.831966 -0.704046,1.705091 -1.414331,2.131021 -1.33201,2.556683 0.198467,1.026206 1.20789,-1.20789 1.245982,-1.323753 1.012884,-3.080925 z m -1.776551,1.496699 c 0.117772,-0.30691 0.214132,-0.78316 0.214132,-1.058334 0,-0.640856 -2.809169,-3.469946 -2.861272,-2.881562 -0.114702,1.295294 0.19978,2.272915 0.956852,2.974544 0.465348,0.431271 0.846086,0.950458 0.846086,1.153749 0,0.571401 0.604399,0.43652 0.844202,-0.188397 z m -3.4473,-2.545842 c -0.159339,-1.201156 -0.07934,-1.891341 0.275467,-2.376565 0.485001,-0.663282 0.521427,-0.664443 1.212901,-0.03867 0.694845,0.628826 0.707974,0.626385 0.518913,-0.09659 -0.106683,-0.407956 -0.810018,-1.22966 -1.562965,-1.826002 -0.896915,-0.710371 -1.368995,-1.371272 -1.368995,-1.916564 0,-0.866698 -1.286274,-2.049431 -1.849965,-1.701049 -0.178129,0.110088 -0.223569,0.599796 -0.100978,1.088242 0.177519,0.707291 0.111523,0.84534 -0.324193,0.678141 -0.77858,-0.298771 -0.679838,0.377603 0.117414,0.804281 0.365476,0.195597 0.762642,0.878762 0.882592,1.518147 0.119949,0.639385 0.510935,1.715248 0.868858,2.39081 0.357923,0.675559 0.757532,1.664854 0.88802,2.19843 0.388046,1.586763 0.685012,1.102283 0.442931,-0.722611 z m 3.661432,-2.188196 c 0,-0.777886 -0.387788,-1.435061 -1.461901,-2.477453 -1.607139,-1.559672 -2.386175,-1.62368 -0.926445,-0.07612 0.501384,0.531552 1.156397,1.561772 1.455586,2.289376 0.657361,1.598651 0.93276,1.676654 0.93276,0.264192 z m 0.339369,-2.362747 c -2.073516,-2.363219 -8.917688,-7.18016 -9.433908,-6.639606 -0.13974,0.146329 0.03872,0.445869 0.396588,0.665646 6.183756,3.797699 9.371145,6.381094 9.394016,7.613904 0.0071,0.385156 0.109601,0.411417 0.414714,0.106306 0.305113,-0.305114 0.114536,-0.736526 -0.77141,-1.74625 z m 6.988354,0.753823 c -0.118251,-0.118251 -0.405161,0.155783 -0.637571,0.608961 -0.403973,0.787704 -0.394512,0.797165 0.215,0.215004 0.350665,-0.334931 0.540823,-0.705714 0.422571,-0.823965 z m -4.331343,-1.124712 c 1.022935,-0.946129 1.029393,-0.97293 0.260979,-1.082869 -0.875682,-0.125289 -1.092286,-0.769215 -0.258748,-0.769215 0.291042,0 0.529167,-0.303519 0.529167,-0.67449 0,-0.511383 -0.214821,-0.65091 -0.888336,-0.576978 -0.667381,0.07326 -1.322989,-0.341729 -2.635833,-1.668431 -0.961124,-0.971271 -1.659115,-1.908955 -1.551092,-2.083738 0.108023,-0.174784 -0.719556,-1.382656 -1.839064,-2.684159 -1.119507,-1.301503 -2.150464,-2.502758 -2.291014,-2.669452 -0.220327,-0.26131 -3.496427,3.810705 -3.493647,4.342416 0.002,0.383042 2.1406,1.602986 2.63778,1.504699 0.595977,-0.117821 4.204778,1.646312 5.476165,2.676977 1.365733,1.107147 0.559851,1.322267 -0.869446,0.232089 -0.697123,-0.531721 -1.344252,-0.890009 -1.438065,-0.796195 -0.09381,0.09381 0.796408,0.930271 1.97827,1.858796 1.181863,0.928522 2.320297,2.06453 2.529854,2.524457 0.48003,1.05355 0.576732,1.046561 1.85303,-0.133907 z M 47.773712,48.428118 c -0.31783,-0.485069 -0.708384,-0.881944 -0.867898,-0.881944 -0.159514,0 -0.199911,-0.555308 -0.08977,-1.234021 0.110139,-0.678709 -0.0014,-1.954187 -0.247825,-2.834396 -0.434045,-1.550257 -0.415257,-1.641433 0.59987,-2.911122 2.56635,-3.209904 3.776565,-5.314873 4.68695,-8.152173 0.535837,-1.66999 1.092032,-3.315956 1.235988,-3.657706 0.201403,-0.478126 0.130701,-0.571076 -0.306706,-0.403228 -0.802497,0.307947 -0.707834,-0.42527 0.130737,-1.012628 0.38455,-0.269349 0.740182,-0.794289 0.790294,-1.166533 0.10468,-0.77759 -2.523761,-5.046591 -3.121975,-5.070577 -0.48047,-0.01927 -1.414118,-1.074283 -0.950697,-1.074283 0.17898,0 0.522346,0.196928 0.763036,0.437618 0.737555,0.737555 -0.562371,-2.533461 -1.729832,-4.352791 -0.666443,-1.038562 -1.141282,-2.336528 -1.278438,-3.494595 -0.145072,-1.224907 -0.495722,-2.141808 -1.046274,-2.7358638 -0.814232,-0.87857 -1.125713,-2.20159 -0.518325,-2.20159 0.170361,0 0.552099,0.357187 0.848305,0.79375 0.433547,0.638981 0.62766,0.707767 0.995529,0.352777 0.251335,-0.242534 0.69102,-0.440972 0.977078,-0.440972 0.398182,0 0.350629,0.18607 -0.202857,0.79375 -0.670897,0.736587 -0.69438,0.9625928 -0.326078,3.1382498 0.218287,1.289474 0.636113,2.638849 0.928502,2.998611 0.521299,0.641416 1.112542,1.815858 2.938058,5.836137 l 0.911344,2.007025 1.422553,-0.772303 c 1.486682,-0.807119 1.938936,-1.511062 0.722817,-1.125081 -0.404746,0.128461 -0.705556,0.06339 -0.705556,-0.152616 0,-0.381942 0.800646,-0.503197 2.557639,-0.387344 1.16444,0.07678 1.194744,-0.0783 0.231728,-1.185866 -0.779447,-0.896442 -2.811598,-1.770403 -4.95878,-2.132608 -0.708107,-0.11945 -1.485805,-0.456162 -1.728216,-0.74825 -0.382241,-0.460571 -0.321517,-0.485737 0.457445,-0.189576 1.432147,0.544501 1.453175,-0.01892 0.03066,-0.821418 -0.713969,-0.402777 -1.363382,-0.930759 -1.443143,-1.173294 -0.23751,-0.722223 0.516338,-0.502736 1.543803,0.449486 0.52845,0.489752 1.33038,0.983212 1.782064,1.096577 0.451685,0.113366 0.821245,0.342677 0.821245,0.509581 0,0.166904 0.223186,0.217818 0.495969,0.113141 0.675494,-0.259211 2.846772,1.21508 3.554821,2.413711 0.566038,0.958227 2.543316,2.258352 2.896876,1.904791 C 60.885178,20.65002 58.2952,15.676098 57.150725,14.385062 56.54872,13.705965 55.809841,12.67409 55.508773,12.092007 54.922518,10.958549 52.247919,8.0350622 51.79721,8.0350622 c -0.14947,0 -0.09063,0.397546 0.130756,0.883436 0.221386,0.485889 0.301195,0.984761 0.177352,1.1086038 -0.356265,0.356264 -1.300553,-0.6002598 -1.300553,-1.3174038 0,-1.064301 -1.97125,-2.986837 -4.142497,-4.040129 -1.117113,-0.541921 -2.468003,-1.206173 -3.001977,-1.476115 -0.533975,-0.269941 -1.129288,-0.392892 -1.322917,-0.273222 -0.19363,0.11967 -0.352054,-2.12e-4 -0.352054,-0.266404 0,-0.9448004 -1.974365,-2.44810193 -3.049385,-2.32183323 -0.877956,0.1031223 -1.003253,0.0049 -0.974079,-0.7635995 0.01841,-0.4850694 0.145416,-1.23043947 0.282226,-1.65637807 0.230101,-0.7163893 0.158506,-0.7597898 -0.955235,-0.5790543 -1.27875,0.2075123 -2.871213,-0.3963272 -2.524532,-0.9572675 0.275992,-0.4465659 1.929338,-0.4313978 1.929338,0.0177 0,0.1940278 0.15875,0.3527778 0.352778,0.3527778 0.194028,0 0.352778,-0.238125 0.352778,-0.5291667 0,-0.2910416 -0.168743,-0.5291666 -0.374985,-0.5291666 -0.206242,0 -1.256927,-0.4318448 -2.334856,-0.9596547 l -1.959871,-0.9596547 -0.840533,1.047849 c -0.462293,0.5763169 -0.760983,1.2592703 -0.663756,1.517674 0.09723,0.2584041 0.176778,0.7815347 0.176778,1.1625136 0,0.5961161 0.166507,0.6614509 1.194321,0.4686317 1.339262,-0.2512469 1.690114,0.054368 1.388132,1.20914937 -0.127056,0.4858621 -0.390372,0.7116431 -0.688538,0.5903884 -0.265543,-0.1079877 -0.694436,-0.2825341 -0.953096,-0.3878809 -0.348483,-0.1419296 -0.429606,0.085669 -0.313209,0.8787342 0.138149,0.94126933 0.263321,1.04361013 1.038478,0.84905813 0.791251,-0.19859133 0.855256,-0.13886073 0.625821,0.5840254 -0.220622,0.6951186 -0.153639,0.7785846 0.489796,0.6103226 0.878395,-0.229706 1.332789,0.273981 0.620039,0.687301 -0.348007,0.201807 -0.405591,0.520449 -0.195177,1.080016 0.38121,1.013775 0.729196,0.998587 2.020764,-0.0882 1.065656,-0.896691 1.828224,-1.134334 1.828224,-0.56974 0,0.171713 -0.413751,0.583306 -0.919448,0.914651 l -0.919448,0.602445 1.166381,1.2034 c 0.785624,0.810558 1.373676,1.137606 1.801392,1.001854 0.78199,-0.248194 0.789872,-0.06565 0.05825,1.349149 -0.576864,1.115532 -0.521734,1.7531588 0.458291,5.3004938 0.09573,0.346517 1.034676,1.115734 2.086542,1.709371 1.596664,0.901101 1.912484,1.241141 1.912484,2.059152 0,2.165357 2.560776,6.008391 4.003645,6.008391 1.056919,0 1.09249,2.741125 0.0708,5.455518 -0.506004,1.344326 -1.14376,3.722726 -1.417234,5.28533 -0.482316,2.755897 -1.911785,6.613733 -2.61068,7.045675 -0.283313,0.175097 -0.300478,1.905426 -0.06278,6.328304 0.0089,0.166278 0.277332,0.202138 0.596433,0.07969 0.32986,-0.12658 0.888754,0.0474 1.295363,0.403228 0.393348,0.344227 0.599146,0.427429 0.457329,0.184895 -0.433359,-0.741127 0.289224,-0.489656 0.760254,0.264583 0.242344,0.388055 0.601691,0.705556 0.798547,0.705556 0.196857,0 0.09788,-0.396876 -0.219951,-0.881945 z m 1.466124,-14.499551 c -0.131518,-0.524009 -0.07406,-1.112291 0.128409,-1.314764 0.488317,-0.488319 0.747455,-0.176625 0.835064,1.004425 0.09518,1.283046 -0.658417,1.525782 -0.963473,0.310339 z m 0.92303,-3.756699 c 0.07245,-0.510103 0.396379,-0.834034 0.906481,-0.90648 0.889087,-0.12627 0.955925,0.03249 0.42856,1.017866 -0.51876,0.969313 -1.477168,0.889349 -1.335041,-0.111386 z m -1.121991,-8.73125 c 0,-0.194028 0.15875,-0.352778 0.352777,-0.352778 0.194028,0 0.352778,0.15875 0.352778,0.352778 0,0.194028 -0.15875,0.352778 -0.352778,0.352778 -0.194027,0 -0.352777,-0.15875 -0.352777,-0.352778 z m 2.943957,-0.897159 c -0.267527,-0.697164 -0.01801,-0.940155 0.687442,-0.669449 0.306561,0.117638 0.471048,0.438875 0.365527,0.713859 -0.253057,0.659455 -0.791586,0.636742 -1.052969,-0.04441 z m -6.118957,-0.161174 c 0,-0.194028 0.15875,-0.352778 0.352777,-0.352778 0.194028,0 0.352778,0.15875 0.352778,0.352778 0,0.194027 -0.15875,0.352777 -0.352778,0.352777 -0.194027,0 -0.352777,-0.15875 -0.352777,-0.352777 z m 9.957985,-4.685273 c 0.0529,-0.539609 0.250963,-0.988078 0.44014,-0.996598 0.575259,-0.02591 0.577788,0.556481 0.0056,1.286414 -0.521023,0.664647 -0.538202,0.653477 -0.445728,-0.289816 z M 45.396307,14.473257 c -0.113606,-0.921632 -0.315571,-2.135851 -0.44881,-2.698265 -0.343303,-1.449108 0.330878,-0.919782 1.251994,0.982989 0.630014,1.301436 0.681337,1.689092 0.326675,2.467489 -0.608706,1.335965 -0.896036,1.144673 -1.129859,-0.752213 z m 7.744464,-0.843573 c -0.120637,-0.603188 -0.214292,-1.434049 -0.208121,-1.846358 0.011,-0.735037 0.02132,-0.736302 0.529166,-0.06487 0.568551,0.751692 0.698721,2.513237 0.208122,2.816445 -0.170404,0.105315 -0.408529,-0.302035 -0.529167,-0.905222 z m -11.263354,0.1255 c -0.621425,-0.686667 -1.419099,-2.899602 -1.144258,-3.174443 0.321597,-0.321597 0.899382,0.361515 0.899382,1.063336 0,0.409833 0.254417,1.026278 0.565369,1.369878 0.310953,0.343599 0.505331,0.804842 0.43195,1.024984 -0.08199,0.245968 -0.372039,0.136587 -0.752443,-0.283755 z m 7.516235,-0.584024 c 0,-0.302492 0.15875,-0.549986 0.352778,-0.549986 0.194028,0 0.352778,0.149381 0.352778,0.331958 0,0.182576 -0.15875,0.43007 -0.352778,0.549986 -0.194028,0.119916 -0.352778,-0.02946 -0.352778,-0.331958 z m -0.705555,-0.382069 c 0,-0.625081 0.86157,-2.637362 1.129202,-2.637362 0.569744,0 0.260482,1.673928 -0.423647,2.293056 -0.388055,0.351185 -0.705555,0.506123 -0.705555,0.344306 z M 40.393025,8.7328602 c -0.335762,-0.543274 0.309552,-1.146675 1.064611,-0.995464 0.547299,0.109603 0.537298,0.182918 -0.103894,0.76162 -0.502325,0.453369 -0.782845,0.521649 -0.960717,0.233844 z m 2.145215,-1.377105 c -0.797881,-0.881648 -0.594523,-1.836678 0.508537,-2.388242 1.011697,-0.505879 1.548331,0.117704 0.571655,0.664279 -0.72044,0.403179 -0.746527,1.301175 -0.04561,1.570141 0.291042,0.111683 0.529167,0.344826 0.529167,0.518095 0,0.554041 -0.928406,0.33777 -1.563746,-0.364273 z m 2.154769,-0.963928 c -0.375003,-0.375003 0.491547,-1.178987 1.270737,-1.178987 0.694691,0 0.697138,0.02199 0.07852,0.705556 -0.675777,0.746726 -0.972014,0.850671 -1.349254,0.473431 z M 39.75106,6.0359882 c -0.129352,-0.129351 -0.235185,-0.954851 -0.235185,-1.834444 0,-1.887329 0.593428,-1.59231 0.754337,0.375013 0.108208,1.322993 -0.0922,1.886382 -0.519152,1.459431 z m -1.77387,-0.999537 c -0.111684,-0.291041 -0.06873,-0.529166 0.09545,-0.529166 0.164181,0 0.496137,0.238125 0.73768,0.529166 0.357515,0.43078 0.339768,0.529167 -0.09545,0.529167 -0.29404,0 -0.625996,-0.238125 -0.73768,-0.529167 z m 0.20706,-2.889007 C 37.88172,1.6092788 37.864446,1.3044196 38.12728,1.1419795 c 0.540315,-0.33393343 0.758923,0.00476 0.615596,0.9537637 l -0.124454,0.824041 z M 35.143896,1.4798207 C 34.770403,0.50651347 34.897941,0.16114897 35.45893,0.62672887 c 0.577487,0.47927123 0.718891,1.41111133 0.214132,1.41111133 -0.173269,0 -0.411394,-0.2511089 -0.529166,-0.5580195 z M 35.282541,-1.13716 c 0,-0.1940278 0.15875,-0.3527778 0.352778,-0.3527778 0.194028,0 0.352778,0.15875 0.352778,0.3527778 0,0.19402777 -0.15875,0.35277777 -0.352778,0.35277777 -0.194028,0 -0.352778,-0.15875 -0.352778,-0.35277777 z M 61.6224,46.335165 c -0.116687,-0.304084 -0.440331,-0.55288 -0.719207,-0.55288 -0.413865,0 -0.432107,0.158827 -0.09927,0.864245 0.435951,0.92395 1.183395,0.639604 0.818473,-0.311365 z m -12.768501,0.488322 c 0.290594,0.470193 0.892531,0.481746 0.892531,0.01713 0,-0.56321 -1.403038,-1.810519 -1.776756,-1.579548 -0.186951,0.115541 -0.339911,0.617022 -0.339911,1.114396 0,0.738484 0.09128,0.828566 0.49776,0.491219 0.340274,-0.282402 0.570092,-0.296069 0.726376,-0.0432 z m -5.810247,-5.791292 c 0,-0.284215 -0.331545,-0.694192 -0.736767,-0.911059 -0.405222,-0.216866 -1.318034,-0.914463 -2.028472,-1.550208 -0.710438,-0.635748 -1.926705,-1.350412 -2.702816,-1.588145 -0.776111,-0.237737 -1.847674,-0.928794 -2.38125,-1.535684 -0.600754,-0.683299 -0.970139,-0.903337 -0.970139,-0.5779 0,0.993857 1.113024,2.1111 3.112248,3.124042 1.101667,0.558179 2.717405,1.578391 3.59053,2.26714 1.771947,1.397773 2.116666,1.523467 2.116666,0.771814 z m 1.704795,-2.86713 c 0.432881,-0.890997 0.878808,-2.289401 0.990949,-3.10756 0.202785,-1.479479 0.196489,-1.489664 -1.157731,-1.873148 -0.748893,-0.212072 -2.195061,-0.575751 -3.213707,-0.808182 -1.151278,-0.262692 -1.852083,-0.609512 -1.852083,-0.916576 0,-0.271689 -0.238125,-0.493981 -0.529167,-0.493981 -0.291042,0 -0.529167,-0.238125 -0.529167,-0.529167 0,-0.76019 1.19064,-0.651951 1.940278,0.176389 0.351185,0.388056 0.971102,0.712156 1.377593,0.720228 0.40649,0.0081 1.532824,0.299004 2.502963,0.646525 l 1.763888,0.631853 1.143698,-3.358599 c 1.053272,-3.093054 1.101441,-3.423095 0.609229,-4.174303 -0.293958,-0.448638 -0.837931,-0.815704 -1.208829,-0.815704 -1.711293,0 -5.858936,1.156318 -8.366196,2.332405 -4.814163,2.25819 -4.512813,1.999117 -4.631349,3.981573 -0.09856,1.648284 -0.0038,1.887696 1.312686,3.315889 0.818706,0.888192 2.010736,1.734658 2.818009,2.001083 0.769504,0.253957 2.321921,1.229356 3.449814,2.167551 1.127894,0.938191 2.21752,1.709836 2.421392,1.714764 0.203872,0.0049 0.72485,-0.72004 1.15773,-1.61104 z m -1.6166,-2.240647 c -0.821154,-0.685035 -1.053933,-1.431022 -0.446538,-1.431022 0.190967,0 0.865654,0.471597 1.499305,1.047993 0.987782,0.898525 1.051467,1.047793 0.446538,1.046597 -0.388055,-7.06e-4 -1.062743,-0.299375 -1.499305,-0.663568 z m -4.42424,-2.004103 c -0.524148,-0.52415 -0.210403,-0.83803 0.837666,-0.83803 0.712453,0 1.037627,0.152139 0.942506,0.440972 -0.164727,0.500193 -1.40124,0.775988 -1.780172,0.397058 z m -3.719688,-0.729364 c -0.272148,-0.508515 -0.291443,-0.84643 -0.05662,-0.99156 0.413502,-0.255559 0.840955,0.648473 0.620016,1.311289 -0.09741,0.292217 -0.296302,0.179342 -0.563398,-0.319729 z m 0.180525,-3.179057 c -0.39725,-0.102711 -0.565898,-0.367933 -0.440972,-0.693484 0.11126,-0.289941 0.202291,-0.593555 0.202291,-0.674701 0,-0.08114 0.238125,-0.147535 0.529167,-0.147535 0.291042,0 0.529167,0.145767 0.529167,0.323924 0,0.17816 0.09636,0.575035 0.214132,0.881944 0.218151,0.568494 0.101618,0.603423 -1.033785,0.309852 z m 7.698819,-0.104609 C 42.479208,29.74053 41.655139,29.592939 41.036,29.579304 c -0.619139,-0.01365 -1.224514,-0.184669 -1.345276,-0.380065 -0.398465,-0.64473 0.965163,-0.828143 2.613578,-0.351536 0.891712,0.257824 2.137232,0.443046 2.767823,0.41161 1.196161,-0.05963 1.552523,0.416691 0.588508,0.786617 -0.752399,0.288724 -1.935481,0.230004 -2.79337,-0.138645 z m 14.897512,9.311862 c -0.117225,-0.117225 -0.421496,-0.129755 -0.676157,-0.02783 -0.281423,0.112614 -0.19783,0.196208 0.213136,0.213134 0.371887,0.01531 0.580246,-0.06806 0.463021,-0.185286 z m -3.785011,-1.197973 c -0.291042,-0.188087 -0.687917,-0.341973 -0.881945,-0.341973 -0.194028,0 -0.114653,0.153886 0.176389,0.341973 0.291042,0.188087 0.687917,0.341972 0.881944,0.341972 0.194028,0 0.114653,-0.153885 -0.176388,-0.341972 z m 5.997222,0.02296 c 0,-0.937048 -0.910848,-2.485037 -2.296862,-3.903521 -0.853138,-0.873125 -1.787434,-2.155761 -2.076212,-2.850307 -0.497882,-1.197458 -1.492368,-2.350191 -1.769144,-2.050658 -0.07037,0.07615 -0.446015,1.32909 -0.834767,2.784298 -0.388752,1.455209 -0.821566,3.000957 -0.961809,3.434998 -0.223668,0.692234 -0.04426,0.880586 1.460654,1.533482 2.472946,1.072875 6.47814,1.723105 6.47814,1.051708 z m 0.474513,-3.036792 c -0.114894,-0.299409 -0.284559,-0.468722 -0.377032,-0.376248 -0.09247,0.09247 -0.06349,0.337446 0.0644,0.544382 0.347856,0.562843 0.551173,0.453499 0.31263,-0.168134 z m 1.983783,-0.778535 c -0.01953,-0.463419 -1.780297,-2.294897 -1.997492,-2.077702 -0.114713,0.114713 0.01249,0.476345 0.282675,0.803631 0.42123,0.510251 0.419417,0.571321 -0.01272,0.428498 -0.847774,-0.28019 -1.336263,-1.331743 -0.779901,-1.678869 0.758021,-0.472944 1.63857,-0.07101 2.30093,1.050276 0.828068,1.401805 1.403442,1.340619 1.065802,-0.113334 -0.146438,-0.63059 -0.272444,-1.42434 -0.280014,-1.763888 -0.0157,-0.703616 -1.13087,-0.846508 -1.37658,-0.176389 -0.129352,0.352777 -0.255176,0.352777 -0.629121,0 -0.661499,-0.624057 -1.31257,-0.546629 -1.451075,0.172564 -0.09286,0.482174 -0.297933,0.361065 -0.957806,-0.56564 -0.653569,-0.917854 -0.737709,-1.242183 -0.379664,-1.46347 0.27124,-0.167633 0.663981,-0.08029 0.957138,0.212866 0.273433,0.273434 0.644562,0.497152 0.824731,0.497152 0.571134,0 0.353241,-0.718242 -0.289782,-0.955206 -0.339549,-0.12513 -1.241248,-0.755149 -2.003777,-1.400041 -1.470905,-1.243986 -2.81508,-1.518447 -3.15088,-0.643364 -0.122452,0.319105 -0.0018,0.529166 0.303963,0.529166 0.278862,0 0.429127,0.202992 0.333921,0.451094 -0.09521,0.248105 0.07675,0.764042 0.382116,1.146528 0.538015,0.673886 0.547717,0.668531 0.313118,-0.172897 -0.236352,-0.847718 -0.216978,-0.843209 0.816235,0.190003 0.582083,0.582083 1.164643,1.393285 1.294577,1.802673 0.129934,0.409388 0.71402,1.40389 1.297967,2.210005 0.790685,1.091508 1.230226,1.412183 1.721789,1.256167 0.363036,-0.11522 0.76217,-0.04429 0.886963,0.157632 0.264767,0.428403 0.542899,0.482533 0.526887,0.102545 z m -5.633296,-6.2618 c -0.454262,-0.483538 -0.746555,-0.958536 -0.649541,-1.05555 0.09701,-0.09701 0.548057,0.219234 1.002319,0.702772 0.454261,0.483539 0.746555,0.958536 0.649541,1.05555 -0.09701,0.09701 -0.548057,-0.219234 -1.002319,-0.702772 z m 8.668254,4.787699 c 0,-0.374199 -0.164419,-0.652011 -0.365379,-0.617361 -0.200956,0.03464 -0.318727,-0.214817 -0.261715,-0.554366 0.0623,-0.371076 -0.118565,-0.617361 -0.453386,-0.617361 -0.464563,0 -0.488643,0.13178 -0.145045,0.79375 0.383843,0.739507 1.036348,1.675694 1.167927,1.675694 0.03168,0 0.0576,-0.306161 0.0576,-0.680356 z M 65.4156,29.781389 c -0.12234,-0.318812 -0.369789,-0.57966 -0.549882,-0.57966 -0.180209,0 -0.150385,0.330839 0.06633,0.735771 0.449206,0.839347 0.819658,0.719751 0.483556,-0.156111 z m -3.36235,-0.667854 c -0.229901,-0.436563 -0.521679,-0.873125 -0.648395,-0.970139 -0.126716,-0.09701 -0.592148,-0.771702 -1.034293,-1.499306 -0.442145,-0.727604 -1.042307,-1.322916 -1.333693,-1.322916 -0.689648,0 -0.593965,0.189138 1.292893,2.555663 1.630737,2.045296 2.464291,2.643417 1.723488,1.236698 z m 1.227406,-1.918431 c -0.573654,-0.708769 -1.392908,-1.31445 -1.820563,-1.345956 -0.427654,-0.03151 -0.777554,0.02058 -0.777554,0.115757 0,0.09517 0.668264,1.039234 1.485031,2.097916 1.386866,1.797636 1.507209,1.875169 1.820564,1.172916 0.269141,-0.603169 0.129152,-1.006951 -0.707478,-2.040633 z m -0.64427,0.405557 c -1.260268,-1.652294 -0.994096,-1.918469 0.298505,-0.298506 0.54536,0.683482 0.918821,1.315438 0.829914,1.404348 -0.08891,0.08891 -0.596699,-0.408721 -1.128419,-1.105842 z m -8.415637,0.123811 c -0.112616,-0.281421 -0.196209,-0.197831 -0.213137,0.213138 -0.01532,0.371884 0.06806,0.580245 0.185286,0.463021 0.117225,-0.117228 0.129758,-0.421499 0.02785,-0.676159 z m 8.794502,-2.921455 c -0.321799,-0.491127 -0.744931,-0.892955 -0.940294,-0.892955 -0.195364,0 -0.0045,0.4743 0.424045,1.053995 0.927644,1.254707 1.356269,1.120997 0.516249,-0.16104 z m -2.335464,0.07718 c -0.0034,-0.540247 -1.608695,-1.322916 -2.713413,-1.322916 -1.339731,0 -0.915365,0.62601 0.59765,0.88163 0.775095,0.130955 1.498838,0.383032 1.60832,0.560176 0.280505,0.45387 0.510681,0.399941 0.507443,-0.11889 z M 45.318118,22.329548 C 44.803076,21.654292 44.010964,20.185855 43.55787,19.066353 43.029204,17.760128 42.315567,16.720578 41.565941,16.164726 l -1.168122,-0.86617 1.158224,1.24781 c 0.777811,0.837972 1.082225,1.445858 0.926835,1.850799 -0.133491,0.347871 0.197387,1.563009 0.782054,2.87207 0.894294,2.002309 1.129611,2.270197 2.001535,2.278566 l 0.988092,0.0095 z m 16.422757,1.112842 c 0,-0.06319 -0.41842,-0.499755 -0.929823,-0.970139 -0.870362,-0.800553 -0.90446,-0.806451 -0.533209,-0.09224 0.330432,0.635685 0.683963,0.931252 1.374837,1.149423 0.04851,0.01532 0.08819,-0.02385 0.08819,-0.08704 z m -6.173611,-0.590661 c 0.119915,-0.194028 0.05928,-0.352778 -0.13475,-0.352778 -0.194027,0 -0.45089,0.15875 -0.570806,0.352778 -0.119916,0.194028 -0.05928,0.352778 0.134749,0.352778 0.194028,0 0.450891,-0.15875 0.570807,-0.352778 z m 3.913956,-0.651512 c -0.254144,-0.411213 -2.267141,-0.435421 -2.517535,-0.03027 -0.113192,0.183148 0.440713,0.329008 1.249412,0.329008 0.799013,0 1.369668,-0.13443 1.268123,-0.298734 z M 41.101417,-0.43376733 c -0.352262,-0.3892452 -0.716988,-0.63120627 -0.810503,-0.5376919 -0.237043,0.237043 0.642839,1.2454103 1.086721,1.2454103 0.200342,0 0.07604,-0.3184733 -0.276218,-0.7077184 z M 39.889535,-1.4899378 c 0.146213,0 0.181045,-0.324261 0.07741,-0.7205804 -0.103639,-0.396319 -0.04909,-0.6950195 0.121222,-0.6637792 0.170311,0.031242 0.468407,0.019688 0.662435,-0.025668 0.194028,-0.045358 0.588306,-0.1038448 0.876173,-0.1299708 0.287868,-0.026127 0.575066,-0.3136021 0.638217,-0.6388364 0.161103,-0.8296988 -1.577505,-3.4656095 -2.285865,-3.4656095 -0.50595,0 -0.487224,0.1087056 0.13673,0.79375 0.397631,0.4365625 0.898646,1.1350685 1.113367,1.5522359 0.546013,1.0608141 -0.341545,1.3535191 -1.453061,0.4792003 l -0.843081,-0.6631675 -0.02206,2.5349627 c -0.01757,2.01859047 0.05277,2.37327577 0.345309,1.74121297 0.202054,-0.43656247 0.486999,-0.79374997 0.633212,-0.79374997 z M 40.366158,-5.10591 c -0.504691,-0.8913227 -1.69113,-2.0284722 -2.116396,-2.0284722 -0.240662,0 0.05434,0.555625 0.655572,1.2347222 1.058971,1.196128 1.968485,1.6903195 1.460824,0.79375 z m -3.596847,-0.315171 c 0.09902,-0.2970615 0.349956,-0.2880332 0.95216,0.034255 0.670409,0.358792 0.789773,0.3520179 0.662643,-0.037606 -0.241726,-0.7408382 -1.762006,-1.3217899 -2.885168,-1.1025233 l -1.018318,0.1987984 0.841929,0.6473754 c 0.986895,0.758843 1.263804,0.8085494 1.446754,0.2596988 z m -3.779825,-1.3605234 c 0.119915,-0.1940278 0.04991,-0.3527778 -0.155569,-0.3527778 -0.205479,0 -0.373598,0.15875 -0.373598,0.3527778 0,0.1940278 0.07001,0.3527778 0.155569,0.3527778 0.08556,0 0.253682,-0.15875 0.373598,-0.3527778 z m 4.938889,-0.9050304 1.411111,-0.4724001 -1.16972,-0.01684 c -0.643346,-0.00926 -1.476784,0.1474951 -1.852083,0.3483495 -0.871424,0.4663715 -0.932747,-0.1842963 -0.065,-0.6897107 0.339549,-0.1977689 0.483118,-0.3644072 0.319042,-0.3703073 -0.458011,-0.01647 -2.347514,1.4068779 -2.347514,1.768364 0,0.3697168 1.668035,0.1141839 3.704167,-0.5674552 z"
       style="fill:#000000;stroke-width:0.35277778" />
  </g>
</svg>
