<?xml version="1.0" encoding="UTF-8" standalone="no"?>
<!-- Created with Inkscape (http://www.inkscape.org/) -->

<svg
   xmlns:dc="http://purl.org/dc/elements/1.1/"
   xmlns:cc="http://creativecommons.org/ns#"
   xmlns:rdf="http://www.w3.org/1999/02/22-rdf-syntax-ns#"
   xmlns:svg="http://www.w3.org/2000/svg"
   xmlns="http://www.w3.org/2000/svg"
   xmlns:sodipodi="http://sodipodi.sourceforge.net/DTD/sodipodi-0.dtd"
   xmlns:inkscape="http://www.inkscape.org/namespaces/inkscape"
   width="71.614845mm"
   height="210.34654mm"
   viewBox="0 0 71.614848 210.34654"
   version="1.1"
   id="svg8"
   inkscape:version="0.92.2 5c3e80d, 2017-08-06"
   sodipodi:docname="Figure_124.svg">
  <defs
     id="defs2" />
  <sodipodi:namedview
     id="base"
     pagecolor="#ffffff"
     bordercolor="#666666"
     borderopacity="1.0"
     inkscape:pageopacity="0.0"
     inkscape:pageshadow="2"
     inkscape:zoom="0.98994949"
     inkscape:cx="184.49648"
     inkscape:cy="513.19712"
     inkscape:document-units="mm"
     inkscape:current-layer="layer1"
     showgrid="false"
     fit-margin-top="0"
     fit-margin-left="0"
     fit-margin-right="0"
     fit-margin-bottom="0"
     inkscape:window-width="1440"
     inkscape:window-height="807"
     inkscape:window-x="0"
     inkscape:window-y="1"
     inkscape:window-maximized="1" />
  <metadata
     id="metadata5">
    <rdf:RDF>
      <cc:Work
         rdf:about="">
        <dc:format>image/svg+xml</dc:format>
        <dc:type
           rdf:resource="http://purl.org/dc/dcmitype/StillImage" />
        <dc:title></dc:title>
      </cc:Work>
    </rdf:RDF>
  </metadata>
  <g
     inkscape:label="Layer 1"
     inkscape:groupmode="layer"
     id="layer1"
     transform="translate(-29.8357,239.67545)">
    <path
       style="fill:#000000;stroke-width:0.35277781"
       d="m 87.585202,-30.558272 c -1.20704,-1.207047 -1.22926,-1.281659 -1.12929,-3.792361 0.072,-1.807394 0.29079,-2.810997 0.74356,-3.410275 0.35287,-0.46705 0.55713,-1.115268 0.45391,-1.440483 -0.10322,-0.325219 0.0541,-1.276693 0.3497,-2.114385 0.29556,-0.837692 0.60462,-2.650098 0.68682,-4.027569 0.0822,-1.37747 0.24752,-2.758824 0.36739,-3.069671 0.14415,-0.373789 -0.1019,-0.774756 -0.72658,-1.18406 -0.91119,-0.597037 -0.93625,-0.69977 -0.70979,-2.910198 0.13008,-1.269587 0.0896,-2.471988 -0.0909,-2.696496 -0.43302,-0.538794 0.0903,-1.856563 0.95064,-2.393865 0.63116,-0.394166 0.64687,-0.533859 0.20189,-1.795068 -0.26539,-0.752203 -0.71074,-1.796076 -0.98966,-2.319722 -0.27892,-0.523642 -0.70378,-1.507705 -0.94414,-2.186802 -0.24036,-0.679097 -0.63433,-1.710973 -0.87549,-2.293056 -0.24117,-0.582083 -0.53538,-1.296458 -0.65381,-1.5875 -0.11843,-0.291042 -0.65904,-1.322917 -1.20135,-2.293056 -0.54231,-0.970139 -1.27671,-2.716389 -1.632,-3.880555 -0.35528,-1.164167 -0.79988,-2.513542 -0.98801,-2.998612 -0.18812,-0.485069 -0.38106,-1.834444 -0.42876,-2.998611 -0.19911,-4.859602 -0.63876,-7.607597 -1.29012,-8.063826 -0.35024,-0.245315 -0.80509,-0.833188 -1.0108,-1.306379 -0.2057,-0.473195 -0.77013,-1.529115 -1.25428,-2.346498 -0.68237,-1.152006 -0.89229,-2.024496 -0.93364,-3.880556 -0.0294,-1.31692 -0.20756,-2.59449 -0.39603,-2.83903 -0.18848,-0.24455 -0.47465,-1.15105 -0.63595,-2.014454 -0.16131,-0.86341 -0.69613,-2.20799 -1.1885,-2.98795 -0.49237,-0.77997 -0.89522,-1.88816 -0.89522,-2.46264 0,-0.57449 -0.15875,-1.14264 -0.35277,-1.26256 -0.19403,-0.11991 -0.35376,-0.48647 -0.35496,-0.81457 -10e-4,-0.3281 -0.2561,-1.07279 -0.56645,-1.65487 -0.31036,-0.58208 -0.74689,-1.67248 -0.97007,-2.4231 -0.370063,-1.24468 -0.522029,-1.37182 -1.72698,-1.44498 -1.42771,-0.0867 -2.573655,-0.89766 -2.949688,-2.08747 -0.129886,-0.41098 -0.610186,-1.23847 -1.06734,-1.83886 -0.457151,-0.6004 -0.831183,-1.1833 -0.831183,-1.29533 0,-0.65185 -2.422131,-5.20695 -2.608443,-4.90548 -0.12391,0.20048 -0.0399,0.4791 0.186686,0.61913 0.293801,0.18159 0.241925,0.37896 -0.180862,0.68811 -0.390585,0.28561 -0.760991,1.47227 -1.085734,3.47835 -0.602015,3.71891 -1.574981,5.50546 -2.998314,5.50546 -0.911548,0 -0.999478,0.12445 -1.183962,1.6757 -0.503654,4.23499 -0.953024,5.55062 -3.125913,9.15177 -1.100683,1.82418 -1.350816,2.609584 -1.516757,4.762504 -0.265396,3.443264 -0.304981,3.669554 -1.055504,6.033818 -0.356979,1.124546 -0.927707,2.193755 -1.268284,2.376029 -0.567253,0.303583 -0.577579,0.469794 -0.123016,1.980191 0.709411,2.357198 0.646737,7.181596 -0.116174,8.942571 -0.336813,0.777441 -0.733688,1.413531 -0.881945,1.413531 -0.148256,0 -0.270221,0.595313 -0.271033,1.322917 -8.12e-4,0.727604 -0.397688,2.103886 -0.881945,3.0584 -0.484257,0.954515 -0.880468,1.941118 -0.880468,2.192447 0,0.251333 -0.3175,0.62689 -0.705556,0.83457 -0.523427,0.28013 -0.705555,0.738653 -0.705555,1.7763 0,0.889374 0.161791,1.3987 0.444307,1.3987 0.725389,0 1.432487,1.481526 1.377452,2.886061 -0.02823,0.720323 0.105957,1.406885 0.298183,1.525687 0.519153,0.320855 0.42298,1.814378 -0.153987,2.391346 -0.375188,0.375186 -0.428199,0.837322 -0.208027,1.813536 0.419895,1.861756 -0.0929,3.232157 -1.768237,4.725426 -1.604363,1.43001 -1.51127,0.896049 -1.298176,7.446067 l 0.07376,2.267285 -2.20954,1.5128 c -2.802154,1.918536 -4.958135,2.575486 -7.407119,2.257023 -1.901033,-0.247209 -2.480446,-0.654953 -3.760546,-2.646384 -0.821921,-1.278654 -0.937411,-4.431831 -0.225023,-6.143742 0.508731,-1.222512 3.41171,-5.724571 3.895086,-6.04066 0.148358,-0.09701 0.597838,-0.718901 0.998845,-1.381972 0.697642,-1.153555 0.702536,-1.239354 0.113431,-1.98828 -1.067779,-1.357461 -0.601326,-6.539449 0.648871,-7.208534 0.666402,-0.356648 0.660681,0.397982 0.07893,-10.411493 -0.347963,-6.465432 0.360525,-10.965921 2.158221,-13.709551 0.523742,-0.799331 0.559429,-1.075959 0.195397,-1.514592 -0.520454,-0.627108 -0.823874,-3.448202 -0.462294,-4.298241 0.137085,-0.322273 0.30823,-1.141575 0.380323,-1.820676 0.07209,-0.67909 0.231978,-1.63159 0.355301,-2.11666 0.421381,-1.657434 0.346367,-4.056114 -0.151378,-4.840574 -0.52273,-0.82384 -0.612536,-2.9123 -0.258176,-6.00396 0.137452,-1.19922 0.0345,-2.37663 -0.293048,-3.35139 -0.504591,-1.50164 -0.52056,-5.26792 -0.04451,-10.49852 0.27023,-2.96918 0.520617,-8.78043 0.492452,-11.42937 -0.01311,-1.2334 0.146319,-2.18485 0.391503,-2.33638 0.29209,-0.18052 0.3087,-0.45169 0.05653,-0.92288 -0.258717,-0.48341 -0.220156,-0.85451 0.139966,-1.34701 0.273384,-0.37388 0.497062,-1.21168 0.497062,-1.86178 0,-0.6501 0.455571,-2.16758 1.01238,-3.37216 0.556808,-1.20458 1.126639,-2.82515 1.26629,-3.60126 0.139652,-0.77611 0.377017,-1.56986 0.527478,-1.76389 0.150461,-0.19403 0.354361,-0.98778 0.453112,-1.76389 0.09875,-0.77611 0.594521,-2.27028 1.101713,-3.32038 0.549923,-1.13857 0.800417,-2.06418 0.620555,-2.29305 -0.46054,-0.58602 -0.736449,-4.75913 -0.331213,-5.00958 0.575698,-0.3558 0.906061,0.29127 1.100925,2.15635 0.275548,2.63731 0.755768,3.60764 1.900522,3.84018 3.628928,0.73716 8.105382,1.24587 9.292662,1.05601 1.504689,-0.24061 1.511022,-0.25301 1.551894,-3.04049 0.01348,-0.91965 0.167291,-1.7134 0.341794,-1.76389 0.520184,-0.15053 1.262579,2.50404 1.028132,3.67628 l -0.217386,1.08693 2.08182,-0.198 c 4.14878,-0.39459 8.324628,-1.62496 11.959593,-3.52376 0.38806,-0.20271 1.41994,-0.54969 2.29306,-0.77107 1.58475,-0.4018 1.58805,-0.40591 1.90362,-2.37398 0.28228,-1.76042 0.22888,-2.11265 -0.49874,-3.28996 -0.60954,-0.98625 -0.83054,-1.90669 -0.87706,-3.65281 -0.0598,-2.24281 -0.67492,-4.01628 -2.00999,-5.79473 -0.40277,-0.53652 -0.6411,-0.57657 -1.49618,-0.25147 -1.5747,0.5987 -1.937668,-0.15542 -0.42117,-0.87505 1.2366,-0.58681 1.25588,-0.62809 1.04526,-2.23879 -0.26661,-2.03886 -0.40858,-2.19678 -1.07872,-1.19999 -0.2935,0.43656 -0.76028,0.79375 -1.03729,0.79375 -0.277007,0 -0.99026,0.25163 -1.585001,0.55919 -0.742531,0.38398 -1.195307,0.44523 -1.445042,0.1955 -0.200028,-0.20003 -0.812391,-0.27395 -1.360805,-0.16427 -1.541067,0.30821 -5.66652,-0.22302 -5.50406,-0.70876 0.09281,-0.27749 1.329937,-0.41083 3.811711,-0.41083 2.931844,-10e-6 3.850555,-0.12475 4.546551,-0.61736 0.479732,-0.33955 1.114732,-0.62241 1.411106,-0.62858 0.29638,-0.006 0.85637,-0.25331 1.24442,-0.5492 0.69358,-0.52885 0.6871,-0.55412 -0.38156,-1.48809 -0.951953,-0.83197 -1.71215,-2.22414 -2.406029,-4.40623 -0.110864,-0.34865 -0.402138,-0.601 -0.647269,-0.56079 -0.921156,0.15113 -2.412016,-0.76785 -2.773137,-1.70939 -0.711906,-1.85614 0.78032,-6.68941 2.178145,-7.05494 0.373158,-0.0976 0.678466,-0.44466 0.678466,-0.77128 0,-0.76396 0.680448,-1.44052 1.448781,-1.44052 0.899593,0 5.316463,2.05689 6.205833,2.88999 0.71362,0.66847 1.40932,2.51401 1.21914,3.23409 -0.16086,0.60905 2.51127,7.83178 3.15907,8.53893 0.36694,0.40056 0.66717,0.92603 0.66717,1.16771 0,0.59281 2.20145,3.92483 2.59311,3.92483 0.31288,0 0.24604,-0.45163 -0.54821,-3.70417 -0.50047,-2.04949 -0.58802,-6.4913 -0.16404,-8.32276 0.24145,-1.04303 0.11151,-1.66825 -0.73454,-3.53417 -1.40589,-3.10064 -4.11645,-6.5821 -5.69064,-7.30909 -0.70208,-0.32425 -1.48629,-0.78797 -1.74268,-1.0305 -0.25639,-0.24254 -0.68757,-0.44098 -0.95817,-0.44098 -0.50139,0 -3.01773,-1.07665 -3.33816,-1.42828 -0.09701,-0.10646 -0.890761,-0.39689 -1.763886,-0.6454 -2.200914,-0.62643 -4.202847,-2.00614 -4.729999,-3.25987 l -0.443646,-1.05511 -1.264366,1.30173 c -1.263665,1.301 -1.35031,1.91763 -0.404104,2.87587 0.236118,0.23912 0.350234,0.73714 0.253587,1.10671 -0.09664,0.36957 -0.0032,0.77861 0.207794,0.90897 0.735619,0.45464 0.371259,1.79255 -0.850424,3.12274 -1.192147,1.29802 -1.834595,2.75251 -1.640048,3.71303 0.122535,0.60499 -2.062272,3.51208 -2.83686,3.77472 -0.82358,0.27925 -1.216322,1.79268 -1.691511,6.51823 -0.619269,6.15835 -1.380359,10.86095 -2.175185,13.43995 -0.719774,2.33548 -2.043676,4.02862 -5.628642,7.19849 -0.658892,0.5826 -1.356736,1.347 -1.550764,1.69867 -0.216167,0.39179 -0.916392,0.71451 -1.808234,0.83338 -1.164492,0.1552 -1.775599,0.006 -3.056871,-0.74451 -2.158898,-1.2652 -2.516208,-1.73216 -2.026131,-2.64788 0.214319,-0.40045 0.512636,-0.7281 0.662927,-0.7281 0.150292,0 1.110169,0.71437 2.133061,1.5875 2.05126,1.75092 2.421759,1.88129 2.757117,0.97014 0.254827,-0.69236 1.145041,-1.58539 2.944042,-2.95337 3.360848,-2.55563 4.968607,-5.41754 5.048642,-8.9869 0.02653,-1.18288 0.249318,-2.39297 0.495097,-2.68909 0.248783,-0.29974 0.527342,-1.92664 0.628405,-3.67015 0.09984,-1.72246 0.326732,-3.68737 0.504196,-4.36647 0.177464,-0.67909 0.430838,-2.22438 0.563054,-3.43397 0.205541,-1.8804 0.413855,-2.36628 1.436872,-3.35139 0.888256,-0.85533 1.147221,-1.35807 1.005265,-1.95152 -0.148545,-0.62101 0.0074,-0.87491 0.698867,-1.1378 0.927882,-0.35278 1.031442,-0.72044 0.969713,-3.44268 l -0.034,-1.4993 h 1.388294 c 0.763563,0 1.388294,-0.16373 1.388294,-0.36385 0,-0.6551 -0.952462,-0.74819 -2.223102,-0.21728 -1.179064,0.49264 -1.657455,0.44818 -1.657455,-0.15405 0,-0.14564 0.714375,-0.53762 1.5875,-0.87107 0.873125,-0.33345 1.5875,-0.717 1.5875,-0.85233 0,-0.5985 -0.503228,-0.59147 -2.138497,0.0299 -2.057385,0.78175 -2.448255,0.81752 -2.445762,0.22384 0.001,-0.24254 0.755081,-0.6791 1.675694,-0.97014 1.13372,-0.35842 1.714939,-0.75066 1.801199,-1.21556 0.122,-0.65753 0.09233,-0.66109 -0.705556,-0.0846 -1.062381,0.76755 -1.944971,1.14524 -3.432352,1.46885 -1.739321,0.37843 -1.286944,-0.46827 0.808515,-1.51326 1.157943,-0.57745 1.572633,-0.95507 1.322988,-1.20472 -0.513394,-0.51339 -3.367004,0.70639 -4.56952,1.95325 -0.943401,0.97819 -0.956588,1.05746 -0.988173,5.94057 -0.01788,2.76365 -0.183145,5.05205 -0.374257,5.18218 -0.188234,0.12818 -0.661341,0.86805 -1.051349,1.64416 -0.390008,0.77611 -1.095261,2.04611 -1.56723,2.82222 -0.471969,0.77611 -0.811619,1.55143 -0.754779,1.72293 0.05684,0.1715 -0.477867,1.52088 -1.18824,2.99861 -0.710372,1.47774 -1.678234,3.49918 -2.150805,4.4921 -0.963417,2.02424 -1.478845,2.64432 -3.734264,4.49247 -1.487041,1.21851 -2.394172,1.61015 -2.368098,1.02237 0.02021,-0.45574 1.317365,-1.85209 1.720505,-1.85209 0.211434,0 0.384425,-0.15875 0.384425,-0.35277 0,-0.19403 -0.244826,-0.35278 -0.544056,-0.35278 -0.586635,0 -1.147137,-0.391 -2.509382,-1.75051 -0.768011,-0.76648 -0.853941,-1.10906 -0.731024,-2.91442 0.07661,-1.12521 0.284766,-2.04405 0.46257,-2.04185 0.177804,0.002 0.323281,0.14952 0.323281,0.32738 0,0.17786 0.119062,0.44244 0.264583,0.58796 0.145521,0.14552 0.264583,0.72226 0.264583,1.28164 0,1.25403 0.704093,2.65401 1.89364,3.76522 0.863577,0.8067 0.940798,0.81772 1.797408,0.25645 0.492285,-0.32256 0.895064,-0.81186 0.895064,-1.08734 0,-0.27548 0.343171,-1.0825 0.762604,-1.79339 0.706827,-1.19798 0.729174,-1.42522 0.305536,-3.10697 -0.603307,-2.39499 -1.609422,-4.34754 -2.480404,-4.81368 -0.387422,-0.20734 -0.704403,-0.59254 -0.704403,-0.85599 0,-0.26346 -0.238125,-0.57039 -0.529167,-0.68208 -0.695988,-0.26707 -0.683741,-1.28353 0.01547,-1.28353 0.323,0 0.502448,-0.25123 0.440972,-0.61737 -0.06997,-0.41672 0.125635,-0.61736 0.601896,-0.61736 0.463246,0 0.744296,0.27279 0.818358,0.7943 0.09052,0.6374 0.274546,0.7537 0.931653,0.58878 1.055905,-0.26502 1.479479,0.42292 0.753993,1.22457 -0.786307,0.86886 -0.712637,1.35445 0.53577,3.53155 l 1.092874,1.90587 1.642014,-3.31698 c 0.903108,-1.82434 1.822278,-3.63448 2.042601,-4.02253 1.65265,-2.91083 1.948634,-5.67938 0.659637,-6.17006 -2.84572,-1.08327 -3.468664,-1.44873 -3.099194,-1.8182 0.281278,-0.28128 0.8297,-0.23662 2.002738,0.16307 l 1.61539,0.55042 0.01536,-1.30151 c 0.04024,-3.40918 1.127256,-5.6944 3.064704,-6.44291 0.50964,-0.1969 0.713918,-0.49454 0.579617,-0.84452 -0.135132,-0.35215 -0.0026,-0.54046 0.380336,-0.54046 0.32548,0 0.484239,0.16745 0.355796,0.37528 -0.157927,0.25553 0.201274,0.29688 1.125708,0.12959 1.488106,-0.2693 1.984407,-0.50487 1.063661,-0.50487 -0.32338,0 -0.587963,-0.14502 -0.587963,-0.32227 0,-0.62726 1.945678,0.20585 2.345594,1.00436 0.405282,0.80922 0.405457,0.80916 2.055559,-0.71185 2.496986,-2.30164 2.693014,-2.88599 2.873672,-8.56627 0.125483,-3.94547 0.27209,-5.07182 0.702546,-5.39757 0.48774,-0.36911 0.481863,-0.50646 -0.05686,-1.32866 -0.438648,-0.66946 -0.555237,-1.39159 -0.431902,-2.67514 0.182234,-1.89655 0.0911,-2.01532 -0.973935,-1.26934 -0.622974,0.43634 -0.827818,0.38033 -1.908496,-0.52186 -1.407855,-1.17533 -1.251638,-1.51034 0.794508,-1.70385 0.156972,-0.0148 0.187025,-0.18617 0.06678,-0.38073 -0.146078,-0.23636 -0.43852,-0.23604 -0.881355,9.6e-4 -0.942189,0.50424 -1.213585,-0.14066 -0.510663,-1.21346 0.317348,-0.48433 0.507756,-1.08412 0.423128,-1.33288 -0.08463,-0.24875 -0.499653,0.22241 -0.92228,1.04703 -0.841139,1.64121 -0.843878,1.64307 -1.729,1.17619 -0.336915,-0.17772 -1.236391,-0.59557 -1.998834,-0.92856 -1.294749,-0.56546 -1.342696,-0.63728 -0.726324,-1.08799 0.481137,-0.35181 0.522194,-0.48402 0.151538,-0.48796 -1.004997,-0.0107 -1.438049,-0.56363 -1.196168,-1.52736 0.211473,-0.84258 0.399597,-0.93807 1.872541,-0.95049 l 1.637451,-0.0138 -1.091755,-0.47529 c -2.266466,-0.98671 -3.333332,-1.04325 -3.918595,-0.20767 -0.678198,0.96826 -1.290205,0.45725 -0.971789,-0.81142 0.342098,-1.36302 0.931695,-1.67847 3.257733,-1.74294 2.278571,-0.0632 5.017462,0.88176 5.017462,1.73102 0,0.26157 -0.0031,0.59465 -0.0068,0.74017 -0.0038,0.14552 -0.28157,0.26458 -0.617361,0.26458 -0.335791,0 -0.820918,0.13582 -1.078058,0.30182 -0.369649,0.23863 -0.316778,0.44226 0.252543,0.97266 0.709525,0.66103 0.672798,1.72414 -0.05956,1.72414 -0.206498,0 -0.626077,-0.22576 -0.932396,-0.50169 -0.30632,-0.27592 -1.033195,-0.60166 -1.615278,-0.72386 l -1.058333,-0.22219 0.991968,0.57018 c 0.545583,0.3136 0.932536,0.74849 0.859896,0.96641 -0.120121,0.36036 0.912732,1.67503 1.315966,1.67503 0.290323,0 1.59467,-2.76339 1.59467,-3.37848 0,-0.42822 0.20718,-0.53018 0.775391,-0.38159 0.426466,0.11152 0.981298,0.0319 1.232959,-0.17698 0.634343,-0.52646 2.224983,0.54859 2.224983,1.50377 0,0.61544 -0.153737,0.69169 -1.013721,0.50281 -0.902003,-0.19812 -1.034648,-0.11373 -1.203572,0.76572 -0.104415,0.5436 -0.135011,1.04399 -0.06799,1.11197 0.06702,0.068 0.782306,-0.40714 1.589529,-1.05584 l 1.467675,-1.17946 0.712929,0.87946 c 0.59901,0.73893 0.679404,1.20097 0.503111,2.89151 -0.117472,1.12649 -0.06362,2.10242 0.122354,2.21735 0.206353,0.12754 0.199855,0.55331 -0.01714,1.12409 -0.266725,0.70154 -0.221831,1.05967 0.189868,1.5146 0.296556,0.32769 0.537993,1.13892 0.536529,1.80274 -0.0041,1.8621 -0.704829,5.75261 -1.077591,5.98299 -0.183417,0.11336 -0.474127,1.32616 -0.646018,2.69511 -0.171891,1.36895 -0.57175,2.88462 -0.888576,3.36816 -0.514601,0.78538 -0.518753,0.92671 -0.03893,1.32492 0.295413,0.24518 0.537115,0.7986 0.537115,1.22984 0,1.00973 0.988617,1.89198 2.627016,2.34436 0.714643,0.19732 1.56868,0.6281 1.89786,0.95728 0.329177,0.32917 0.861839,0.54779 1.183679,0.48581 0.49696,-0.0957 2.64193,0.30663 6.63867,1.24524 1.01325,0.23795 3.51194,2.20106 3.52142,2.76661 0.004,0.20871 0.40791,0.75671 0.8987,1.21778 0.49079,0.46107 0.82091,1.02448 0.73359,1.25201 -0.0873,0.22752 0.4606,1.01845 1.21756,1.75761 2.36369,2.30808 2.96215,5.42007 1.6038,8.33968 -0.298,0.6405 -0.48502,1.6408 -0.41559,2.22288 0.0694,0.58208 -0.0163,1.14756 -0.19058,1.25661 -0.18423,0.1153 -0.15595,0.92731 0.0675,1.94028 0.2114,0.9581 0.47047,2.377 0.57572,3.15311 0.10524,0.77611 0.48869,1.78971 0.8521,2.25244 0.79503,1.01231 0.8382,1.45173 0.14265,1.45173 -0.31945,0 -0.43891,0.20635 -0.31158,0.53817 0.14578,0.3799 0.33363,0.43267 0.63875,0.17945 0.57217,-0.47486 0.89648,-0.10349 0.89648,1.02657 0,0.50657 0.26234,1.29558 0.58297,1.75336 0.32064,0.45777 0.6228,1.19504 0.67146,1.63837 0.0487,0.44334 0.18346,1.25506 0.29954,1.80382 0.11608,0.54877 0.0738,2.19034 -0.094,3.64794 -0.364,3.1627 -1.82186,5.85947 -3.72027,6.88183 -1.18546,0.63841 -1.24906,0.63772 -2.73668,-0.0295 -0.83767,-0.3757 -2.02259,-1.12045 -2.63317,-1.65501 l -1.11015,-0.97191 -0.27184,1.32469 c -0.43964,2.14246 -0.18078,2.962 1.46184,4.62816 0.85417,0.86641 1.55304,1.72162 1.55304,1.90046 0,0.17885 0.48642,1.00252 1.08094,1.83037 0.59452,0.82786 1.16507,2.04444 1.26789,2.70351 0.10281,0.65907 0.34771,1.39375 0.54422,1.63263 0.38577,0.46893 0.87125,3.39854 1.21002,7.30171 0.11668,1.3444 0.6054,3.80503 1.08604,5.46806 0.48064,1.66303 1.09827,3.81744 1.37251,4.78758 0.27423,0.97014 0.73568,2.26413 1.02544,2.87554 0.28975,0.6114 0.52682,1.33371 0.52682,1.60513 0,0.27142 0.14563,0.64431 0.32361,0.82863 0.17798,0.18433 0.39881,0.82919 0.49073,1.43304 0.0919,0.60384 0.34531,1.43085 0.5631,1.83779 0.21779,0.40694 0.36863,0.86539 0.33521,1.01877 -0.0334,0.15338 0.0667,0.57222 0.22261,0.93075 0.33799,0.77749 -0.78839,3.72229 -1.58248,4.13722 -0.29104,0.15207 -1.28438,0.56549 -2.20743,0.9187 l -1.67827,0.64221 0.21555,2.29305 c 0.11855,1.26118 0.30001,2.43183 0.40325,2.60145 0.10323,0.16962 0.24661,1.12212 0.31862,2.11667 0.072,0.99455 0.19772,2.6814 0.27936,3.74855 0.13637,1.78255 1.3016,5.688084 1.94718,6.526384 0.14942,0.19403 0.36911,0.762029 0.4882,1.262222 0.11908,0.50019 0.61722,1.341808 1.10697,1.870259 0.48976,0.52845 0.89046,1.087748 0.89046,1.242878 0,0.155134 0.40669,1.046932 0.90375,1.981775 0.49706,0.934847 1.04416,2.347553 1.21577,3.139349 1.09686,5.060728 1.43708,6.990101 1.59133,9.024356 0.0956,1.26118 0.25194,2.769305 0.34733,3.351389 0.50727,3.095279 0.6146,4.503826 0.55105,7.231944 -0.12344,5.299428 0.62966,8.390277 2.16939,8.903519 0.1807,0.06024 0.4833,1.910366 0.67243,4.1114 0.282258,3.284781 0.255638,4.105024 -0.14857,4.577507 -0.92094,1.076487 -0.94042,1.818725 -0.0964,3.670716 0.462198,1.014092 1.030408,2.955054 1.262718,4.313249 0.85506,4.999238 0.89128,4.708493 -0.933848,7.496528 -0.92087,1.406701 -1.84634,2.557639 -2.05659,2.557639 -0.21025,0 -0.89624,0.469431 -1.52442,1.043181 -1.35042,1.233421 -3.07488,1.774374 -5.66496,1.777073 -1.68685,0.0018 -2.01817,-0.128842 -3.11863,-1.229301 z m 6.24072,-2.572953 c 0.48506,-0.200625 1.389,-0.553579 2.00873,-0.784345 1.82771,-0.680561 2.6147,-2.643551 2.83186,-7.063525 0.16451,-3.348126 0.10889,-3.835372 -0.56383,-4.938889 -0.41049,-0.673365 -0.74694,-1.740236 -0.74767,-2.370826 -0.001,-1.005378 -0.12075,-1.15153 -0.97146,-1.18715 -0.53357,-0.02233 -1.25741,-0.01076 -1.60853,0.02575 -0.83628,0.08693 -1.66143,-0.615329 -1.43041,-1.217366 0.13432,-0.350026 0.66827,-0.424956 2.02812,-0.284607 2.40736,0.248462 3.18961,-0.400163 2.7861,-2.310183 -0.14968,-0.708533 -0.25118,-1.850739 -0.22555,-2.538236 l 0.0466,-1.250001 -2.20662,0.02148 c -1.21845,0.01185 -2.44524,0.219512 -2.73947,0.463705 -0.29307,0.24323 -1.3063,0.505619 -2.25162,0.583089 -1.56519,0.128274 -1.70857,0.214284 -1.60478,0.962685 0.0627,0.452003 0.19698,1.664529 0.29843,2.694502 0.18117,1.839356 0.20208,1.868809 1.17535,1.655043 1.30819,-0.287327 1.76742,0.445668 0.7801,1.245147 -0.82915,0.671407 -1.12802,2.289013 -1.28779,6.970117 -0.0825,2.416574 -0.23066,3.062848 -0.85451,3.726903 -0.77745,0.82756 -1.00393,2.149733 -0.42909,2.505005 0.17911,0.110691 0.24254,0.974277 0.14097,1.919083 l -0.18468,1.71783 2.0639,-0.09021 c 1.13515,-0.04961 2.46078,-0.254357 2.94585,-0.454981 z m -55.646983,-9.601797 c 1.117706,-0.775857 2.174924,-1.410649 2.349375,-1.410649 0.174451,0 0.306615,-0.699085 0.293698,-1.55352 -0.03615,-2.390906 1.477043,-7.98181 2.534709,-9.365203 0.539471,-0.705612 0.756471,-0.785315 1.180337,-0.433536 0.42709,0.35445 0.556069,0.290587 0.726079,-0.359533 0.113703,-0.434802 0.114379,-1.158519 0.0015,-1.608258 -0.18676,-0.74411 -0.27293,-0.773804 -0.957394,-0.32991 -0.695949,0.451344 -1.616942,0.652067 -5.323269,1.160173 -1.816958,0.249086 -1.955298,0.35542 -1.955298,1.5029 0,0.655874 -0.436166,1.391825 -1.358848,2.292798 -0.747368,0.729785 -1.711005,2.032004 -2.141417,2.893819 -0.430411,0.861815 -0.917566,1.566937 -1.082565,1.566937 -0.512564,0 -0.756652,1.944973 -0.37129,2.958553 0.203206,0.534473 0.533201,0.861547 0.740176,0.73363 0.595218,-0.367866 2.097278,0.150847 2.097278,0.72426 0,0.287344 -0.238125,0.522446 -0.529167,0.522446 -0.503096,0 -0.588383,0.143863 -0.670279,1.130624 -0.03078,0.370837 1.007038,0.84473 2.08139,0.950416 0.194028,0.01909 1.267264,-0.60009 2.384969,-1.375947 z m 3.888872,-16.227316 c 0.39585,0 1.403068,-0.400463 2.238262,-0.889921 1.417078,-0.830464 1.494445,-0.953287 1.157958,-1.838314 -0.198318,-0.521614 -0.269375,-1.311776 -0.157904,-1.755913 0.268863,-1.071235 0.04866,-1.023296 -1.691674,0.368296 -2.807607,2.244994 -5.100077,2.490287 -5.696991,0.609579 -0.126918,-0.399884 -0.458187,-0.727061 -0.736154,-0.727061 -0.390227,0 -0.505393,0.559083 -0.505393,2.453461 v 2.453456 l 1.322916,0.215868 c 0.727605,0.118724 1.561042,0.258728 1.852084,0.311115 0.291041,0.05239 0.746967,-0.19631 1.013168,-0.552658 0.266201,-0.356351 0.807878,-0.647908 1.203728,-0.647908 z m 50.134251,0.764374 c 0.0999,-0.161678 0.62523,-0.229958 1.16735,-0.151733 1.38623,0.200021 2.68626,-1.05011 2.41408,-2.321423 -0.11033,-0.515376 -0.26957,-1.572052 -0.35386,-2.348163 -0.0843,-0.776111 -0.24985,-1.807986 -0.36791,-2.293055 -0.11807,-0.48507 -0.36184,-3.81882 -0.54171,-7.408334 -0.17987,-3.589514 -0.48149,-7.161389 -0.67027,-7.9375 -1.51169,-6.214834 -2.3483,-8.875724 -3.05021,-9.70139 -0.24742,-0.291041 -1.15714,-1.957917 -2.02159,-3.704167 -1.43486,-2.898497 -2.05809,-4.805597 -2.19045,-6.702781 -0.11723,-1.68035 -0.19187,-1.81913 -0.96366,-1.7919 -0.68105,0.024 -0.77474,-0.12225 -0.65987,-1.03032 0.33077,-2.61471 0.19961,-9.68645 -0.1868,-10.07235 -0.30546,-0.30506 -0.89808,-0.26203 -2.39846,0.17414 -1.51796,0.44129 -2.95835,0.54185 -6.04547,0.42208 -4.59494,-0.17828 -4.4971,-0.27529 -2.797,2.77335 0.4328,0.77611 1.06244,2.36361 1.39919,3.52778 0.88436,3.05726 1.8827,5.11528 2.48141,5.11528 0.72572,0 0.953,1.2047 0.8017,4.249424 -0.0714,1.436799 0.0376,3.093041 0.24226,3.680536 0.31822,0.913582 3.48731,6.014354 4.0595,6.533928 0.71814,0.652107 2.1334,4.537485 2.1334,5.85693 0,0.65156 0.37793,2.179987 0.83984,3.396502 1.9344,5.094585 2.92389,8.527839 3.28098,11.384069 0.097,0.776111 0.41607,1.598987 0.70896,1.828613 0.2929,0.229623 0.43016,0.583149 0.30504,0.785608 -0.12513,0.202463 -0.051,1.046463 0.16481,1.875558 0.21577,0.829094 0.5465,2.102756 0.73494,2.830361 0.31633,1.221387 1.07582,1.737624 1.5138,1.028957 z m -1.90392,-10.465763 c 0,-0.679098 0.15572,-1.234723 0.34605,-1.234723 0.43744,0 0.85566,1.599276 0.54829,2.096615 -0.46549,0.75317 -0.89434,0.339873 -0.89434,-0.861892 z m -4.19583,-13.67014 c -1.25918,-6.384304 -1.26191,-6.967361 -0.0327,-6.967361 0.49629,0 0.72865,0.34115 0.90105,1.322916 0.12776,0.727605 0.4317,2.308543 0.67541,3.513198 0.5337,2.638079 0.35164,3.98333 -0.53908,3.98333 -0.48979,0 -0.7249,-0.433398 -1.00471,-1.852083 z m 0.19768,-8.260881 c -0.48562,-0.48562 -0.2095,-1.175925 0.47037,-1.175925 0.47037,0 0.70556,0.235186 0.70556,0.705556 0,0.679869 -0.69031,0.955992 -1.17593,0.470369 z m 0.11998,-2.583685 c -0.82497,-1.158557 -1.27644,-3.16569 -0.92063,-4.092903 0.21063,-0.5489 0.27888,-0.546 0.9256,0.0393 0.38401,0.34753 0.70382,0.964445 0.7107,1.370937 0.007,0.406488 0.23937,1.135948 0.51666,1.621017 1.16701,2.041469 0.11234,2.950098 -1.23233,1.061685 z m -6.35239,-0.896662 c 0,-0.297297 0.34004,-0.666327 0.75565,-0.820067 0.41561,-0.153745 1.0209,-0.823317 1.34509,-1.48794 0.32419,-0.664624 0.7779,-1.168714 1.00824,-1.120214 0.44925,0.0946 0.55811,-0.64165 0.43766,-2.960164 -0.1419,-2.73114 1.14749,-2.20933 1.57098,0.635774 0.21404,1.43797 0.15367,1.69311 -0.48097,2.03276 -0.44036,0.23568 -0.81932,0.90691 -0.96373,1.707031 -0.39382,2.181882 -0.72468,2.553353 -2.27422,2.553353 -1.02118,0 -1.3987,-0.145895 -1.3987,-0.540533 z M 42.16041,-63.759294 c 0.998857,-0.761866 1.142956,-1.032623 0.845437,-1.588541 -0.726994,-1.358403 1.023777,-12.556194 2.181204,-13.95081 0.610397,-0.735481 1.013864,-0.565485 1.013864,0.427182 0,1.376197 0.577042,0.721837 1.18554,-1.344393 0.747302,-2.537549 0.996382,-7.812808 0.343303,-7.270804 -0.25878,0.214771 -0.470514,0.56949 -0.47052,0.788265 -6e-6,0.218778 -0.515943,0.804562 -1.146528,1.301743 -1.62461,1.280915 -1.831618,1.375999 -2.32794,1.069255 -0.686052,-0.424004 0.191882,-2.016435 1.555142,-2.820776 0.62931,-0.371302 1.358294,-1.073612 1.619963,-1.560685 2.650621,-4.933898 3.474374,-6.717517 3.474374,-7.522856 0,-1.238482 -0.278976,-0.935482 -1.763889,1.915788 -0.694245,1.333059 -1.504961,2.420793 -1.852084,2.484924 -0.879207,0.16244 -0.807437,-1.222234 0.08819,-1.70156 0.388055,-0.20768 0.705555,-0.576576 0.705555,-0.819764 0,-0.243191 0.3175,-1.06492 0.705556,-1.826069 0.388055,-0.761151 0.705556,-1.697091 0.705556,-2.079881 0,-1.02666 1.401458,-3.740954 1.931551,-3.740954 0.498741,0 1.596226,-2.04786 1.596226,-2.97848 0,-0.31834 0.286683,-0.88652 0.637072,-1.26261 0.590881,-0.63424 1.718741,-4.04866 1.546187,-4.68084 -0.04187,-0.15338 0.09036,-0.58994 0.293834,-0.97014 0.462102,-0.86344 0.299881,-0.86249 -1.40692,0.008 -1.102384,0.56239 -2.279336,0.72785 -6.004132,0.84411 -2.548132,0.0795 -4.729367,0.24099 -4.847189,0.35882 -0.117823,0.11781 -0.485826,0.21421 -0.817786,0.21421 -1.095549,0 -1.502894,0.97159 -1.446753,3.45075 0.07237,3.19572 0.556189,6.90786 1.197668,9.189164 0.471757,1.677721 0.470992,1.902328 -0.0071,2.085794 -0.301792,0.115806 -0.740383,-0.07419 -1.004239,-0.435035 -0.529819,-0.724569 -0.686894,-0.471809 -0.929738,1.496137 -0.164729,1.334929 -0.0582,1.399043 0.738108,0.444236 0.459028,-0.55039 1.09323,-0.722073 2.932139,-0.79375 1.956513,-0.07626 2.300517,-0.179391 2.070159,-0.620625 -0.412984,-0.79104 0.231951,-2.190347 0.946131,-2.052807 0.883867,0.17022 1.15457,1.6998 0.503778,2.846557 -0.572801,1.009333 -1.103992,1.274371 -1.103992,0.550842 0,-0.230615 -0.333891,-0.06091 -0.74198,0.377123 -0.581272,0.623922 -1.058831,0.774485 -2.204861,0.695131 l -1.462881,-0.101293 -0.02686,1.752642 c -0.03802,2.480839 -0.08082,2.634583 -0.733371,2.634583 -0.525222,0 -0.529979,0.06199 -0.04738,0.617362 0.703391,0.809462 1.032502,2.261136 0.652149,2.876557 -0.404629,0.654706 -1.37069,0.244443 -1.770928,-0.75207 l -0.321941,-0.801571 -0.02236,0.813104 c -0.0123,0.447209 -0.347955,1.527827 -0.745902,2.401379 -0.5276,1.158152 -0.703731,2.200205 -0.650389,3.847924 0.08832,2.728066 0.490157,2.703791 0.774039,-0.04676 0.219413,-2.125913 0.601738,-2.816073 1.39201,-2.512818 0.393751,0.151095 0.423759,0.648786 0.157035,2.604481 -0.181352,1.329732 -0.369406,3.687692 -0.417896,5.239914 -0.04849,1.552222 -0.26299,3.257952 -0.476666,3.790513 -0.213676,0.53256 -0.411974,2.346258 -0.440662,4.030437 -0.04407,2.587053 0.04703,3.13467 0.587159,3.529623 0.918482,0.671611 1.454958,0.585646 2.813962,-0.450917 z m 44.263822,-6.469596 c -0.58574,-1.792429 -1.06498,-3.445436 -1.06498,-3.673348 0,-0.227909 -0.3047,-0.982885 -0.67711,-1.677723 -0.37241,-0.694838 -0.86277,-2.279985 -1.08968,-3.522553 -0.48966,-2.681394 -0.66493,-3.296472 -0.87851,-3.082894 -0.56585,0.565849 1.72108,8.99111 3.46548,12.767177 0.28185,0.610104 0.62398,1.478432 0.76029,1.929617 0.13631,0.451185 0.31571,0.752464 0.39866,0.669512 0.083,-0.08296 -0.32841,-1.617359 -0.91415,-3.409788 z m -41.077634,-3.81447 c -0.212436,-0.212435 -0.923781,1.516998 -0.880794,2.141404 0.01583,0.229902 0.261943,-0.116399 0.546924,-0.76956 0.28498,-0.653161 0.435222,-1.270491 0.33387,-1.371844 z m -7.025934,-2.644062 c -0.09786,-0.242535 -0.177936,-0.0441 -0.177936,0.440972 0,0.485069 0.08007,0.683507 0.177936,0.440972 0.09786,-0.242535 0.09786,-0.63941 0,-0.881944 z m 7.415683,0.02205 c -0.112616,-0.281421 -0.196209,-0.19783 -0.213137,0.213138 -0.01532,0.371884 0.06806,0.580245 0.185286,0.463021 0.117225,-0.117225 0.129758,-0.421499 0.02785,-0.676159 z m 6.366247,-35.777548 c -0.117225,-0.11723 -0.421496,-0.12976 -0.676158,-0.0278 -0.281422,0.11262 -0.197829,0.19621 0.213137,0.21314 0.371886,0.0153 0.580246,-0.0681 0.463021,-0.18529 z m -10.48252,-1.89845 c -1.117573,-0.8444 -1.326377,-0.63506 -0.549381,0.55079 0.462466,0.70581 0.708403,0.83172 1.017926,0.52113 0.309234,-0.3103 0.195699,-0.57005 -0.468545,-1.07192 z m 8.073782,0.95384 c -0.460588,-0.35096 -4.218108,-0.53217 -4.904052,-0.23651 -0.36199,0.15602 2.35032,0.59709 3.880556,0.63104 1.317368,0.0292 1.491528,-0.0379 1.023496,-0.39453 z m -6.096522,-0.89147 c -0.305041,-0.30504 -0.660397,-0.44884 -0.789679,-0.31956 -0.338286,0.33828 0.583749,1.34422 0.997641,1.08843 0.206209,-0.12745 0.121952,-0.43896 -0.207962,-0.76887 z m 38.036978,-0.60784 c 0.37664,-0.28487 0.97195,-0.51795 1.32292,-0.51795 0.35097,0 0.63813,-0.15875 0.63813,-0.35277 0,-0.19403 -0.11906,-0.33398 -0.26458,-0.311 -0.71142,0.11232 -1.14653,-0.0881 -1.14653,-0.52815 0,-0.7556 -3.31128,-1.91322 -3.6953,-1.29187 -0.12479,0.20192 -0.0191,0.37829 0.23489,0.39192 0.25399,0.0137 0.14487,0.1485 -0.24248,0.29969 -0.55063,0.21493 -0.34078,0.3294 0.96192,0.52476 1.97236,0.29577 2.42703,0.78322 1.17469,1.25935 -0.49674,0.18887 -0.90317,0.50607 -0.90317,0.7049 0,0.52659 1.12547,0.42171 1.91951,-0.17888 z m -29.083397,-0.16517 c 0,-0.41847 -1.733105,-0.42793 -3.704166,-0.0203 -1.270818,0.26286 -1.15683,0.29592 1.146527,0.33245 1.496954,0.0237 2.557639,-0.10573 2.557639,-0.31221 z m 3.175001,0 c -0.683952,-0.442 -1.058334,-0.442 -1.058334,0 0,0.19403 0.357188,0.35035 0.79375,0.34738 0.641858,-0.004 0.692489,-0.0709 0.264584,-0.34738 z m 1.70023,-0.76611 c -0.062,-0.42137 -0.290356,-0.82454 -0.507455,-0.89593 -0.249105,-0.0819 -0.331542,0.20071 -0.223458,0.76612 0.208141,1.08881 0.889841,1.20988 0.730913,0.12981 z m 10.974973,0.50153 c -0.01365,-0.14552 -0.161226,-0.58208 -0.327981,-0.97014 -0.268661,-0.62521 -0.30601,-0.59508 -0.327981,0.26458 -0.01365,0.53358 0.133954,0.97014 0.327981,0.97014 0.194028,0 0.34162,-0.11906 0.327981,-0.26458 z m 10.343543,0.0309 c -0.24253,-0.0979 -0.6394,-0.0979 -0.88194,0 -0.24253,0.0979 -0.0441,0.17794 0.44097,0.17794 0.48507,0 0.68351,-0.0801 0.44097,-0.17794 z m -30.994263,-0.79315 c 0.294952,-0.24478 0.703198,-0.3419 0.907213,-0.21581 0.451237,0.27887 1.481432,-0.68343 1.399343,-1.30713 -0.154036,-1.17035 0.06853,-1.6836 0.730071,-1.6836 0.388056,0 0.705556,0.22743 0.705556,0.50539 0,0.53866 1.313626,1.1208 1.686874,0.74755 0.122426,-0.12243 -0.132114,-0.31535 -0.565645,-0.42872 -0.576469,-0.15075 -0.731804,-0.38394 -0.578182,-0.86795 0.189673,-0.59761 0.0024,-0.66183 -1.930385,-0.66183 -1.524204,0 -2.115049,0.12696 -2.052245,0.44098 0.06153,0.30765 -0.357546,0.41322 -1.386197,0.34918 -1.222869,-0.0761 -1.513704,0.0321 -1.70484,0.63429 -0.126747,0.39934 -0.06236,0.92861 0.14308,1.17615 0.65001,0.78322 -0.310024,1.39403 -1.086532,0.6913 -0.3519,-0.31846 -0.639817,-0.48123 -0.639817,-0.3617 0,0.11953 0.348766,0.54224 0.775035,0.93937 0.854931,0.79649 2.662456,0.81787 3.596671,0.0425 z m -5.43004,0.032 c 0,-0.38497 -1.92888,-2.53299 -2.274572,-2.53299 -0.459921,0 0.162026,1.91393 0.773807,2.38125 0.654544,0.49999 1.500765,0.58555 1.500765,0.15174 z m 12.700001,-0.22752 c 0,-0.50528 -1.019574,-1.24713 -1.714003,-1.24713 -0.39789,0 1.043464,1.74773 1.44942,1.75751 0.145521,0.004 0.264583,-0.22616 0.264583,-0.51038 z m 16.668752,0.0565 c -0.824619,-0.19003 -1.499307,-0.47673 -1.499307,-0.6371 0,-0.16037 -0.242178,-0.19865 -0.538169,-0.0851 -1.062539,0.40773 0.16741,1.12459 1.879886,1.09566 l 1.65689,-0.028 -1.4993,-0.34552 z m 14.99525,-0.86263 c 0.20016,-0.60958 -0.69461,-0.55304 -1.52227,0.0962 -0.65322,0.5124 -0.63726,0.53272 0.34634,0.44097 0.56712,-0.0529 1.09629,-0.29461 1.17593,-0.53715 z m -2.91261,-0.0882 c -0.11992,-0.19403 -0.36741,-0.35278 -0.54999,-0.35278 -0.18258,0 -0.33196,0.15875 -0.33196,0.35278 0,0.19402 0.2475,0.35277 0.54999,0.35277 0.30249,0 0.45187,-0.15875 0.33196,-0.35277 z m -9.34861,-0.35278 c 0,-0.19403 -0.22876,-0.35278 -0.50835,-0.35278 -0.27959,0 -0.60646,0.15875 -0.72638,0.35278 -0.11991,0.19403 0.10884,0.35278 0.50835,0.35278 0.39951,0 0.72638,-0.15875 0.72638,-0.35278 z m -30.691671,-0.1149 c 0,-0.0632 -0.396875,-0.48773 -0.881945,-0.94344 -0.947019,-0.88967 -1.25201,-0.42046 -0.327579,0.50397 0.491081,0.49108 1.209524,0.75212 1.209524,0.43947 z m 14.463889,-0.0407 c 0,-0.0856 -0.15875,-0.25368 -0.352778,-0.3736 -0.194027,-0.11991 -0.352777,-0.0499 -0.352777,0.15557 0,0.20548 0.15875,0.3736 0.352777,0.3736 0.194028,0 0.352778,-0.07 0.352778,-0.15557 z m -2.21221,-0.41035 c -0.117226,-0.11722 -0.421497,-0.12975 -0.676158,-0.0278 -0.281423,0.11261 -0.197829,0.19621 0.213137,0.21313 0.371886,0.0153 0.580245,-0.0681 0.463021,-0.18528 z m 31.669152,-0.13964 c 0.11992,-0.19403 -0.0294,-0.35278 -0.33195,-0.35278 -0.3025,0 -0.54999,0.15875 -0.54999,0.35278 0,0.19403 0.14938,0.35278 0.33196,0.35278 0.18257,0 0.43007,-0.15875 0.54998,-0.35278 z m -18.873608,-0.56691 c 0,-0.0763 -0.238125,-0.13864 -0.529167,-0.13864 -0.291041,0 -0.529166,0.15377 -0.529166,0.3417 0,0.18794 0.238125,0.25033 0.529166,0.13865 0.291042,-0.11169 0.529167,-0.26545 0.529167,-0.34171 z M 57.137027,-119.109 c -0.241543,-0.29104 -0.677294,-0.52917 -0.968336,-0.52917 -0.430372,0 -0.447174,0.0988 -0.09,0.52917 0.241543,0.29104 0.677295,0.52916 0.968336,0.52916 0.430372,0 0.447174,-0.0988 0.09,-0.52916 z m 25.929165,0.15667 c 0.95126,-0.0247 0.89773,-0.0779 -0.52916,-0.52582 -2.07208,-0.65046 -6.70278,-1.04219 -6.70278,-0.56701 0,0.19539 -0.27781,0.42786 -0.61736,0.51659 -0.33955,0.0887 0.0176,0.19853 0.79375,0.24399 0.77611,0.0455 1.88736,0.21078 2.46944,0.36737 0.58208,0.15658 1.61396,0.21892 2.29306,0.13853 0.67909,-0.0804 1.71097,-0.15853 2.29305,-0.17365 z m -28.045832,-0.29532 c 0,-0.32477 -0.83512,-0.7433 -1.48316,-0.7433 -0.222287,0 -0.193863,0.20877 0.07205,0.52917 0.479271,0.57749 1.411111,0.71889 1.41111,0.21413 z m 18.785422,-0.62416 c -0.24254,-0.0979 -0.63941,-0.0979 -0.88195,0 -0.24253,0.0979 -0.0441,0.17794 0.44097,0.17794 0.48507,0 0.68351,-0.0801 0.44098,-0.17794 z m 11.90625,-0.11914 c 0,-0.19402 -0.2475,-0.35277 -0.54999,-0.35277 -0.30249,0 -0.45187,0.15875 -0.33196,0.35277 0.11992,0.19403 0.36741,0.35278 0.54999,0.35278 0.18258,0 0.33196,-0.15875 0.33196,-0.35278 z m -39.959439,-0.21313 c -0.117225,-0.11723 -0.421496,-0.12976 -0.676157,-0.0278 -0.281423,0.11262 -0.197829,0.19621 0.213137,0.21314 0.371886,0.0153 0.580245,-0.0681 0.46302,-0.18529 z m 0.243081,-0.70655 c 0.928604,-0.35634 0.629831,-0.75863 -0.676703,-0.91116 -1.007015,-0.11756 -1.234723,-0.0271 -1.234723,0.49057 0,0.64906 0.836426,0.8331 1.911426,0.42059 z m 6.908019,-0.2777 c 0,-0.79902 -1.809722,-1.01833 -3.098356,-0.37548 -0.624238,0.31141 -1.134977,0.60052 -1.134977,0.64247 0,0.0419 0.9525,0.11388 2.116666,0.15986 1.6503,0.0652 2.116667,-0.0289 2.116667,-0.42685 z m 3.880556,-0.21373 c -0.207681,-0.38805 -0.634746,-0.70555 -0.949033,-0.70555 -0.50436,0 -0.496485,0.0828 0.06709,0.70555 0.351185,0.38806 0.77825,0.70556 0.949032,0.70556 0.170783,0 0.140593,-0.3175 -0.06709,-0.70556 z m 29.633333,0.35278 c 0,-0.19403 -0.16812,-0.35278 -0.3736,-0.35278 -0.20548,0 -0.27548,0.15875 -0.15556,0.35278 0.11991,0.19403 0.28803,0.35278 0.37359,0.35278 0.0856,0 0.15557,-0.15875 0.15557,-0.35278 z m -31.573611,-0.35278 c -0.119916,-0.19403 -0.367409,-0.35278 -0.549986,-0.35278 -0.182577,0 -0.331958,0.15875 -0.331958,0.35278 0,0.19403 0.247494,0.35278 0.549986,0.35278 0.302493,0 0.451874,-0.15875 0.331958,-0.35278 z m 13.934723,-0.17639 c 0.55874,-0.67324 0.03475,-0.66641 -0.861176,0.0112 -0.548199,0.41464 -0.574407,0.51795 -0.131389,0.51795 0.304366,0 0.751022,-0.23812 0.992565,-0.52917 z m 2.144788,-0.0339 c 0.40798,-0.49159 0.361,-0.54756 -0.370146,-0.44098 -0.460587,0.0671 -0.902783,0.32052 -0.982659,0.56305 -0.209028,0.63471 0.800318,0.54363 1.352805,-0.12207 z m 10.677,0.29846 c 0.0899,-0.14552 -1.44856,-0.27739 -3.41877,-0.29304 -2.02977,-0.0161 -3.19997,0.0833 -2.70024,0.22942 1.18572,0.3467 5.91379,0.39586 6.11901,0.0636 z m -14.81088,-0.61736 c -0.111686,-0.29104 -0.622638,-0.52412 -1.135457,-0.51795 -0.896007,0.0108 -0.905669,0.0314 -0.247608,0.52917 0.890623,0.67363 1.643521,0.66752 1.383065,-0.0112 z m 6.22243,0.17637 c 0,-0.19402 -0.07,-0.35277 -0.15557,-0.35277 -0.0856,0 -0.25368,0.15875 -0.3736,0.35277 -0.11992,0.19403 -0.0499,0.35278 0.15557,0.35278 0.20548,0 0.3736,-0.15875 0.3736,-0.35278 z m 14.11111,-0.35277 c 0,-0.19403 -0.15875,-0.35278 -0.35278,-0.35278 -0.19403,0 -0.35278,0.15875 -0.35278,0.35278 0,0.19402 0.15875,0.35277 0.35278,0.35277 0.19403,0 0.35278,-0.15875 0.35278,-0.35277 z m -33.609437,-0.56592 c -0.117225,-0.11722 -0.421496,-0.12975 -0.676158,-0.0278 -0.281422,0.11261 -0.197829,0.1962 0.213137,0.21313 0.371886,0.0153 0.580246,-0.0681 0.463021,-0.18528 z m 26.906657,0.0576 c 0,-0.0856 -0.15875,-0.25368 -0.35278,-0.3736 -0.19403,-0.11991 -0.35278,-0.0499 -0.35278,0.15557 0,0.20548 0.15875,0.3736 0.35278,0.3736 0.19403,0 0.35278,-0.07 0.35278,-0.15557 z m -28.92778,-0.54999 c -1.261021,-0.40385 -1.763889,-0.40385 -1.763889,0 0,0.19403 0.595313,0.33696 1.322917,0.31762 1.180649,-0.0314 1.228072,-0.0655 0.440972,-0.31762 z m 20.6375,0 c -0.11992,-0.19402 -0.36741,-0.35277 -0.54999,-0.35277 -0.18257,0 -0.33195,0.15875 -0.33195,0.35277 0,0.19403 0.24749,0.35278 0.54998,0.35278 0.3025,0 0.45188,-0.15875 0.33196,-0.35278 z m 2.64583,0.21414 c 0,-0.33466 -1.05599,-0.50332 -1.24424,-0.19873 -0.11468,0.18555 0.11836,0.33737 0.51787,0.33737 0.3995,0 0.72637,-0.0624 0.72637,-0.13864 z m -25.752774,-0.54314 c 0,-0.39902 -0.820025,-0.65752 -2.469445,-0.77846 -0.679097,-0.0498 -1.436996,-0.24048 -1.68422,-0.42375 -0.247223,-0.18327 -0.55414,-0.22858 -0.682037,-0.10068 -0.454114,0.45412 0.629416,1.07398 2.279663,1.30413 2.524752,0.35213 2.556039,0.35212 2.556039,-0.001 z m 16.404167,-0.0238 c -0.119916,-0.19403 -0.456152,-0.35278 -0.747194,-0.35278 -0.291042,0 -0.431056,0.15875 -0.311139,0.35278 0.119916,0.19402 0.456152,0.35277 0.747194,0.35277 0.291041,0 0.431055,-0.15875 0.311139,-0.35277 z m 20.990277,0 c 0,-0.19403 -0.15875,-0.35278 -0.35278,-0.35278 -0.19402,0 -0.35277,0.15875 -0.35277,0.35278 0,0.19402 0.15875,0.35277 0.35277,0.35277 0.19403,0 0.35278,-0.15875 0.35278,-0.35277 z m -16.404166,-0.35278 c -0.119916,-0.19403 -0.437416,-0.35278 -0.705555,-0.35278 -0.26814,0 -0.58564,0.15875 -0.705556,0.35278 -0.124146,0.20087 0.179666,0.35278 0.705556,0.35278 0.525889,0 0.829701,-0.15191 0.705555,-0.35278 z m 7.055556,0 c -0.11992,-0.19403 -0.0499,-0.35278 0.15557,-0.35278 0.20548,0 0.3736,-0.16433 0.3736,-0.36519 0,-0.2476 -0.2272,-0.2436 -0.70556,0.0124 -0.83977,0.44943 -0.92927,1.05833 -0.15557,1.05833 0.3025,0 0.45188,-0.15875 0.33196,-0.35278 z m 5.11528,0.21413 c 0,-0.0763 -0.23813,-0.23002 -0.52917,-0.34171 -0.29104,-0.11168 -0.52917,-0.0493 -0.52917,0.13865 0,0.18794 0.23813,0.34171 0.52917,0.34171 0.29104,0 0.52917,-0.0624 0.52917,-0.13865 z m -30.603047,-0.97167 c -0.17203,-0.65785 -0.08644,-0.72785 0.650388,-0.53193 0.466669,0.12409 1.245364,0.31802 1.730434,0.43095 0.850891,0.1981 0.857833,0.18577 0.197157,-0.35002 -0.376633,-0.30544 -1.041952,-0.55535 -1.478486,-0.55535 -0.436534,0 -0.891811,-0.15875 -1.011727,-0.35278 -0.368275,-0.59588 -1.142268,-0.39165 -1.336939,0.35278 -0.101479,0.38805 -0.02364,0.70555 0.172987,0.70555 0.196621,0 0.266117,0.23813 0.154434,0.52917 -0.136004,0.35442 0.01537,0.52917 0.458396,0.52917 0.502904,0 0.613972,-0.18159 0.463356,-0.75754 z m 5.203044,0.26611 c 0,-0.27028 -0.260847,-0.59152 -0.579659,-0.71386 -0.873765,-0.33529 -1.047671,0.0851 -0.276532,0.66855 0.848143,0.64166 0.856191,0.64208 0.856191,0.0453 z m 10.840569,0.27829 c -0.117228,-0.11722 -0.421499,-0.12976 -0.676159,-0.0278 -0.281421,0.11261 -0.197831,0.1962 0.213138,0.21313 0.371884,0.0153 0.580245,-0.0681 0.463021,-0.18529 z m 12.707344,-0.0301 c -0.33954,-0.0887 -0.89517,-0.0887 -1.23472,0 -0.33955,0.0887 -0.0617,0.16134 0.61736,0.16134 0.6791,0 0.95691,-0.0726 0.61736,-0.16134 z m -15.564985,-1.0637 c -0.290781,-0.29077 -1.28015,0.17501 -1.28015,0.60268 0,0.2609 0.225587,0.25553 0.735771,-0.0175 0.404672,-0.21657 0.649644,-0.47989 0.544379,-0.58515 z m 10.714295,0.21082 c 0,-0.17327 0.42722,-0.31503 0.94937,-0.31503 0.9105,0 0.92134,-0.0212 0.26458,-0.51795 -0.83063,-0.62826 -2.48585,-0.69826 -2.84309,-0.12024 -0.14282,0.23109 -0.0728,0.48244 0.15557,0.55857 0.22838,0.0761 0.41524,0.35833 0.41524,0.62711 0,0.28946 0.21573,0.40591 0.52916,0.28564 0.29105,-0.11169 0.52917,-0.34483 0.52917,-0.5181 z m 6.83125,0.0251 c -0.20098,-0.20098 -1.06338,-0.44955 -1.91644,-0.55237 -1.84855,-0.22281 -1.72642,0.0646 0.22141,0.52111 1.915,0.4488 2.11628,0.45251 1.69503,0.0312 z m -35.053473,-0.34015 c 0,-0.19403 -0.247495,-0.35278 -0.549987,-0.35278 -0.302493,0 -0.451874,0.15875 -0.331958,0.35278 0.119916,0.19402 0.36741,0.35277 0.549987,0.35277 0.182577,0 0.331958,-0.15875 0.331958,-0.35277 z m 2.116666,0 c 0,-0.19403 -0.396875,-0.35278 -0.881944,-0.35278 -0.48507,0 -0.881945,0.15875 -0.881945,0.35278 0,0.19402 0.396875,0.35277 0.881945,0.35277 0.485069,0 0.881944,-0.15875 0.881944,-0.35277 z m 19.669553,-0.26459 c 0.200163,-0.60958 -0.694602,-0.55304 -1.522264,0.0962 -0.653225,0.5124 -0.637258,0.53272 0.346339,0.44098 0.567122,-0.0529 1.096289,-0.29462 1.175925,-0.53716 z m 2.353264,0.30148 c 0.65467,-0.25647 0.65562,-0.27556 0.0256,-0.51733 -0.40594,-0.15578 -0.859927,-0.0453 -1.196329,0.29109 -0.463204,0.4632 -0.466926,0.53852 -0.02558,0.51733 0.284114,-0.0136 0.822469,-0.14463 1.196339,-0.29109 z m -21.691713,-1.06583 c 0.08509,-0.0162 -0.209534,-0.36875 -0.654728,-0.78351 -0.525476,-0.48955 -0.892279,-0.62007 -1.045569,-0.37205 -0.156107,0.25259 -0.682066,0.28149 -1.552013,0.0853 -1.229863,-0.27738 -2.064755,0.0531 -1.51729,0.60053 0.400511,0.40051 3.518085,0.70755 4.7696,0.46974 z m 5.666119,-0.0294 c 0,-0.19402 -0.198438,-0.35552 -0.440972,-0.35887 -0.632115,-0.009 -2.115109,-1.66261 -1.713431,-1.91086 0.184992,-0.11433 0.890193,0.1189 1.567115,0.5183 1.654976,0.97645 2.045164,0.28092 0.553164,-0.98605 -0.626105,-0.53168 -1.444847,-1.08605 -1.819426,-1.23195 -0.798632,-0.31106 -1.431458,-0.0217 -1.10562,0.50547 0.125037,0.20232 0.04287,0.48185 -0.182582,0.62119 -0.44607,0.27569 -0.155711,1.43166 0.359606,1.43166 0.174552,0 0.662446,0.39688 1.084208,0.88195 0.774746,0.89103 1.697938,1.17875 1.697938,0.52916 z m -13.405556,-0.15556 c 0,-0.0856 -0.15875,-0.25369 -0.352778,-0.3736 -0.194028,-0.11992 -0.352778,-0.0499 -0.352778,0.15556 0,0.20548 0.15875,0.3736 0.352778,0.3736 0.194028,0 0.352778,-0.07 0.352778,-0.15556 z m 23.106945,-0.19721 c 0.119916,-0.19403 0.05928,-0.35278 -0.13475,-0.35278 -0.194028,0 -0.450889,0.15875 -0.570805,0.35278 -0.119917,0.19402 -0.05928,0.35277 0.13475,0.35277 0.194028,0 0.450889,-0.15875 0.570805,-0.35277 z m 8.202085,-0.19949 c 0.12128,-0.45337 -1.4107,-0.41912 -1.56204,0.0349 -0.0669,0.20052 0.23743,0.34888 0.67615,0.32968 0.43873,-0.0192 0.83738,-0.18328 0.88589,-0.3646 z m -29.545141,-0.15329 c 0,-0.19403 -0.07001,-0.35278 -0.155569,-0.35278 -0.08556,0 -0.253682,0.15875 -0.373598,0.35278 -0.119916,0.19403 -0.04991,0.35278 0.155569,0.35278 0.205478,0 0.373598,-0.15875 0.373598,-0.35278 z m 8.297806,-0.34446 c -0.347044,-0.38348 -0.768524,-0.61224 -0.93662,-0.50835 -0.502598,0.31062 -0.347262,0.79019 0.311731,0.96241 1.16699,0.30496 1.25435,0.24149 0.624889,-0.45406 z m 8.635528,-0.0291 c 0,-0.39951 -0.15875,-0.62826 -0.352778,-0.50835 -0.194028,0.11992 -0.352778,0.44679 -0.352778,0.72638 0,0.27959 0.15875,0.50835 0.352778,0.50835 0.194028,0 0.352778,-0.32687 0.352778,-0.72638 z m 10.175882,0.41485 c 0.349705,-0.22162 0.229455,-0.36222 -0.457196,-0.53456 -1.022696,-0.25668 -1.731476,0.003 -1.413341,0.51768 0.252264,0.40818 1.239072,0.41709 1.870537,0.0169 z m -28.928862,-1.14151 c -0.260375,-0.16503 -0.31466,-0.30731 -0.120632,-0.31618 0.194027,-0.009 0.08973,-0.16968 -0.231774,-0.35735 -0.361313,-0.21091 -0.514006,-0.61098 -0.399827,-1.0476 0.10335,-0.39522 0.0112,-0.70639 -0.209199,-0.70639 -0.22983,0 -0.393923,0.64091 -0.393923,1.53858 0,1.46548 0.04344,1.53028 0.914383,1.36378 0.667677,-0.12763 0.786654,-0.25575 0.440972,-0.47484 z m 21.852461,-0.1621 c 0.07543,-0.50699 -0.124697,-0.69075 -0.79375,-0.72879 -1.011231,-0.0575 -1.04139,-7.1e-4 -0.517959,0.97744 0.448705,0.83842 1.170315,0.70163 1.311709,-0.24865 z m 2.809713,-0.0606 c 0.08612,-0.25865 -0.157043,-0.44097 -0.58813,-0.44097 -0.433328,0 -0.734953,0.22778 -0.734953,0.55503 0,0.64836 1.100822,0.55346 1.323083,-0.11406 z m 6.438033,-0.0882 c 0,-0.19403 -0.38751,-0.35278 -0.86113,-0.35278 -0.47362,0 -0.95924,-0.15875 -1.07915,-0.35278 -0.313904,-0.5079 -0.968014,-0.43535 -0.795107,0.0882 0.0801,0.24253 0.688637,0.53913 1.352317,0.65911 0.66367,0.11998 1.24636,0.23904 1.29487,0.26458 0.0485,0.0256 0.0882,-0.11231 0.0882,-0.30633 z m -23.636117,-0.3362 c 0,-0.36103 -2.201921,-1.06971 -3.33375,-1.07295 -1.081949,-0.003 -0.195935,0.63591 1.399566,1.00939 1.903939,0.44567 1.934184,0.44667 1.934184,0.0636 z m 20.461112,-0.36936 c 0,-0.19403 -0.07,-0.35278 -0.155568,-0.35278 -0.08556,0 -0.253682,0.15875 -0.373598,0.35278 -0.119916,0.19403 -0.04991,0.35278 0.155568,0.35278 0.205479,0 0.373598,-0.15875 0.373598,-0.35278 z m 5.578295,-0.33073 c 0.0882,-0.26458 -0.0441,-0.39687 -0.30868,-0.30868 -0.25466,0.0849 -0.53247,0.3627 -0.61736,0.61736 -0.0882,0.26459 0.0441,0.39688 0.30868,0.30868 0.25466,-0.0849 0.53248,-0.3627 0.61736,-0.61736 z m 2.18282,0.33073 c -0.29104,-0.18809 -0.68792,-0.34197 -0.88195,-0.34197 -0.19403,0 -0.11465,0.15388 0.17639,0.34197 0.29104,0.18809 0.68792,0.34197 0.88195,0.34197 0.19402,0 0.11465,-0.15388 -0.17639,-0.34197 z m -13.96358,-0.91969 c 0.779308,-0.29905 0.697481,-0.8442 -0.126714,-0.8442 -0.736328,0 -1.202182,0.46494 -0.834379,0.83274 0.275787,0.27578 0.272383,0.27575 0.961093,0.0115 z m -14.706968,-0.35178 c -0.117226,-0.11722 -0.421496,-0.12976 -0.676158,-0.0278 -0.281422,0.11261 -0.197829,0.1962 0.213137,0.21313 0.371886,0.0153 0.580246,-0.0681 0.463021,-0.18529 z m 17.028878,-0.13964 c 0,-0.19403 -0.07001,-0.35278 -0.155568,-0.35278 -0.08556,0 -0.253683,0.15875 -0.373599,0.35278 -0.119916,0.19403 -0.04991,0.35278 0.155568,0.35278 0.205479,0 0.373599,-0.15875 0.373599,-0.35278 z m 7.12641,-0.0379 c 0.58553,-0.31337 0.63331,-0.45194 0.24139,-0.70015 -0.83116,-0.52638 -1.88581,-0.35325 -2.34704,0.38529 -0.39778,0.63695 -0.352318,0.70556 0.4675,0.70556 0.49947,0 1.23663,-0.17582 1.63815,-0.3907 z m 2.67052,-0.24871 c 0.0849,-0.25457 -0.23485,-0.41893 -0.81489,-0.41893 -0.8177,0 -0.89019,0.0776 -0.50562,0.54092 0.49124,0.59192 1.10133,0.53556 1.32051,-0.12199 z m -20.909431,-0.0661 c -0.119916,-0.19403 -0.376779,-0.35278 -0.570806,-0.35278 -0.194028,0 -0.254665,0.15875 -0.134749,0.35278 0.119915,0.19403 0.376778,0.35278 0.570806,0.35278 0.194028,0 0.254665,-0.15875 0.134749,-0.35278 z m 4.056945,0.007 c 0,-0.19033 -0.391581,-0.44433 -0.870181,-0.56445 -0.478599,-0.12012 -0.835787,-0.38779 -0.79375,-0.59482 0.04204,-0.20701 -0.479194,-0.42105 -1.158292,-0.47563 -0.679097,-0.0546 -1.546139,-0.14712 -1.926761,-0.20565 -0.446528,-0.0687 -0.740426,0.12883 -0.828431,0.5567 -0.118701,0.57711 0.0179,0.63419 1.053097,0.43998 0.773784,-0.14516 1.43666,-0.05 1.896735,0.27223 0.388984,0.27245 1.099633,0.56878 1.579219,0.6585 0.479586,0.0897 0.911662,0.18476 0.960169,0.21118 0.04851,0.0264 0.08819,-0.10769 0.08819,-0.29802 z m -16.227779,-0.14536 c 0,-0.0763 -0.24637,-0.23319 -0.547489,-0.34874 -0.313946,-0.12047 -0.45555,-0.0613 -0.331958,0.13865 0.207172,0.33523 0.879447,0.49582 0.879447,0.21011 z m 6.309466,-0.18162 c 0.396367,-0.25102 0.36306,-0.37384 -0.176389,-0.65046 -0.365761,-0.18755 -1.200316,-0.44264 -1.854565,-0.56687 -0.962217,-0.1827 -1.11551,-0.13666 -0.802144,0.24093 0.282799,0.34075 0.275363,0.57882 -0.02754,0.88172 -0.318067,0.31807 -0.08962,0.41368 0.978533,0.40954 0.76641,-0.003 1.613357,-0.14466 1.882105,-0.31486 z m 16.268313,-0.73805 c 0,-0.19403 -0.396875,-0.35278 -0.881944,-0.35278 -0.48507,0 -0.881945,0.15875 -0.881945,0.35278 0,0.19403 0.396875,0.35278 0.881945,0.35278 0.485069,0 0.881944,-0.15875 0.881944,-0.35278 z m -23.506713,-1.11026 c -0.396682,-0.43833 -0.726415,-0.5505 -0.952779,-0.32414 -0.477417,0.47742 0.371129,1.45043 1.040791,1.19345 0.442162,-0.16967 0.429189,-0.29781 -0.08801,-0.86931 z m 9.189773,0.5306 c 0.295339,-0.76964 -0.0968,-1.12737 -0.513507,-0.46846 -0.417173,0.65965 -0.426055,1.04812 -0.02396,1.04812 0.173269,0 0.415131,-0.26085 0.537471,-0.57966 z m 23.082186,0.26784 c 0.34719,-0.22003 0.1702,-0.40726 -0.65788,-0.69593 -1.3987,-0.48758 -2.12079,-0.1362 -0.99482,0.4841 1.0368,0.57117 1.07747,0.57639 1.6527,0.21183 z m 2.52364,-0.041 c 0.41088,-0.26553 0.30766,-0.34318 -0.46179,-0.34738 -0.57188,-0.003 -0.89875,0.14379 -0.77293,0.34738 0.27071,0.43802 0.55694,0.43802 1.23472,0 z m -31.749998,-0.15557 c 0,-0.0856 -0.15875,-0.25368 -0.352778,-0.3736 -0.194028,-0.11991 -0.352778,-0.0499 -0.352778,0.15557 0,0.20548 0.15875,0.3736 0.352778,0.3736 0.194028,0 0.352778,-0.07 0.352778,-0.15557 z m 26.572678,-1.04466 c 0.21273,-0.55439 -0.0349,-0.91644 -0.626711,-0.91644 -0.217127,0 -0.394776,0.3175 -0.394776,0.70556 0,0.80453 0.735417,0.95635 1.021487,0.21088 z m -27.278234,-0.19728 c 0,-0.18655 -0.635,-0.51017 -1.411111,-0.71916 -1.40612,-0.37863 -1.807912,-0.85782 -0.970139,-1.15702 0.242535,-0.0866 0.319264,-0.28771 0.170509,-0.44686 -0.502006,-0.53708 -1.163286,0.50333 -0.745314,1.17262 0.662459,1.06079 2.956055,1.95339 2.956055,1.15042 z m 4.586112,-0.0136 c 0,-0.19403 -0.247494,-0.35278 -0.549987,-0.35278 -0.302492,0 -0.451874,0.15875 -0.331958,0.35278 0.119916,0.19403 0.36741,0.35278 0.549987,0.35278 0.182577,0 0.331958,-0.15875 0.331958,-0.35278 z m 7.217474,-0.0234 c -0.254175,-0.41126 -1.925807,-0.43753 -1.925807,-0.0303 0,0.1645 0.479107,0.31272 1.064682,0.32937 0.585575,0.0166 0.973081,-0.11795 0.861125,-0.29909 z m 20.795988,0.0758 c 0.15351,-0.24837 -1.97579,-1.1107 -2.74258,-1.1107 -0.61816,0 -0.10304,0.69081 0.74648,1.00108 1.24556,0.45492 1.76507,0.48345 1.9961,0.10963 z m 2.22989,0.0873 c -0.11723,-0.11723 -0.4215,-0.12976 -0.67616,-0.0278 -0.28142,0.11262 -0.19783,0.19621 0.21313,0.21314 0.37189,0.0153 0.58025,-0.0681 0.46303,-0.18529 z m -16.115381,-0.8767 c 0.337827,-0.63124 0.302203,-0.71929 -0.248119,-0.61331 -0.35342,0.0681 -0.695735,0.39974 -0.760695,0.73706 -0.164441,0.85386 0.531287,0.76852 1.008814,-0.12375 z m 5.71578,0.38818 c 0.533576,-0.002 0.970139,-0.16264 0.970139,-0.35667 0,-0.19402 -0.555625,-0.35277 -1.234723,-0.35277 -1.358399,0 -1.747883,-0.84792 -0.562327,-1.2242 0.383621,-0.12176 0.628635,-0.47286 0.570501,-0.81752 -0.127554,-0.75622 -0.895861,-0.60478 -1.6109,0.31753 -0.47348,0.61073 -0.735432,0.65927 -2.01108,0.37266 -0.806683,-0.18125 -1.543085,-0.25316 -1.636455,-0.15979 -0.09337,0.0934 0.335372,0.71639 0.95275,1.38449 0.974165,1.05419 1.285689,1.18997 2.357233,1.02744 0.679098,-0.10302 1.671285,-0.18904 2.204862,-0.19117 z m -20.637501,-0.59985 c -0.339549,-0.0887 -0.617361,-0.30844 -0.617361,-0.48824 0,-0.1798 -0.396875,-0.32691 -0.881945,-0.32691 -0.856497,0 -1.126398,0.34351 -0.646759,0.82315 0.129351,0.12935 0.804039,0.21677 1.499305,0.19426 0.695267,-0.0225 0.986308,-0.11352 0.64676,-0.20226 z m 5.027083,-0.66816 c 0,-1.10515 -0.828486,-0.98419 -0.994675,0.14523 -0.07486,0.50878 0.07326,0.76611 0.440973,0.76611 0.360194,0 0.553702,-0.31849 0.553702,-0.91134 z m 19.931949,0.55857 c -0.11992,-0.19403 -0.37678,-0.35278 -0.57081,-0.35278 -0.19403,0 -0.25467,0.15875 -0.13475,0.35278 0.11992,0.19402 0.37678,0.35277 0.57081,0.35277 0.19402,0 0.25466,-0.15875 0.13475,-0.35277 z m -17.028864,-1.09599 c -0.824102,-0.78711 -0.997352,-0.83793 -1.202595,-0.35277 -0.482162,1.13974 -0.299963,1.39914 0.938011,1.33548 l 1.22739,-0.0631 z m 1.708299,-0.36927 c -0.874316,-0.93847 -0.946984,-1.70974 -0.161088,-1.70974 0.51502,0 0.511446,-0.089 -0.03721,-0.92632 -0.499922,-0.76298 -0.522629,-0.97955 -0.128768,-1.22815 0.304376,-0.19211 0.620544,-0.11187 0.869852,0.22077 0.710688,0.94824 1.138432,0.59754 0.847036,-0.69448 -0.15097,-0.66938 -0.191563,-1.29999 -0.0902,-1.40134 0.101357,-0.10136 0.24723,-0.98243 0.324161,-1.95794 0.132945,-1.68579 0.09699,-1.77366 -0.725735,-1.77366 -0.476086,0 -1.135038,-0.10338 -1.46434,-0.22975 -0.485301,-0.18623 -0.553096,-0.086 -0.357857,0.52917 0.143823,0.45314 0.08916,0.75892 -0.135679,0.75892 -0.207103,0 -0.376551,0.55562 -0.376551,1.23472 0,1.15275 0.07612,1.23637 1.146528,1.25952 0.933651,0.0202 1.015527,0.0766 0.440972,0.30396 -0.388055,0.15354 -0.885073,0.21203 -1.104484,0.12998 -0.21941,-0.0821 -0.564092,0.32461 -0.765959,0.90369 -0.299445,0.85899 -0.265409,1.09185 0.184838,1.26463 0.570577,0.21895 0.331352,0.72433 -0.342867,0.72433 -0.865773,0 -0.554763,0.87048 0.866907,2.42636 0.829298,0.9076 1.560344,1.49258 1.624546,1.29998 0.0642,-0.19261 -0.212141,-0.7032 -0.614097,-1.13465 z m 21.141395,1.11248 c 0,-0.19403 -0.16812,-0.35278 -0.3736,-0.35278 -0.20548,0 -0.27548,0.15875 -0.15557,0.35278 0.11992,0.19403 0.28804,0.35278 0.3736,0.35278 0.0856,0 0.15557,-0.15875 0.15557,-0.35278 z m -34.219446,-0.52917 c 0,-0.29104 -0.15875,-0.52917 -0.352778,-0.52917 -0.194027,0 -0.352777,0.23813 -0.352777,0.52917 0,0.29104 0.15875,0.52917 0.352777,0.52917 0.194028,0 0.352778,-0.23813 0.352778,-0.52917 z m 30.144866,-0.14784 c -0.38426,-0.37175 -4.428,-1.16856 -4.675304,-0.92126 -0.09006,0.0901 0.49596,0.26925 1.302274,0.39819 0.80631,0.12893 1.55125,0.37232 1.65542,0.54086 0.10416,0.16854 0.60864,0.30644 1.12107,0.30644 0.57434,0 0.80314,-0.12435 0.59654,-0.32423 z m 1.60514,-0.18412 c 0,-0.8157 -0.60805,-0.96097 -0.80881,-0.19324 -0.1189,0.45466 -0.009,0.70159 0.31267,0.70159 0.27287,0 0.49614,-0.22875 0.49614,-0.50835 z m -26.458339,-0.66725 c 0.371811,-0.15674 0.328052,-0.19869 -0.147156,-0.1411 -0.371977,0.0451 -0.74125,0.3201 -0.820607,0.61114 -0.0928,0.34036 -0.04029,0.3907 0.147156,0.14109 0.160292,-0.21344 0.529565,-0.48845 0.820607,-0.61113 z m 20.549307,0.58919 c -0.242535,-0.0979 -0.63941,-0.0979 -0.881945,0 -0.242535,0.0979 -0.0441,0.17793 0.440972,0.17793 0.48507,0 0.683507,-0.0801 0.440973,-0.17793 z m 8.378472,-0.11915 c 0,-0.19402 -0.35719,-0.35034 -0.79375,-0.34737 -0.64186,0.004 -0.69249,0.0708 -0.26458,0.34737 0.68395,0.44201 1.05833,0.44201 1.05833,0 z m -30.43603,-0.58522 c 0.139217,-0.42313 -1.914548,-1.04846 -2.271413,-0.69159 -0.110788,0.11079 0.0057,0.45105 0.25894,0.75615 0.510433,0.61503 1.802514,0.57358 2.012473,-0.0646 z m -5.280956,-0.5613 c -0.07987,-0.24254 -0.529665,-0.48533 -0.999537,-0.53954 -0.827312,-0.0954 -0.83267,-0.0815 -0.169524,0.44097 0.829206,0.65333 1.366683,0.69864 1.169061,0.0986 z m 11.143594,-2.46005 c 0.193062,-0.7714 0.134703,-0.92016 -0.296125,-0.75484 -0.295116,0.11325 -0.614579,0.58527 -0.709918,1.04894 -0.09534,0.46367 -0.259416,1.27959 -0.364615,1.81317 l -0.191271,0.97014 0.66074,-1.05834 c 0.363407,-0.58208 0.768942,-1.49066 0.901189,-2.01907 z m 11.236727,2.33419 c -1.16368,-0.50834 -2.025481,-0.38315 -1.641324,0.23843 0.11163,0.18062 0.788907,0.31545 1.50506,0.29962 l 1.302095,-0.0288 -1.165831,-0.50928 z m 8.455995,-0.42785 c -0.42008,-0.062 -0.76377,-0.26043 -0.76377,-0.44097 0,-0.18053 -0.30962,-0.32824 -0.68803,-0.32824 -0.37841,0 -0.8327,-0.25851 -1.00952,-0.57447 -0.17682,-0.31596 -0.40756,-0.43502 -0.512773,-0.26458 -0.321522,0.52086 -8.020237,-0.25488 -8.020237,-0.80814 0,-0.25821 0.326869,-0.46948 0.726376,-0.46948 0.399507,0 0.628262,-0.15875 0.508346,-0.35277 -0.119916,-0.19403 -0.745769,-0.35278 -1.390788,-0.35278 -0.876871,0 -1.219401,0.17837 -1.357644,0.70701 -0.123338,0.47165 -0.371914,0.63524 -0.7467,0.49142 -0.390319,-0.14978 -0.560342,-0.0156 -0.556996,0.43952 0.0099,1.34016 0.441977,2.2426 1.07384,2.2426 0.920997,0 1.161059,-0.59108 0.328486,-0.80881 -0.385873,-0.1009 -0.701587,-0.35708 -0.701587,-0.56927 0,-0.5136 1.850407,-0.49199 3.007275,0.0351 0.717254,0.32681 0.982423,0.32608 1.185965,-0.003 0.195206,-0.31585 0.728444,-0.33575 2.088018,-0.0779 1.004224,0.19045 2.027781,0.26878 2.27457,0.17408 0.246789,-0.0947 1.319876,0.27863 2.384629,0.82963 1.45256,0.75168 2.06057,0.90722 2.43512,0.62293 0.40874,-0.31023 0.3608,-0.39931 -0.26458,-0.49161 z m -10.641553,-0.10529 c 0,-0.19403 -0.15875,-0.25467 -0.352777,-0.13475 -0.194028,0.11991 -0.352778,0.37677 -0.352778,0.5708 0,0.19403 0.15875,0.25467 0.352778,0.13475 0.194027,-0.11991 0.352777,-0.37677 0.352777,-0.5708 z m 12.700003,0.39441 c 0,-0.19402 -0.23813,-0.35277 -0.52917,-0.35277 -0.29104,0 -0.52917,0.15875 -0.52917,0.35277 0,0.19403 0.23813,0.35278 0.52917,0.35278 0.29104,0 0.52917,-0.15875 0.52917,-0.35278 z m -31.044448,-0.15556 c 0,-0.0856 -0.15875,-0.25369 -0.352778,-0.3736 -0.194028,-0.11992 -0.352778,-0.0499 -0.352778,0.15557 0,0.20547 0.15875,0.37359 0.352778,0.37359 0.194028,0 0.352778,-0.07 0.352778,-0.15556 z m 4.744861,-0.52097 c -0.488542,-0.47195 -3.959094,-0.91704 -3.510139,-0.45017 0.324315,0.33726 1.420579,0.58762 3.157362,0.72107 0.425017,0.0327 0.559837,-0.0709 0.352777,-0.2709 z m 25.983427,-0.83907 c -0.45279,-0.45279 -0.91195,-0.10283 -0.57674,0.43955 0.12985,0.2101 0.39771,0.28212 0.59523,0.16005 0.24095,-0.14892 0.23487,-0.34624 -0.0185,-0.5996 z m 2.25644,0.45727 c -0.11992,-0.19403 -0.36742,-0.35278 -0.54999,-0.35278 -0.18258,0 -0.33196,0.15875 -0.33196,0.35278 0,0.19403 0.2475,0.35278 0.54999,0.35278 0.30249,0 0.45187,-0.15875 0.33196,-0.35278 z m -34.722708,-0.93878 c -0.402305,-0.28178 -0.731465,-0.74146 -0.731465,-1.0215 0,-0.28004 -0.15875,-0.50916 -0.352777,-0.50916 -0.716905,0 -0.355468,1.65483 0.440972,2.01899 1.08328,0.49531 1.546048,0.144 0.64327,-0.48833 z m 8.596379,-0.28472 c -0.77805,-0.58849 -1.566732,-0.69773 -1.566732,-0.21701 0,0.38623 0.62621,0.66885 1.566732,0.7071 0.677865,0.0275 0.677865,0.0226 0,-0.49009 z m -3.859788,-0.18761 c 0.131645,-0.21301 -0.314366,-0.34295 -1.125708,-0.32798 -1.073045,0.0198 -1.201604,0.0859 -0.638181,0.32798 0.969604,0.41665 1.506383,0.41665 1.763889,0 z m 22.328968,-0.38086 c -0.510077,-0.13642 -1.932767,-0.24529 -3.161524,-0.24193 -2.464689,0.007 -2.24259,0.13914 0.940891,0.56094 2.31564,0.30682 3.776172,0.097 2.220633,-0.31901 z m 7.222889,0.14946 c -0.23884,-0.0966 -0.71509,-0.10252 -1.05834,-0.0131 -0.34324,0.0894 -0.14782,0.16851 0.43426,0.1757 0.58209,0.007 0.86292,-0.066 0.62408,-0.16263 z m -11.704588,-1.50525 c -0.273445,-0.17311 -0.710008,-0.23307 -0.970139,-0.13325 -0.745991,0.28627 -0.556299,0.45925 0.497177,0.45339 0.706046,-0.004 0.834795,-0.0911 0.472962,-0.32014 z m 10.464918,-0.29182 c 0.0951,-0.28884 -0.23005,-0.44098 -0.94251,-0.44098 -1.04807,0 -1.36181,0.31389 -0.83766,0.83804 0.37893,0.37892 1.61544,0.10313 1.78017,-0.39706 z m -12.966353,-0.4821 c 0,-0.17141 -0.635,-0.31165 -1.411111,-0.31165 -0.776111,0 -1.411111,0.16812 -1.411111,0.3736 0,0.20547 0.147781,0.28226 0.328402,0.17063 0.18062,-0.11163 0.414957,-0.0629 0.520745,0.10826 0.238731,0.38627 1.973075,0.0867 1.973075,-0.34084 z m 10.230553,0.35099 c 0,-0.30413 -0.77874,-0.45522 -1.70186,-0.33019 -0.25693,0.0348 -0.67025,-0.10529 -0.918492,-0.31131 -0.588219,-0.48818 -3.729645,-0.0686 -3.729645,0.49817 0,0.2969 0.948683,0.42786 3.175,0.43831 1.746247,0.008 3.174997,-0.12455 3.174997,-0.29498 z m 7.56986,0.0189 c -0.12809,-0.20725 -0.44987,-0.29356 -0.71508,-0.19179 -0.2652,0.10177 -0.57761,0.0306 -0.69424,-0.1581 -0.11664,-0.18872 -0.39499,-0.23007 -0.61857,-0.0919 -0.22357,0.13818 -0.85907,0.21675 -1.41222,0.1746 -0.61029,-0.0465 -0.91816,0.065 -0.78302,0.28369 0.12248,0.19818 1.17519,0.36032 2.33936,0.36032 1.41134,0 2.03906,-0.12557 1.88377,-0.37683 z m -38.261525,-0.32874 c 0,-0.19402 -0.15875,-0.35277 -0.352778,-0.35277 -0.194027,0 -0.352777,0.15875 -0.352777,0.35277 0,0.19403 0.15875,0.35278 0.352777,0.35278 0.194028,0 0.352778,-0.15875 0.352778,-0.35278 z m 4.056945,0 c -0.119916,-0.19402 -0.446785,-0.35277 -0.726376,-0.35277 -0.279591,0 -0.508346,0.15875 -0.508346,0.35277 0,0.19403 0.326869,0.35278 0.726375,0.35278 0.399506,0 0.628263,-0.15875 0.508347,-0.35278 z m 6.526389,-0.68523 c 0,-0.15994 -0.308014,-0.37136 -0.684477,-0.4698 -0.586525,-0.15338 -0.626905,-0.0868 -0.282169,0.4652 0.38441,0.61554 0.966646,0.61831 0.966646,0.005 z m -2.637116,-0.36346 c -0.465783,-0.51469 -1.02679,-0.67865 -2.154163,-0.62959 -1.832918,0.0798 -1.748165,0.23057 0.46404,0.82561 2.292111,0.61655 2.41282,0.60254 1.690123,-0.19602 z m -6.91395,-0.57021 c -0.227207,-0.27377 -0.552416,-0.49776 -0.722686,-0.49776 -0.477349,0 -0.366216,0.97922 0.13139,1.15772 0.706511,0.25343 1.040225,-0.11903 0.591296,-0.65996 z m 20.839956,0.56057 c 0,-0.19403 -0.16812,-0.35278 -0.373599,-0.35278 -0.205479,0 -0.275484,0.15875 -0.155568,0.35278 0.119916,0.19403 0.288036,0.35278 0.373599,0.35278 0.08556,0 0.155568,-0.15875 0.155568,-0.35278 z m -2.037335,-0.65232 c -0.06603,-0.31237 0.131354,-0.38669 0.617362,-0.23243 1.029571,0.32677 0.880928,-0.33724 -0.184126,-0.82251 -1.441062,-0.65659 -1.826087,-0.51399 -1.784854,0.66106 0.03027,0.86204 0.174935,1.04929 0.743119,0.96176 0.388056,-0.0598 0.661882,-0.31533 0.608499,-0.56788 z m 14.384166,0.36916 c 0.67137,-0.24868 0.29288,-0.31694 -1.5875,-0.28627 -1.35798,0.0221 -3.34218,-0.0919 -4.40933,-0.25345 -1.275131,-0.19302 -1.819343,-0.17453 -1.587501,0.054 0.454938,0.44835 1.174178,0.56825 4.213601,0.70243 1.36905,0.0604 2.88588,-0.0371 3.37073,-0.21666 z m 2.46984,0.14452 c 0,-0.0763 -0.23813,-0.23003 -0.52917,-0.34171 -0.29104,-0.11168 -0.52917,-0.0493 -0.52917,0.13864 0,0.18794 0.23813,0.34171 0.52917,0.34171 0.29104,0 0.52917,-0.0624 0.52917,-0.13864 z m -11.800689,-1.20131 c -1.127432,-0.44968 -1.368256,-0.45482 -1.630716,-0.0348 -0.237278,0.37972 -0.0066,0.5369 1.005484,0.685 1.873529,0.27417 2.16995,-0.0341 0.625232,-0.65021 z m -21.536817,0.28162 c -0.120407,-0.19483 0.133528,-0.35278 0.567143,-0.35278 1.52254,0 0.32995,-0.43278 -1.517719,-0.55076 -1.324349,-0.0846 -1.650097,-0.0288 -1.113995,0.1909 0.416708,0.17073 0.86264,0.48029 0.990959,0.68792 0.128319,0.20762 0.471433,0.3775 0.762474,0.3775 0.291042,0 0.431054,-0.15875 0.311138,-0.35278 z m 19.22639,-0.21959 c 0,-0.46877 -0.09578,-0.49287 -0.529167,-0.13319 -0.291041,0.24154 -0.529166,0.49911 -0.529166,0.57236 0,0.0733 0.238125,0.1332 0.529166,0.1332 0.291042,0 0.529167,-0.25757 0.529167,-0.57237 z m -13.317362,-0.0294 c -0.436562,-0.0841 -0.79375,-0.29561 -0.79375,-0.47005 0,-0.17444 -0.237213,-0.22614 -0.52714,-0.11489 -0.861776,0.3307 -0.223856,0.83762 0.988932,0.78587 0.829882,-0.0354 0.917118,-0.0882 0.331958,-0.20093 z m 26.656978,-0.27306 c 0.10094,-0.10094 -1.31136,-0.1811 -3.13846,-0.17813 -1.93933,0.003 -3.1268,0.12914 -2.85302,0.3027 0.48551,0.3078 5.66684,0.20007 5.99148,-0.12457 z m -24.231952,-0.98316 c -0.348409,-0.34582 -0.388931,-0.3053 -0.197483,0.19748 0.132479,0.34792 0.329738,0.54371 0.438354,0.43509 0.108616,-0.10861 2.24e-4,-0.39327 -0.240871,-0.63257 z m -3.979453,-0.0786 c -0.397617,-0.39762 -2.414323,-0.60353 -2.414323,-0.24651 0,0.20599 0.515938,0.42563 1.146528,0.48808 1.197357,0.1186 1.559041,0.0497 1.267795,-0.24157 z m -4.883767,-0.88562 c -0.48507,-0.37942 -1.12007,-0.68333 -1.411112,-0.67535 -0.310293,0.008 -0.215787,0.14096 0.228485,0.32022 0.416708,0.16813 0.862639,0.47556 0.990959,0.68319 0.128319,0.20763 0.422376,0.37397 0.65346,0.36965 0.231084,-0.004 0.02328,-0.31828 -0.461792,-0.69771 z m 5.997222,0.23788 c 0,-0.64727 -1.824674,-2.27815 -2.000978,-1.78846 -0.07746,0.21515 -0.553323,0.31075 -1.062372,0.21344 -0.635138,-0.12142 -0.844385,-0.0506 -0.672428,0.22766 0.137302,0.22216 0.777381,0.40393 1.422397,0.40393 0.87607,0 1.219435,0.17849 1.357265,0.70555 0.205207,0.78472 0.956116,0.97154 0.956116,0.23788 z m 23.0236,0.21935 c -0.43389,-0.0837 -1.22764,-0.0859 -1.76389,-0.005 -0.53624,0.0811 -0.18124,0.1496 0.7889,0.15225 0.97014,0.002 1.40889,-0.0637 0.97499,-0.14743 z m -27.080545,-0.45723 c -0.119915,-0.19402 -0.486472,-0.35034 -0.81457,-0.34737 -0.514094,0.005 -0.523405,0.0527 -0.06737,0.34737 0.69087,0.44648 1.157881,0.44648 0.881944,0 z m 12.606405,-0.16739 c 0.524746,-0.73246 0.227641,-0.89094 -1.670293,-0.89094 -1.679418,0 -1.940278,0.0912 -1.940278,0.67862 0,0.58172 0.239249,0.67115 1.675695,0.62636 0.921632,-0.0288 1.792326,-0.21506 1.934876,-0.41404 z m 6.796374,-0.0313 c -4.985614,-0.59171 -5.468775,-0.59754 -5.46456,-0.0659 0.0025,0.32823 1.197709,0.4519 4.674306,0.48373 l 4.67081,0.0428 z m 10.936116,-0.15412 c -0.11992,-0.19403 -0.52617,-0.35278 -0.90277,-0.35278 -0.3766,0 -0.68716,-0.19844 -0.69014,-0.44097 -0.0159,-1.29724 -0.61643,-1.49753 -4.57798,-1.52683 -2.547541,-0.0188 -3.784359,0.0912 -3.558976,0.31655 0.189985,0.18998 1.82941,0.37184 3.643176,0.40413 1.81375,0.0323 3.48869,0.17671 3.72207,0.32095 0.86943,0.53734 0.37417,0.92799 -1.25136,0.98706 -1.55393,0.0565 -1.50907,0.0777 0.61736,0.29189 1.26119,0.12704 2.50087,0.25839 2.75485,0.29188 0.25399,0.0335 0.36368,-0.0979 0.24377,-0.29188 z m -25.374252,-0.53675 c -0.724985,-0.54848 -1.130108,-0.4613 -0.745815,0.1605 0.127894,0.20693 0.500978,0.3712 0.829076,0.36503 0.523751,-0.01 0.513591,-0.074 -0.08326,-0.52553 z m 2.972858,0.008 c 0,-0.29104 -0.228756,-0.52917 -0.508347,-0.52917 -0.589366,0 -0.987215,0.50351 -0.657988,0.83274 0.421624,0.42163 1.166335,0.22779 1.166335,-0.30357 z m -9.877778,-0.88195 c -0.405851,-0.75833 -0.891959,-0.90738 -1.221322,-0.37446 -0.112546,0.18211 0.07652,0.49478 0.420152,0.69483 0.958361,0.55794 1.216071,0.45488 0.80117,-0.32037 z m 25.017826,0.5788 c -0.415625,-0.35843 -2.124872,-0.57226 -1.919619,-0.24016 0.124721,0.20181 0.640733,0.36692 1.146686,0.36692 0.505958,0 0.853776,-0.057 0.772933,-0.12676 z m -23.430326,-0.5788 c 0.119916,-0.19402 -0.03884,-0.35277 -0.352778,-0.35277 -0.313944,0 -0.472694,0.15875 -0.352778,0.35277 0.119916,0.19403 0.278666,0.35278 0.352778,0.35278 0.07411,0 0.232862,-0.15875 0.352778,-0.35278 z m 18.988028,-0.0882 c -0.154002,-0.24253 -0.302278,-0.56003 -0.329501,-0.70556 -0.02724,-0.14552 -0.06934,-0.36221 -0.0936,-0.48154 -0.02424,-0.11933 -0.451898,0.0502 -0.95032,0.37682 -0.498425,0.32658 -1.331863,0.56614 -1.852083,0.53235 -1.665447,-0.10814 -1.703737,0.11118 -0.06392,0.36612 2.73269,0.42485 3.600407,0.40159 3.289416,-0.0882 z m -10.936112,-1.88637 c -0.104446,-0.27219 -0.485436,-0.49488 -0.846643,-0.49488 -0.417727,0 -0.587822,0.1796 -0.467373,0.49348 0.104152,0.27142 -0.0094,0.6163 -0.252239,0.76641 -0.32173,0.19884 -0.256435,0.3424 0.240533,0.52884 0.788582,0.29584 1.623177,-0.51869 1.325722,-1.29385 z m 5.054013,1.10392 c -0.109299,-0.28483 -0.04691,-0.6117 0.138645,-0.72638 0.791269,-0.48903 0.181673,-0.70055 -2.220599,-0.7705 -2.255049,-0.0657 -2.480164,-0.0163 -1.904621,0.4175 0.358979,0.27058 0.555472,0.64927 0.436654,0.84152 -0.258979,0.41904 0.543817,0.65934 2.387986,0.7148 1.061241,0.0319 1.316929,-0.073 1.161935,-0.47694 z m -9.75454,0.01 c 0,-0.0856 -0.15875,-0.25368 -0.352778,-0.3736 -0.194028,-0.11991 -0.352778,-0.0499 -0.352778,0.15557 0,0.20548 0.15875,0.3736 0.352778,0.3736 0.194028,0 0.352778,-0.07 0.352778,-0.15557 z m -2.77255,-0.54999 c 1.033252,0 0.486769,-0.58063 -0.786083,-0.83519 -0.779797,-0.15596 -1.045396,-0.37316 -0.904693,-0.73983 0.109548,-0.28548 0.0643,-0.60241 -0.100561,-0.7043 -0.164856,-0.10188 -0.402884,0.22572 -0.52895,0.728 -0.263446,1.04966 0.368595,2.03259 1.121265,1.74377 0.275825,-0.10585 0.815384,-0.19245 1.199022,-0.19245 z m 32.912203,-0.38974 c -0.30784,-0.4981 -0.8591,-0.3683 -0.8591,0.20228 0,0.31471 0.20694,0.43869 0.52715,0.31581 0.28992,-0.11125 0.4393,-0.3444 0.33195,-0.51809 z m -18.240751,-0.17617 c -0.117228,-0.11723 -0.421499,-0.12976 -0.676159,-0.0278 -0.281421,0.11262 -0.19783,0.19621 0.213138,0.21314 0.371884,0.0153 0.580245,-0.0681 0.463021,-0.18529 z m -10.146455,-0.38491 c -0.49251,-0.0769 -1.046548,-0.48854 -1.234722,-0.91729 -0.354321,-0.8073 -1.595982,-1.07073 -1.82391,-0.38694 -0.172066,0.51619 1.95074,1.5455 3.070074,1.48861 l 0.881944,-0.0448 z m 27.079786,0.0321 c -0.11722,-0.11722 -0.4215,-0.12975 -0.67616,-0.0278 -0.28142,0.11261 -0.19783,0.19621 0.21314,0.21313 0.37189,0.0153 0.58025,-0.0681 0.46302,-0.18528 z m -9.958621,-0.49242 c -0.119916,-0.19403 -0.535528,-0.35278 -0.923583,-0.35278 -0.388056,0 -0.607445,0.15875 -0.487528,0.35278 0.119916,0.19403 0.535527,0.35278 0.923582,0.35278 0.388056,0 0.607445,-0.15875 0.487529,-0.35278 z m 5.997221,0 c -0.11991,-0.19403 -0.7246,-0.35035 -1.34374,-0.34737 -0.85657,0.004 -0.99919,0.0872 -0.59654,0.34737 0.69965,0.45215 2.21972,0.45215 1.94028,0 z m -26.915788,-0.30099 c -0.2516,-0.1596 -0.72785,-0.83139 -1.058333,-1.49287 -0.758084,-1.51733 -1.835601,-1.82555 -1.835601,-0.52506 0,0.52527 0.199947,0.90781 0.47449,0.90781 0.26097,0 0.761824,0.3175 1.11301,0.70556 0.351185,0.38805 0.891727,0.70312 1.201204,0.70015 0.430241,-0.004 0.45501,-0.0737 0.10523,-0.29559 z m 17.2144,0.0652 c 0,-0.59149 -2.878081,-0.95006 -10.406945,-1.29655 -2.406569,-0.11075 -2.562439,-0.0867 -1.058333,0.16308 4.169281,0.69245 11.465278,1.41375 11.465278,1.13347 z m 13.972468,-0.67505 c -0.11778,-0.30691 -0.21413,-0.91872 -0.21413,-1.35959 0,-0.44087 -0.37311,-1.20417 -0.82912,-1.69622 -0.64267,-0.69345 -1.05839,-0.85081 -1.84864,-0.69974 -1.01927,0.19485 -1.01918,0.19499 0.38815,0.62974 0.77421,0.23917 1.25685,0.4515 1.07252,0.47185 -0.18432,0.0203 -0.15704,0.21508 0.0606,0.43275 0.21767,0.21767 0.31181,0.61455 0.2092,0.88195 -0.10261,0.26739 -0.0108,0.48617 0.20396,0.48617 0.21479,0 0.39052,0.1786 0.39052,0.39688 0,0.25882 -0.395,0.31787 -1.13551,0.16977 -1.21938,-0.24387 -0.98937,0.29394 0.25356,0.59291 1.36512,0.32835 1.66788,0.26431 1.44886,-0.30647 z m -5.22646,-0.37216 c -0.32607,-0.32607 -0.82939,-0.48072 -1.15629,-0.35527 -0.83109,0.31892 -0.30663,0.93268 0.79697,0.93268 0.86743,0 0.89401,-0.0427 0.35932,-0.57741 z m -2.05445,-0.0399 c -0.0388,-0.91498 -1.04693,-1.49539 -2.497115,-1.43768 l -1.54861,0.0616 1.499306,0.13505 c 1.070035,0.0964 1.499309,0.29364 1.499309,0.68901 0,0.44872 -0.2681,0.51109 -1.411115,0.32832 -0.865215,-0.13835 -1.411111,-0.0876 -1.411111,0.1313 0,0.19748 0.866835,0.35695 1.940278,0.35695 1.067148,0 1.935228,-0.11906 1.929058,-0.26458 z m -7.139879,-0.30134 c -0.117228,-0.11722 -0.421499,-0.12975 -0.676158,-0.0278 -0.281422,0.11261 -0.197831,0.19621 0.213137,0.21313 0.371885,0.0153 0.580246,-0.0681 0.463021,-0.18528 z m 12.795539,-0.49241 c 0,-0.19403 -0.27781,-0.35035 -0.61736,-0.34738 -0.52759,0.005 -0.54042,0.0551 -0.0882,0.34738 0.66576,0.43025 0.70555,0.43025 0.70555,0 z m -11.737205,-0.9187 c -0.117228,-0.11722 -0.421499,-0.12975 -0.676159,-0.0278 -0.281421,0.11261 -0.197831,0.19621 0.213138,0.21313 0.371884,0.0153 0.580245,-0.0681 0.463021,-0.18528 z m 1.411111,0 c -0.117228,-0.11722 -0.421499,-0.12975 -0.676159,-0.0278 -0.281421,0.11261 -0.197831,0.19621 0.213138,0.21313 0.371884,0.0153 0.580245,-0.0681 0.463021,-0.18528 z m 4.100154,-1.03075 c -0.20796,-0.54193 -1.079159,-0.67284 -2.03548,-0.30587 -0.951759,0.36523 -0.615167,0.66437 0.840328,0.74684 1.103152,0.0625 1.352982,-0.0297 1.195152,-0.44097 z m 4.46206,-1.38112 c 0,-0.0856 -0.15875,-0.25369 -0.35278,-0.3736 -0.19403,-0.11992 -0.35278,-0.0499 -0.35278,0.15557 0,0.20548 0.15875,0.3736 0.35278,0.3736 0.19403,0 0.35278,-0.07 0.35278,-0.15557 z m 1.23472,-1.60832 c 0.11991,-0.19403 -0.0388,-0.35278 -0.35278,-0.35278 -0.31394,0 -0.47269,0.15875 -0.35278,0.35278 0.11992,0.19402 0.27867,0.35277 0.35278,0.35277 0.0741,0 0.23286,-0.15875 0.35278,-0.35277 z m 6.86558,-2.38125 c -0.007,-0.14552 -0.52342,-0.58534 -1.14653,-0.97737 -0.71462,-0.44961 -1.16125,-1.03577 -1.20962,-1.5875 -0.0422,-0.4811 -0.12155,-1.25553 -0.17639,-1.72096 -0.12544,-1.06458 0.75969,-1.43284 1.02308,-0.42565 0.10682,0.4085 0.29571,0.74273 0.41974,0.74273 0.12403,0 0.43633,0.47625 0.69398,1.05833 0.31423,0.70989 0.72006,1.05655 1.23264,1.05293 1.62198,-0.0115 1.79419,-0.43179 1.90752,-4.65585 l 0.10719,-3.99513 -1.15443,-1.71022 c -3.90374,-5.78312 -7.68082,-12.05676 -7.68082,-12.75766 0,-0.44613 -0.89812,-2.46715 -2.14579,-4.82859 -0.17801,-0.33692 -0.32365,-0.93733 -0.32365,-1.33425 0,-1.47874 -0.95761,-2.98817 -2.33477,-3.68015 -0.75317,-0.37844 -1.6413,-0.91363 -1.97362,-1.18931 -0.679319,-0.56353 -1.825511,-0.29652 -1.602256,0.37324 0.07989,0.23967 0.829388,0.55255 1.665556,0.69529 1.62802,0.27793 2.03416,0.49155 1.65512,0.87059 -0.13096,0.13096 -1.22418,0.0547 -2.429393,-0.1694 -1.492063,-0.27748 -2.30631,-0.29249 -2.551762,-0.047 -0.564183,0.56419 0.474804,1.02514 2.324456,1.03126 1.009339,0.003 1.798819,0.2058 2.068199,0.53039 0.64587,0.77822 -0.43387,1.07816 -2.092417,0.58125 -1.679593,-0.50322 -3.084509,-0.51336 -3.386677,-0.0245 -0.36915,0.5973 -0.0069,0.73603 2.369139,0.90722 1.227314,0.0884 2.450035,0.23543 2.717165,0.32668 0.26713,0.0913 0.68956,-0.003 0.93873,-0.21008 0.32157,-0.26688 0.52242,-0.26374 0.69211,0.0108 0.32964,0.53338 -0.0891,1.50687 -0.53071,1.23392 -0.1977,-0.12218 -1.60555,-0.29412 -3.128549,-0.38207 -2.119577,-0.1224 -2.867205,-0.0417 -3.187376,0.34408 -0.347927,0.41923 -0.139555,0.56344 1.238864,0.85743 0.91143,0.19439 1.83884,0.28371 2.060914,0.1985 0.509743,-0.19561 2.053957,1.54347 1.773487,1.99728 -0.31872,0.51571 -1.12503,0.40129 -1.352676,-0.19195 -0.116554,-0.30374 -0.621062,-0.51965 -1.184272,-0.50681 -0.859366,0.0196 -0.893596,0.0589 -0.275653,0.31653 0.388055,0.16179 1.00687,1.06454 1.375138,2.00611 0.878223,2.24536 1.661653,3.06789 3.957403,4.15488 1.06411,0.50383 1.8994,1.13404 1.8994,1.43305 0,0.29356 -0.1421,0.53374 -0.31578,0.53374 -0.17369,0 -7.1e-4,0.99218 0.38435,2.20486 0.48363,1.52308 0.75404,3.60376 0.87449,6.72886 0.16576,4.30089 0.22632,4.601 1.22814,6.08542 0.57958,0.85877 1.1616,1.56163 1.29338,1.5619 0.13177,2.7e-4 0.95397,0.63505 1.82709,1.41062 1.47003,1.30579 2.48846,1.78125 2.45586,1.14653 z m 0.37942,-4.72075 c -0.67191,-0.84758 -1.33719,-1.59084 -1.4784,-1.65168 -0.14121,-0.0609 -0.5282,-0.9279 -0.85997,-1.92678 -0.33178,-0.99889 -0.87985,-2.06035 -1.21793,-2.35882 -0.9062,-0.8 -1.94998,-3.83361 -1.48057,-4.30303 0.45342,-0.45342 1.14326,-0.0951 1.14326,0.59377 0,0.27276 0.32062,0.66753 0.7125,0.87725 0.68582,0.36704 2.4625,3.56338 2.4625,4.43017 0,0.23171 0.48884,0.89922 1.08632,1.48336 0.70892,0.69311 0.94808,1.14751 0.68842,1.30799 -0.29402,0.18172 -0.29467,0.37029 -0.002,0.72234 0.21747,0.26203 0.34424,0.90169 0.28172,1.42146 -0.11275,0.93722 -0.12379,0.93229 -1.33535,-0.59603 z m -7.00651,-12.91814 c -0.87917,-1.72033 -0.79762,-3.96875 0.14394,-3.96875 0.33413,0 0.46462,0.4084 0.42268,1.32291 -0.0334,0.72761 0.0669,1.75948 0.22272,2.29306 0.32153,1.10076 -0.27161,1.36586 -0.78934,0.35278 z m -4.68177,-5.48075 c -1.11549,-0.95167 -1.56697,-2.01578 -0.85527,-2.01578 0.46342,0 2.29994,2.06887 2.29994,2.59094 0,0.42171 -0.51788,0.21554 -1.44467,-0.57516 z m -0.672,-5.33777 c 0,-0.30721 0.25135,-0.55857 0.55856,-0.55857 0.62298,0 0.51449,0.75945 -0.13964,0.97749 -0.23041,0.0768 -0.41892,-0.11171 -0.41892,-0.41892 z m 1.76389,-3.34305 c 0,-0.38938 0.91534,-0.7687 1.19064,-0.49339 0.11071,0.1107 0.11686,0.33789 0.0137,0.50486 -0.24767,0.40073 -1.20431,0.39162 -1.20431,-0.0115 z m 2.26236,18.57129 c -0.42896,-1.33721 -0.78528,-3.08681 -0.62865,-3.08681 0.0816,0 -0.0939,-0.46836 -0.38993,-1.04081 -0.29602,-0.57245 -0.53823,-1.3662 -0.53823,-1.76389 0,-0.72277 -0.5044,-0.98116 -0.84369,-0.43219 -0.24968,0.404 0.60114,3.8105 1.40321,5.61814 0.69254,1.56079 1.44165,2.09077 0.99729,0.70556 z m -7.09849,14.46389 c -0.399182,-0.43656 -0.97319,-1.27 -1.275577,-1.85209 -0.890058,-1.71333 -2.087023,-2.86072 -3.523806,-3.37786 -1.635693,-0.58872 -2.32296,-1.28521 -1.557902,-1.57879 0.649916,-0.2494 3.079525,0.72456 3.079525,1.23449 0,0.20393 0.3175,0.37078 0.705555,0.37078 1.036363,0 2.116667,1.2562 2.116667,2.46131 0,0.73093 0.268118,1.22588 0.881945,1.62807 0.485069,0.31783 0.881944,0.87712 0.881944,1.24286 0,0.88118 -0.422938,0.83955 -1.308351,-0.12877 z m -20.416003,-1.72184 c -0.300681,-0.48651 0.389901,-1.15753 0.879726,-0.8548 0.210933,0.13037 0.383516,0.36942 0.383516,0.53124 0,0.46929 -1.012846,0.72871 -1.263242,0.32356 z m 1.983729,-1.62955 c 0.01797,-0.7429 2.356336,-2.31802 3.047502,-2.0528 1.060974,0.40714 -1.254989,2.67016 -2.732622,2.67016 -0.181396,0 -0.323092,-0.27781 -0.31488,-0.61736 z m 6.691648,0.0928 c -0.534222,-0.6437 -0.180026,-2.29764 0.492046,-2.29764 0.265323,0 0.548577,0.45085 0.629453,1.00189 0.255428,1.74035 -0.259125,2.33484 -1.121499,1.29575 z m 0.563109,-3.914 c -0.380006,-0.99027 -0.228185,-1.91142 0.315034,-1.91142 0.369577,0 0.529167,0.37238 0.529167,1.23472 0,1.27774 -0.469228,1.65387 -0.844201,0.6767 z m -19.830126,-1.11767 c -0.105088,-0.33955 -0.417606,-1.13869 -0.694483,-1.77586 -0.276878,-0.63717 -0.503414,-1.60936 -0.503414,-2.16042 0,-0.55107 -0.393133,-1.70533 -0.87363,-2.56503 -0.889445,-1.59139 -1.576126,-5.10364 -1.588826,-8.12656 -0.0055,-1.29783 -0.16201,-1.74624 -0.712544,-2.04088 -0.388056,-0.20768 -0.705556,-0.63593 -0.705556,-0.95167 0,-0.31573 -0.457662,-1.30233 -1.017028,-2.19245 -0.797443,-1.26896 -1.066926,-2.2056 -1.248142,-4.33816 -0.213679,-2.51459 -0.163565,-2.82678 0.66425,-4.13813 0.49245,-0.78009 0.895364,-1.55429 0.895364,-1.72045 0,-0.38245 2.83464,-1.80106 6.702779,-3.35445 1.649236,-0.66231 3.712987,-1.5344 4.586112,-1.93798 0.873125,-0.40357 2.164504,-0.82494 2.869731,-0.93637 0.989223,-0.15631 1.573682,-0.57669 2.557639,-1.83964 1.499383,-1.92453 1.571365,-2.53134 0.427722,-3.60574 -0.466227,-0.438 -0.936385,-1.37848 -1.044797,-2.08997 -0.529534,-3.47522 -0.6607,-3.87904 -1.315594,-4.0503 -0.367905,-0.0962 -0.772489,-0.46781 -0.899076,-0.82578 -0.126587,-0.35797 -0.533464,-1.33703 -0.904172,-2.17569 -1.046107,-2.36663 -0.747398,-3.63035 1.070762,-4.52998 0.06401,-0.0317 -0.121288,-0.42854 -0.411775,-0.88194 -0.408902,-0.63822 -0.503887,-1.73796 -0.420666,-4.87053 l 0.107491,-4.04618 1.881869,-2.21563 c 1.474239,-1.7357 2.094159,-2.21563 2.861924,-2.21563 1.271113,0 1.275554,0.77611 0.0099,1.73285 l -0.970139,0.73336 1.351574,-0.54426 c 1.287526,-0.51846 1.360222,-0.51119 1.534069,0.15361 0.100372,0.38382 0.404976,0.78323 0.676898,0.88758 0.803336,0.30826 0.570078,0.80047 -0.611234,1.28979 -0.967711,0.40084 -1.160619,0.38278 -1.54637,-0.14477 -0.368471,-0.50391 -0.588895,-0.53523 -1.3444,-0.191 -0.497017,0.22646 -0.986794,0.62836 -1.088392,0.89312 -0.246728,0.64297 0.126355,0.60844 0.889653,-0.0823 0.3426,-0.31005 0.80887,-0.44879 1.036155,-0.30832 0.27984,0.17295 0.08772,0.53403 -0.595132,1.11852 l -1.008375,0.86312 0.881944,-0.1972 c 0.48507,-0.10846 1.472275,-0.19937 2.193789,-0.20202 1.016732,-0.004 1.266422,-0.12319 1.109926,-0.53101 -0.11701,-0.30492 0.04545,-0.62112 0.386346,-0.75193 0.784734,-0.30113 2.307162,0.42088 2.307162,1.09417 0,0.63649 -0.03257,0.64101 -1.258909,0.17476 -0.93643,-0.35603 -0.933299,-0.34445 0.190731,0.70555 1.317366,1.23061 1.497135,1.26503 2.652576,0.50796 1.408386,-0.92281 2.249597,0.23289 0.973241,1.33709 -1.253623,1.08453 -3.263195,1.10026 -3.263195,0.0255 0,-0.39073 -0.211401,-0.46639 -0.79375,-0.2841 -1.646061,0.51527 -2.209402,0.40669 -2.124592,-0.40951 0.100843,-0.97049 -1.169294,-1.47867 -1.781871,-0.71292 -0.228286,0.28536 -0.81194,0.6184 -1.297009,0.74008 -1.195968,0.3 -2.222109,1.13457 -2.045705,1.66378 0.09553,0.2866 0.398395,0.16164 0.891776,-0.36794 0.410912,-0.44106 0.918021,-0.6963 1.126909,-0.5672 0.691218,0.42719 0.395002,1.20261 -0.706274,1.84883 -1.046927,0.61434 -1.078002,0.70244 -0.862178,2.44443 0.171896,1.38743 0.09641,1.9346 -0.32504,2.35605 -0.691453,0.69145 -0.694474,0.95211 -0.01104,0.95211 0.626769,0 1.267892,1.48119 1.297932,2.99861 0.01152,0.58208 0.163335,1.23881 0.337358,1.4594 0.25985,0.32937 1.326924,4.66155 1.348464,5.47458 0.0034,0.12717 0.561751,0.89625 1.240848,1.70908 1.40466,1.68127 1.626192,2.64123 0.529167,2.29305 -0.522657,-0.16588 -0.705556,-0.0634 -0.705556,0.39537 0,1.11562 -1.538438,2.89542 -3.166114,3.66285 -0.878013,0.41396 -2.017755,0.9799 -2.532761,1.25764 -0.515007,0.27774 -1.229382,0.51552 -1.5875,0.52842 -0.358119,0.0129 -1.444875,0.49127 -2.415014,1.06305 -0.970139,0.57179 -2.478264,1.36525 -3.351389,1.76325 -2.955559,1.34722 -3.174996,1.50172 -3.929272,2.76637 -1.4386,2.41203 -1.158908,5.43285 0.850222,9.18285 0.831076,1.55119 1.09115,2.60745 1.346344,5.46805 0.405076,4.5407 0.952526,6.69242 1.571926,6.17837 0.609125,-0.50553 0.948155,0.0933 0.673154,1.18898 -0.119391,0.4757 0.118296,1.97407 0.535225,3.37404 0.412495,1.38508 0.653665,2.67419 0.535932,2.86468 -0.347816,0.56278 -1.2376,0.39579 -1.443968,-0.271 z m 8.836377,-51.60782 -0.518397,-1.57343 0.212978,1.40842 c 0.214985,1.4217 0.467156,2.0951 0.698085,1.86418 0.06915,-0.0692 -0.107547,-0.83378 -0.392666,-1.69917 z m 0.725449,-11.27482 c 0.119916,-0.19403 0.04991,-0.35278 -0.155569,-0.35278 -0.205478,0 -0.373597,0.15875 -0.373597,0.35278 0,0.19403 0.07,0.35278 0.155569,0.35278 0.08556,0 0.253681,-0.15875 0.373597,-0.35278 z m 19.177276,62.46671 c -0.575366,-0.47014 -0.720372,-0.79526 -0.469053,-1.0517 0.423305,-0.43191 2.681365,0.57079 2.907806,1.29124 0.218885,0.6964 -1.49994,0.52757 -2.438753,-0.23954 z m -23.316591,-0.6424 c -0.07376,-0.33955 0.27179,-1.13683 0.767883,-1.77174 1.883319,-2.41029 3.288287,-3.9609 3.588871,-3.9609 0.687919,0 0.249348,1.4506 -0.746605,2.46944 -0.582084,0.59547 -1.058334,1.28561 -1.058334,1.53366 0,0.44809 -1.778583,2.3469 -2.198298,2.3469 -0.120676,0 -0.279759,-0.27781 -0.353517,-0.61736 z m 14.504484,-0.35278 c -0.02298,-0.14552 -0.01703,-0.40149 0.01322,-0.56881 0.03024,-0.16732 -0.209998,-0.49799 -0.533873,-0.73481 -0.444608,-0.32511 -0.616437,-1.11479 -0.701423,-3.22355 -0.06191,-1.53614 -0.276966,-3.34005 -0.477908,-4.00871 -0.287351,-0.9562 -0.251661,-1.38925 0.167175,-2.02847 0.292888,-0.44701 0.665501,-0.81273 0.82803,-0.81273 0.355499,0 0.739263,2.94408 0.743495,5.70378 0.0035,2.29508 0.238326,3.11566 0.891539,3.11566 0.46814,0 0.508885,0.8369 0.06248,1.28331 -0.134969,0.13497 -0.245397,0.53643 -0.245397,0.89215 0,0.61095 -0.658074,0.94748 -0.747332,0.38218 z m -0.782919,-9.34861 c -0.09786,-0.24254 -0.177936,-0.0441 -0.177936,0.44097 0,0.48507 0.08007,0.68351 0.177936,0.44097 0.09786,-0.24253 0.09786,-0.63941 0,-0.88194 z m 12.946031,7.41643 c -0.360828,-0.58383 0.351737,-0.93614 2.071196,-1.02405 1.812,-0.0926 2.39602,0.17893 1.75764,0.81731 -0.50168,0.50168 -3.544998,0.66601 -3.828836,0.20674 z m -1.735159,-0.7781 c -0.536183,-0.39574 -0.592335,-0.59919 -0.258766,-0.93755 0.336102,-0.34092 0.540865,-0.33682 0.970139,0.0194 0.572742,0.47533 0.745102,1.42352 0.258766,1.42352 -0.156944,0 -0.593506,-0.22744 -0.970139,-0.50542 z m -5.447288,-1.46426 c 0,-0.62298 0.759446,-0.51448 0.977488,0.13964 0.0768,0.23041 -0.111711,0.41893 -0.418924,0.41893 -0.30721,0 -0.558564,-0.25136 -0.558564,-0.55857 z m 5.379862,-1.79174 c -0.586412,-0.23662 -0.568089,-1.53025 0.02167,-1.53025 0.437318,0 2.006798,1.2523 2.006798,1.60125 0,0.21066 -1.456792,0.15968 -2.028472,-0.071 z M 49.03555,-178.1749 c -0.538207,-1.00565 -0.447766,-1.4343 0.302622,-1.4343 0.748189,0 1.178822,0.78499 0.870873,1.5875 -0.277707,0.72369 -0.736234,0.66383 -1.173495,-0.1532 z m 21.154255,-0.0232 c 0,-0.19403 0.14938,-0.35278 0.331957,-0.35278 0.182577,0 0.43007,0.15875 0.54999,0.35278 0.11991,0.19403 -0.0295,0.35278 -0.331959,0.35278 -0.302493,0 -0.549988,-0.15875 -0.549988,-0.35278 z m -12.180695,-3.61597 c -0.459555,-1.23488 -0.75324,-3.99086 -0.726056,-6.8134 0.02791,-2.89828 0.0868,-3.15258 0.729991,-3.15258 0.639335,0 0.704117,0.26126 0.751709,3.03145 0.02864,1.66729 0.252512,3.40595 0.497486,3.86369 0.334825,0.62562 0.342816,0.86645 0.03219,0.96999 -0.269687,0.0899 -0.33489,0.55527 -0.187716,1.33978 0.182201,0.97121 0.114224,1.20204 -0.353995,1.20204 -0.318725,0 -0.653348,-0.19844 -0.743606,-0.44097 z m 7.598313,-0.43649 c -0.50963,-0.61406 -0.235084,-1.59199 0.446941,-1.59199 0.853447,0 1.792305,0.9259 1.557997,1.53649 -0.277459,0.72305 -1.424566,0.75481 -2.004938,0.0555 z m -12.157825,-7.56213 c -0.11071,-0.17913 0.125486,-0.87954 0.52488,-1.55646 0.468256,-0.79363 0.595002,-1.31183 0.35686,-1.45901 -0.546974,-0.33805 -0.447689,-0.89217 0.159855,-0.89217 0.704665,0 0.699494,1.82233 -0.0091,3.19252 -0.579479,1.12059 -0.721256,1.21878 -1.032536,0.71512 z m -12.038391,-5.08605 c -0.0998,-0.26008 0.250881,-1.1332 0.779291,-1.94028 0.681961,-1.04161 1.204522,-1.46742 1.800846,-1.46742 0.932811,0 0.919344,0.0438 -0.731609,2.38125 -1.109678,1.57109 -1.546462,1.81362 -1.848528,1.02645 z m 22.250466,-5.52718 c -0.134913,-0.2183 -0.171587,-0.47061 -0.08149,-0.56071 0.69577,-0.69576 6.637853,-0.96752 6.962405,-0.31842 0.10372,0.20744 -0.800876,0.44941 -2.195742,0.58733 -1.304674,0.129 -2.837374,0.33673 -3.405999,0.46162 -0.622505,0.13673 -1.131468,0.0692 -1.279169,-0.16982 z m -6.721957,-0.73659 c -0.266349,-0.43096 0.760988,-1.63673 1.103067,-1.29465 0.291801,0.2918 -0.167643,1.68128 -0.555932,1.68128 -0.169501,0 -0.415713,-0.17398 -0.547135,-0.38663 z m 15.604996,-0.19827 c -0.26706,-0.26707 0.40068,-1.17899 0.86329,-1.17899 0.17027,0 0.30958,0.3175 0.30958,0.70556 0,0.67791 -0.6899,0.95639 -1.17287,0.47343 z m -16.98012,-1.15461 c -0.11163,-0.18063 -0.04162,-0.42812 0.155569,-0.54999 0.420996,-0.26019 1.064088,0.07 1.064088,0.54643 0,0.42926 -0.954836,0.43204 -1.219657,0.004 z m 13.625529,-0.0463 c -1.217238,-0.48788 -0.749145,-1.2364 0.681874,-1.09038 1.186387,0.12105 1.845507,0.63826 1.508437,1.18365 -0.22459,0.3634 -1.149154,0.32403 -2.190311,-0.0933 z m -15.228094,-1.74197 c 0,-0.19403 0.238125,-0.35278 0.529166,-0.35278 0.291042,0 0.529167,0.15875 0.529167,0.35278 0,0.19403 -0.238125,0.35278 -0.529167,0.35278 -0.291041,0 -0.529166,-0.15875 -0.529166,-0.35278 z m 0.617361,-5.90102 c -0.921632,-0.0742 -1.675695,-0.26781 -1.675695,-0.43031 0,-0.38248 4.362274,-1.37954 6.111562,-1.39688 1.520951,-0.0151 1.622896,0.58674 0.212389,1.25383 -1.164909,0.55094 -2.650296,0.73416 -4.648256,0.57336 z m 0.102328,-3.20279 c -1.231795,-1.2318 -1.350824,-1.82556 -0.415018,-2.07028 0.507476,-0.13271 0.658779,-0.50743 0.663275,-1.64267 0.0032,-0.80891 -0.15307,-1.77394 -0.347274,-2.14451 -0.32144,-0.61336 -0.38248,-0.62127 -0.680804,-0.0882 -0.351622,0.62832 -2.762091,0.84828 -2.762091,0.25205 0,-0.18344 -0.436562,-0.54276 -0.970139,-0.7985 -1.526075,-0.73143 -1.24008,-1.49459 0.60942,-1.6262 2.622565,-0.18662 3.843908,0.19875 4.60956,1.45446 0.859242,1.40919 0.969505,4.47877 0.160882,4.47877 -0.619281,0 -0.674254,0.48084 -0.163977,1.4343 0.567495,1.06038 1.477487,0.79758 2.629712,-0.75943 l 1.054624,-1.42513 0.621071,0.76699 c 0.721748,0.89132 0.794926,1.39438 0.202835,1.39438 -0.23003,0 -0.753599,0.31506 -1.163488,0.70013 -0.409888,0.38507 -1.247198,0.80052 -1.860686,0.92322 -0.932199,0.18644 -1.291612,0.0469 -2.187902,-0.84938 z m 2.455311,-5.61498 c 0,-1.22472 0.185902,-1.91766 0.617361,-2.30119 1.303432,-1.15864 5.732639,-1.80227 5.732639,-0.83304 0,0.27028 -0.238125,0.5828 -0.529167,0.69448 -0.291041,0.11169 -0.529166,0.41934 -0.529166,0.68369 0,0.7248 -1.500697,1.38036 -2.855052,1.24719 -1.010331,-0.0993 -1.219325,0.004 -1.311266,0.64996 -0.06016,0.42247 -0.337968,0.95785 -0.617361,1.18972 -0.430538,0.35732 -0.507988,0.15441 -0.507988,-1.33081 z"
       id="path9834"
       inkscape:connector-curvature="0" />
  </g>
</svg>
