<?xml version="1.0" encoding="UTF-8" standalone="no"?>
<svg
   xmlns:dc="http://purl.org/dc/elements/1.1/"
   xmlns:cc="http://creativecommons.org/ns#"
   xmlns:rdf="http://www.w3.org/1999/02/22-rdf-syntax-ns#"
   xmlns:svg="http://www.w3.org/2000/svg"
   xmlns="http://www.w3.org/2000/svg"
   id="svg8"
   version="1.1"
   viewBox="0 0 105.99424 109.07035"
   height="109.07036mm"
   width="105.99423mm">
  <defs
     id="defs2" />
  <metadata
     id="metadata5">
    <rdf:RDF>
      <cc:Work
         rdf:about="">
        <dc:format>image/svg+xml</dc:format>
        <dc:type
           rdf:resource="http://purl.org/dc/dcmitype/StillImage" />
        <dc:title></dc:title>
      </cc:Work>
    </rdf:RDF>
  </metadata>
  <g
     transform="translate(-14.041287,7.7378161)"
     id="layer1">
    <path
       id="path5766"
       d="m 85.117162,101.19543 c -0.09745,-0.15767 -0.272425,-2.819318 -0.388835,-5.914778 -0.11641,-3.095447 -0.284833,-6.183712 -0.374269,-6.862809 -0.08944,-0.679097 -0.25291,-3.274945 -0.363269,-5.768551 -0.168392,-3.804811 -0.112311,-4.63145 0.348784,-5.140953 0.551085,-0.60894 0.788861,-3.572066 0.872635,-10.874523 0.0193,-1.682835 0.182185,-2.910417 0.386164,-2.910417 0.194028,0 0.352778,0.219612 0.352778,0.488023 0,0.268411 0.306377,0.568141 0.680836,0.666065 0.560642,0.146611 0.675725,-0.0018 0.65187,-0.8408 -0.0266,-0.935764 -0.136133,-1.018843 -1.343198,-1.018843 -0.737831,0 -1.50684,0.232082 -1.753397,0.529167 -0.534634,0.644193 -1.277196,0.68369 -1.658165,0.08819 -0.205863,-0.32179 -1.903003,-0.451496 -6.279335,-0.479908 -6.821706,-0.04429 -11.469877,-0.312794 -14.287499,-0.825327 -1.067153,-0.19412 -3.210278,-0.521709 -4.7625,-0.727975 -1.552221,-0.206266 -3.086674,-0.45479 -3.409894,-0.552274 -0.323222,-0.09748 -0.689776,-0.01203 -0.814571,0.189883 -0.124795,0.201923 -1.081652,0.367129 -2.12635,0.367129 -1.443337,0 -2.010149,-0.15608 -2.360433,-0.649979 -0.48273,-0.680657 -1.832275,-0.889332 -12.984585,-2.007771 -2.619375,-0.262689 -6.643464,-0.719124 -8.94242,-1.014296 -2.298956,-0.295169 -6.004143,-0.645739 -8.233748,-0.779036 -3.048719,-0.18227 -4.102457,-0.369083 -4.249958,-0.753466 -0.214597,-0.559227 0.560903,-1.220894 1.17084,-0.998975 0.500748,0.182188 6.972071,1.068511 14.258064,1.952801 13.426688,1.629583 19.984197,2.38016 20.813888,2.382372 0.48507,0.0014 2.361075,0.186838 4.168896,0.412323 1.807823,0.225482 3.441967,0.314163 3.631426,0.197072 0.18946,-0.117094 0.535958,-0.05617 0.769991,0.135382 0.482162,0.394639 1.731123,0.519945 10.656076,1.069118 11.449565,0.704515 12.842247,0.736237 12.70703,0.289426 -0.06847,-0.226247 -0.215025,-0.827507 -0.325677,-1.336128 L 81.727148,59.580808 76.695401,59.334661 C 73.927937,59.199282 70.949275,59.031145 70.07615,58.961027 65.060381,58.558211 59.606324,57.982223 56.670595,57.545308 c -1.843263,-0.27433 -5.573889,-0.746633 -8.290278,-1.049567 -2.716388,-0.30293 -6.298263,-0.715532 -7.959722,-0.916887 -1.661459,-0.201355 -3.169584,-0.326781 -3.351389,-0.278719 -0.484287,0.12802 -4.928786,-0.361061 -10.56111,-1.162163 -2.716389,-0.386358 -6.399551,-0.787541 -8.184804,-0.891511 -2.556674,-0.148901 -3.372145,-0.328525 -3.840381,-0.845919 -0.555904,-0.614267 -0.556081,-0.671608 -0.0027,-0.883948 0.325457,-0.124891 2.450503,0.110476 4.722325,0.523039 4.175738,0.758306 12.271111,1.860641 18.418085,2.507957 1.843264,0.194109 5.457355,0.578329 8.031312,0.853824 5.05492,0.541034 6.226375,0.407056 8.352299,-0.955255 0.666828,-0.427309 1.408,-1.232637 1.647049,-1.789617 0.239048,-0.55698 0.706493,-1.271354 1.038767,-1.5875 0.50055,-0.476253 0.557887,-0.90793 0.334398,-2.517676 -0.280975,-2.023854 -1.612336,-5.289077 -2.156563,-5.289077 -0.17266,0 -0.313927,-0.213836 -0.313927,-0.475188 0,-0.261352 -0.33317,-0.856665 -0.740374,-1.322917 -1.10071,-1.260309 -4.727763,-6.703853 -5.580395,-8.375152 C 47.77368,32.18832 47.18836,31.572394 46.70036,31.476054 45.604108,31.259625 36.941796,30.605134 31.546601,30.331089 27.150087,30.107774 27.0468,30.119603 26.398077,30.92074 c -0.424705,0.524489 -0.871153,0.737281 -1.245482,0.59364 -0.474552,-0.182104 -0.567133,-0.659183 -0.49592,-2.555533 0.0709,-1.888077 -0.03101,-2.418549 -0.535722,-2.78856 -0.372136,-0.272821 -2.334604,-0.559078 -4.870375,-0.710424 -3.690356,-0.22026 -4.23158,-0.330207 -4.128742,-0.838725 0.08682,-0.429324 0.421006,-0.555731 1.254402,-0.474476 0.624829,0.06092 1.136052,-0.05262 1.136052,-0.252306 0,-0.648081 2.084983,-2.758345 3.168892,-3.207315 0.58051,-0.240453 0.959392,-0.592654 0.841959,-0.782665 -0.117433,-0.190011 -0.05242,-0.687525 0.144464,-1.105586 1.031035,-2.189243 1.841907,-4.516538 1.841907,-5.286487 0,-1.371533 2.055017,-5.8796882 3.601862,-7.9015182 2.702424,-3.5322487 4.220081,-5.02849879 5.816896,-5.73484559 0.883873,-0.3909794 1.785299,-0.7118491 2.003169,-0.7130446 0.21787,-0.0012 0.812669,-0.21951851 1.321774,-0.48516261 0.509105,-0.2656441 1.779105,-0.6835436 2.822222,-0.9286653 1.043117,-0.245122 2.598206,-0.7546512 3.455754,-1.1322875 0.857547,-0.3776366 2.762547,-0.8104501 4.233333,-0.9618087 1.597393,-0.1643874 3.171322,-0.5619443 3.908878,-0.9873389 0.679097,-0.3916782 1.901324,-0.8105701 2.716057,-0.9308705 0.814738,-0.1203007 2.005363,-0.5190775 2.645834,-0.8861703 0.640475,-0.3670928 1.640748,-0.6294829 2.222831,-0.5830891 0.582083,0.046394 1.409337,0.1092006 1.838339,0.1395706 0.429006,0.030371 1.064006,0.3556398 1.411111,0.7228222 0.353311,0.3737433 1.329877,0.7533957 2.218606,0.8625092 8.825751,1.0835826 13.632525,2.5034825 17.895428,5.28623121 2.449057,1.5987014 7.645333,6.59109789 8.441136,8.10994189 0.225499,0.430383 1.025088,1.128213 1.776864,1.550734 1.862737,1.046918 2.967076,2.3881822 3.861252,4.6896452 2.3418,6.027473 2.25592,5.657382 2.0769,8.949676 -0.12183,2.240636 -0.43059,3.77989 -1.08763,5.422247 -0.50463,1.261375 -0.78577,2.41753 -0.62476,2.569238 0.16102,0.151709 2.75338,0.381801 5.760812,0.511316 3.00743,0.129516 5.74036,0.312766 6.07316,0.407219 0.90143,0.255834 1.22167,2.457852 0.47711,3.28059 -0.79318,0.876448 -2.46926,1.165884 -4.14245,0.715341 -0.75746,-0.203962 -2.76002,-0.402731 -4.450152,-0.441706 l -3.07295,-0.07087 -0.0605,1.5875 c -0.0713,1.871433 -0.51462,4.957734 -1.34288,9.348611 -0.840167,4.453982 -0.671289,5.18716 1.97953,8.593956 l 2.24604,2.88659 5.468052,-0.221407 c 3.00743,-0.121775 7.21431,-0.341538 9.34861,-0.488364 l 3.88056,-0.266958 0.98875,1.02616 c 0.72164,0.748947 0.92779,1.236197 0.76309,1.803647 -0.34138,1.176225 -1.50673,2.003771 -2.93745,2.085961 -1.59893,0.09185 -3.41462,0.179902 -4.86678,0.236005 -0.93073,0.03596 -1.08324,0.158728 -0.92916,0.747952 0.10139,0.387713 -0.0711,1.094758 -0.38326,1.571212 -0.44023,0.67188 -0.48645,1.079754 -0.20595,1.817536 0.19892,0.523187 0.33431,2.035295 0.30087,3.36024 -0.0661,2.620673 0.33002,3.482192 1.60121,3.482192 1.46948,0 2.12799,0.847111 2.16589,2.786235 0.0226,1.157185 0.24927,2.028853 0.63973,2.460311 0.52888,0.584404 0.62455,1.812367 0.76301,9.79346 0.0871,5.018899 0.23772,9.760276 0.33478,10.536386 0.19051,1.52337 -0.20809,2.532268 -0.84496,2.138668 -0.21783,-0.13463 -0.37377,-0.670898 -0.34654,-1.191728 0.0683,-1.3053 -0.37245,-13.702115 -0.61376,-17.264563 l -0.19725,-2.912061 -1.55569,0.05884 c -1.39593,0.0528 -1.5557,0.146841 -1.5557,0.915706 0,0.471275 0.55563,1.505983 1.23472,2.299356 1.04494,1.220777 1.23473,1.706795 1.23473,3.162017 0,1.436321 -0.17753,1.905201 -1.07786,2.846917 l -1.07785,1.127397 0.10481,5.115271 c 0.0891,4.34602 0.0257,5.11528 -0.42145,5.11528 -0.43539,0 -0.54333,-0.81602 -0.62506,-4.72584 l -0.0988,-4.725842 -0.87135,0.818586 c -0.47924,0.450226 -0.87134,1.118849 -0.87134,1.485839 0,0.36699 -0.17004,0.984967 -0.37786,1.373287 -0.43501,0.81282 -3.37474,2.76925 -4.18913,2.78793 -0.30156,0.007 -1.3276,0.37694 -2.28009,0.82228 -1.87276,0.8756 -3.181412,0.67486 -3.577342,-0.54875 -0.18647,-0.57628 1.591652,-4.854367 2.464952,-5.930541 0.87891,-1.083099 1.36834,-3.741001 1.2992,-7.055556 -0.10969,-5.258791 -1.06002,-7.595926 -4.775712,-11.744716 -1.18028,-1.317858 -2.20309,-2.560789 -2.27291,-2.762067 -0.06981,-0.201277 -0.665127,-1.18316 -1.322917,-2.181962 -0.657786,-0.998798 -1.195976,-2.067091 -1.195976,-2.373979 0,-1.232538 -0.886877,-1.837905 -2.759128,-1.883336 -1.002284,-0.02431 -1.823378,0.07485 -1.824658,0.220366 -0.09455,10.759433 0.03468,14.436979 0.50105,14.258018 0.276853,-0.106239 0.653676,-0.0042 0.837378,0.22684 0.183702,0.231002 0.436777,3.595003 0.562384,7.475558 0.12561,3.880556 0.32785,8.937015 0.449421,11.236585 0.209518,3.963168 0.186503,4.174378 -0.44172,4.053398 -0.57833,-0.11138 -0.673262,-0.509168 -0.745229,-3.122698 -0.04536,-1.64729 -0.167467,-3.947567 -0.271346,-5.111737 -0.103879,-1.164159 -0.292851,-4.70427 -0.419936,-7.866905 l -0.231059,-5.750249 -1.3929,0.105805 -1.392905,0.105802 0.04447,8.995833 c 0.02445,4.947704 0.139996,9.966461 0.256745,11.152791 0.133731,1.358908 0.07456,2.242078 -0.159943,2.386998 -0.204713,0.12653 -0.451943,0.10104 -0.549395,-0.0567 z m 18.022728,-5.395788 c 3.17781,-1.25674 4.42281,-2.29839 4.98339,-4.169447 0.27835,-0.929029 1.04949,-1.90265 2.52003,-3.181685 1.68902,-1.469065 2.11895,-2.052824 2.11895,-2.877114 0,-1.201477 -0.24531,-1.255953 -1.87665,-0.416747 -1.20296,0.618832 -1.95531,1.480068 -3.65636,4.185521 -0.50195,0.798322 -1.35376,1.712073 -1.89292,2.030561 -1.77881,1.050774 -5.945292,5.513771 -5.14743,5.513771 0.11427,0 1.44222,-0.48819 2.95099,-1.08486 z m -1.88469,-2.28485 c 0.12047,-0.313937 0.0613,-0.455547 -0.13864,-0.331947 -0.19181,0.11854 -0.34874,0.364907 -0.34874,0.547487 0,0.50744 0.25286,0.39562 0.48738,-0.21554 z m 1.3447,-1.495757 c 0.25353,-0.34767 1.12329,-1.158051 1.93278,-1.800833 0.8095,-0.642782 1.66514,-1.635435 1.90144,-2.205895 0.51827,-1.251214 3.77403,-4.180575 4.64639,-4.180575 0.34288,0 0.62342,-0.123426 0.62342,-0.274281 0,-0.604453 -1.13448,-1.842385 -1.68841,-1.842385 -0.67253,0 -3.95432,2.142754 -3.95535,2.582541 -3.6e-4,0.159219 -0.61545,1.032344 -1.36682,1.940278 -0.83672,1.011061 -1.44354,2.164761 -1.56586,2.97706 -0.10986,0.729449 -0.53778,1.801011 -0.95095,2.38125 -0.41317,0.58024 -0.59065,1.05498 -0.39441,1.05498 0.19623,0 0.56423,-0.28446 0.81777,-0.63214 z m 3.64884,-10.03758 c 0.0263,-0.356972 -0.078,-0.726779 -0.2317,-0.821792 -0.15374,-0.09501 -0.19394,-0.395764 -0.0893,-0.668341 0.26468,-0.689748 1.19012,-0.257454 1.19012,0.555932 0,0.367294 0.0557,0.667812 0.12375,0.667812 0.28775,0 2.34569,-0.784931 2.34569,-0.894684 0,-0.06606 -0.46078,-0.624596 -1.02396,-1.241199 -0.56318,-0.616602 -1.22259,-1.856712 -1.46535,-2.755801 -0.796,-2.948069 -0.87815,-3.021393 -2.38228,-2.126474 -1.96364,1.168308 -2.75418,2.002938 -2.31404,2.443078 0.26034,0.260346 0.50689,0.208696 0.82323,-0.17247 0.40479,-0.487754 1.77629,-0.784062 1.77629,-0.383762 0,0.08819 -0.41575,0.576107 -0.9239,1.084249 -0.77589,0.775899 -0.88954,1.131661 -0.70943,2.220898 0.11795,0.713348 0.2162,2.391389 0.21834,3.728977 l 0.004,2.43198 1.30544,-1.709681 c 0.71799,-0.940326 1.32695,-2.00175 1.35325,-2.358722 z m 4.91755,-4.016117 c 0.33253,-0.127607 0.53764,-0.653884 0.53764,-1.37952 0,-0.907038 -0.18008,-1.230203 -0.79375,-1.424428 -2.10622,-0.666616 -2.35855,-1.152765 -2.36628,-4.558824 -0.009,-3.897365 0.28454,-5.895396 0.81731,-5.566128 0.2142,0.132384 0.0352,-0.209677 -0.3978,-0.760134 -0.433,-0.550456 -0.78726,-1.376298 -0.78726,-1.835202 0,-0.791732 -0.11718,-0.834369 -2.29305,-0.834369 -1.26118,0 -2.29306,0.062 -2.29306,0.137767 0,0.07577 0.37136,1.623585 0.82524,3.439583 0.45388,1.816001 1.02171,4.125619 1.26184,5.132489 0.24012,1.006871 0.74189,2.4295 1.11504,3.161397 0.37314,0.731898 0.67844,1.550981 0.67844,1.820178 0,0.848558 1.14287,3.040941 1.90925,3.662543 0.69729,0.565569 0.74957,0.560511 0.99243,-0.09601 0.141,-0.381166 0.4983,-0.785869 0.79401,-0.89934 z M 87.009483,76.24701 c 0,-0.485069 -0.15875,-0.881944 -0.352777,-0.881944 -0.194028,0 -0.352778,0.396875 -0.352778,0.881944 0,0.48507 0.15875,0.881945 0.352778,0.881945 0.194027,0 0.352777,-0.396875 0.352777,-0.881945 z m 15.356337,-2.859359 c -0.27589,-0.531781 -2.01366,-2.435327 -3.861712,-4.230102 -2.8179,-2.736663 -3.595055,-3.743889 -4.816238,-6.242018 -0.800887,-1.638338 -2.152417,-3.753982 -3.003402,-4.701437 -0.963969,-1.073238 -1.549336,-2.061764 -1.552783,-2.622222 -0.0061,-0.990727 -0.585353,-1.74625 -1.338844,-1.74625 -0.899573,0 -0.06775,2.219759 1.321981,3.527778 1.382402,1.301115 3.536291,4.486451 4.646193,6.87114 0.363276,0.780525 0.937486,1.832039 1.276015,2.336702 1.375968,2.051212 2.019688,2.971944 2.194858,3.139379 0.57001,0.544841 2.811502,3.543251 3.510332,4.69573 0.80844,1.333232 0.82059,1.338531 1.4702,0.641258 0.58848,-0.631662 0.60407,-0.801296 0.1534,-1.669958 z m 11.102,1.645458 c 0,-0.750951 -0.50245,-1.176419 -1.5875,-1.344288 -1.50829,-0.233348 -2.07199,-1.302145 -2.00321,-3.798171 0.0457,-1.660613 -0.0508,-2.258078 -0.33621,-2.08165 -0.27103,0.167506 -0.33289,1.057656 -0.19147,2.75523 0.22195,2.664131 0.92116,3.742502 2.42661,3.742502 0.40281,0 0.77776,0.299255 0.88401,0.705556 0.23625,0.90345 0.80777,0.918178 0.80777,0.02081 z M 87.009483,73.07201 c 0,-0.485069 -0.15875,-0.881944 -0.352777,-0.881944 -0.194028,0 -0.352778,0.396875 -0.352778,0.881944 0,0.48507 0.15875,0.881945 0.352778,0.881945 0.194027,0 0.352777,-0.396875 0.352777,-0.881945 z m 17.991667,-0.200935 c 0,-0.356295 -0.14073,-1.012469 -0.31274,-1.458161 -0.17201,-0.445692 -0.49707,-1.842223 -0.72237,-3.103404 -0.87091,-4.875261 -1.66971,-6.579107 -4.445522,-9.482267 -3.90718,-4.08644 -5.430742,-6.078517 -5.684848,-7.433021 -0.127085,-0.677411 -0.02872,-2.58578 0.218606,-4.240823 0.247318,-1.655042 0.500415,-3.887318 0.56244,-4.960616 0.06203,-1.073294 0.296842,-2.422669 0.521815,-2.998611 0.474297,-1.214194 0.557277,-4.841222 0.169837,-7.423365 -0.264829,-1.765042 -0.291457,-1.796376 -1.902487,-2.238946 -0.898645,-0.246867 -3.139204,-0.423464 -4.979021,-0.392437 -4.817107,0.08123 -6.440608,1.028304 -5.31985,3.103347 0.181973,0.336917 0.761633,1.803199 1.288136,3.258407 0.5265,1.455208 1.246784,3.061663 1.60063,3.569896 0.353847,0.508236 0.807752,1.301986 1.008677,1.763889 0.200924,0.461906 0.753618,1.474826 1.228206,2.250937 0.8821,1.442526 1.110545,2.293056 0.615894,2.293056 -0.539828,0 -4.444986,-7.27559 -5.585908,-10.406945 -1.209573,-3.319772 -1.55654,-2.926679 -0.622766,0.705556 0.299286,1.164167 0.629285,2.472005 0.73333,2.906307 0.104048,0.434301 0.330069,0.70256 0.502274,0.596131 0.172205,-0.106426 0.481457,0.249308 0.687225,0.790525 0.263882,0.694055 0.263688,1.020844 -7.05e-4,1.108961 -0.206132,0.06871 -0.374788,0.360521 -0.374788,0.648469 0,0.341675 0.218405,0.454222 0.628721,0.323994 0.500906,-0.158983 0.722827,0.119179 1.091639,1.368256 0.254603,0.862295 0.906473,2.505706 1.448597,3.652033 0.542128,1.146323 1.095379,2.58366 1.229448,3.194078 0.374834,1.706608 -0.424638,1.357133 -0.890922,-0.389449 -0.220148,-0.824618 -0.799444,-2.37243 -1.287325,-3.439583 -0.487878,-1.067153 -1.032694,-2.319482 -1.210698,-2.782955 -0.608397,-1.584092 -0.699389,-0.471342 -0.130711,1.598507 1.544351,5.621066 2.039034,6.848895 3.049164,7.56817 l 1.010976,0.719878 v -0.72958 c 4.6e-5,-0.401267 0.158796,-0.729576 0.352824,-0.729576 0.194028,0 0.352778,0.676984 0.352778,1.50441 0,1.272057 0.263412,1.830543 1.705479,3.615972 0.938011,1.161359 1.809122,2.528052 1.935801,3.037092 0.126679,0.509041 0.552411,1.302791 0.946072,1.763889 l 0.715748,0.838359 -0.331068,-0.881944 c -0.18209,-0.48507 -0.598848,-2.07257 -0.926134,-3.527778 -0.327286,-1.455208 -0.736504,-2.92149 -0.909369,-3.258407 -0.393506,-0.766932 -0.410002,-2.03326 -0.02649,-2.03326 0.439928,0 1.828849,2.644832 1.828849,3.482552 0,0.998181 0.637084,3.643616 1.497644,6.218837 0.77618,2.322724 2.41493,4.785385 4.812442,7.231944 0.85561,0.873125 1.76657,2.089538 2.02434,2.703139 0.36155,0.860643 0.63181,1.072977 1.1824,0.928994 0.39256,-0.102655 0.71373,-0.478158 0.71373,-0.834457 z M 92.055239,48.151665 c -0.218076,-0.26381 -0.512018,-1.114654 -0.6532,-1.890765 -0.141178,-0.776111 -0.722654,-2.741087 -1.292168,-4.366613 -1.069704,-3.053189 -1.423607,-5.578083 -0.807332,-5.759876 0.194028,-0.05723 0.43772,0.530934 0.541535,1.307045 0.103815,0.776111 0.323194,1.628274 0.487507,1.893693 0.164313,0.26542 0.424829,0.979795 0.578923,1.5875 1.855526,7.317673 2.006582,8.271587 1.144735,7.229016 z M 86.596762,68.97444 c -0.659854,-0.412842 -0.799896,0.515892 -0.229419,1.521442 l 0.460806,0.812239 0.118917,-1.020053 c 0.06794,-0.582764 -0.08224,-1.145907 -0.350304,-1.313628 z m 0.684604,-2.25243 c 0.04664,-0.563548 -0.109104,-0.881944 -0.431402,-0.881944 -0.649866,0 -1.015449,0.598322 -0.764758,1.251617 0.319189,0.831797 1.117134,0.585195 1.19616,-0.369673 z m 22.546884,-0.595312 c -0.11261,-0.281421 -0.19621,-0.197831 -0.21314,0.213138 -0.0153,0.371884 0.0681,0.580245 0.18529,0.463021 0.11722,-0.117229 0.12976,-0.421499 0.0278,-0.676159 z m 0.14841,-3.918902 c -0.45279,-0.452787 -0.91195,-0.102835 -0.57674,0.439554 0.12985,0.2101 0.39771,0.28212 0.59523,0.160041 0.24095,-0.148915 0.23487,-0.346237 -0.0185,-0.599595 z M 91.203817,61.397578 c 0.07556,-0.06843 -0.289705,-0.684364 -0.811703,-1.368743 -0.898592,-1.178115 -1.06076,-1.244324 -3.047806,-1.244324 -1.154292,0 -2.115276,0.119062 -2.135522,0.264583 -0.02025,0.145521 -0.07303,0.83004 -0.117295,1.521157 l -0.08049,1.256576 3.027712,-0.152414 c 1.665242,-0.08383 3.089536,-0.208403 3.165101,-0.276835 z M 51.114345,60.66754 c -0.242534,-0.09786 -0.639409,-0.09786 -0.881944,0 -0.242535,0.09786 -0.0441,0.177937 0.440972,0.177937 0.485069,0 0.683507,-0.08007 0.440972,-0.177937 z M 84.57108,58.519927 c 0.200603,-0.51932 0.601098,-0.79375 1.158374,-0.79375 0.993546,0 1.427879,-0.828459 0.925985,-1.766252 -0.193329,-0.361245 -0.351511,-1.355161 -0.351511,-2.208703 0,-0.853542 -0.116371,-1.668265 -0.2586,-1.810494 -0.311584,-0.311584 -1.029967,-2.505407 -1.68662,-5.150661 -0.264912,-1.067153 -0.879867,-3.546574 -1.366573,-5.509828 -0.48671,-1.963251 -0.993754,-4.38996 -1.126769,-5.392681 -0.160429,-1.209361 -0.453164,-1.936228 -0.869541,-2.159064 -0.345228,-0.184763 -0.901202,-1.052117 -1.235498,-1.927457 -0.334296,-0.875337 -0.726479,-1.591526 -0.871516,-1.591526 -0.145038,0 -0.346731,-0.3175 -0.448211,-0.705555 -0.123638,-0.472793 -0.481193,-0.705556 -1.083829,-0.705556 -0.89262,0 -0.895717,0.01023 -0.415604,1.371004 0.68894,1.952664 1.548306,3.553301 2.683827,4.998836 1.112535,1.41628 2.297766,4.126146 1.954714,4.469194 -0.340614,0.340614 -0.786666,-0.28085 -1.256122,-1.750092 -0.231623,-0.724902 -0.5683,-1.408959 -0.748174,-1.520126 -0.423196,-0.26155 -0.426946,2.481576 -0.0045,3.283888 0.177405,0.336917 0.67177,1.47786 1.098589,2.535435 0.426819,1.057571 1.130321,2.486321 1.563335,3.175 0.552231,0.878272 0.862908,2.093909 1.040514,4.071369 0.146064,1.626278 0.467632,3.056167 0.759944,3.379167 0.59238,0.654575 0.674186,1.739102 0.13118,1.739102 -0.206555,0 -0.74464,0.438634 -1.195744,0.97474 -0.488107,0.580083 -1.478728,1.150874 -2.446669,1.409756 -1.574006,0.420984 -2.005104,0.867639 -1.273701,1.319671 0.194028,0.119916 0.550344,0.09592 0.791817,-0.05331 0.241473,-0.149239 1.035223,-0.2863 1.763889,-0.304581 1.096398,-0.02752 1.333856,0.09173 1.377082,0.691494 0.202858,2.814672 0.277435,2.810968 1.38992,-0.06902 z m 28.30913,1.822157 c 5.81239,-0.25371 6.35021,-0.425926 5.58733,-1.789112 -0.32343,-0.577938 -1.00932,-0.619675 -8.73686,-0.531685 -4.61223,0.05252 -8.52949,0.184248 -8.70502,0.292735 -0.17554,0.108486 0.20682,0.739923 0.84969,1.403194 1.12705,1.162816 1.24486,1.199917 3.29385,1.037322 1.16876,-0.09275 4.63871,-0.278349 7.71101,-0.412454 z M 88.120733,57.902566 c 0,-0.184326 -0.170656,-0.392024 -0.379236,-0.461549 -0.20858,-0.06953 -0.379236,0.138168 -0.379236,0.461549 0,0.323381 0.170656,0.531079 0.379236,0.46155 0.20858,-0.06952 0.379236,-0.277223 0.379236,-0.46155 z m -10.272387,-0.42267 c 0.01372,-0.78753 1.227896,-1.699038 2.691327,-2.02046 1.750875,-0.384556 2.349024,-1.277892 1.942924,-2.901749 -0.186775,-0.746845 -0.358246,-2.151648 -0.381046,-3.121787 -0.05078,-2.160496 -0.263691,-2.87377 -1.263685,-4.233333 -1.503567,-2.044213 -2.65992,-5.654873 -2.60609,-8.137402 0.07309,-3.370767 -0.147408,-3.525477 -5.429634,-3.809569 -2.37242,-0.127593 -6.178804,-0.332895 -8.45863,-0.456223 -2.279827,-0.123328 -4.145139,-0.140885 -4.145139,-0.03902 0,0.101864 0.220592,0.720538 0.490202,1.374824 0.269611,0.654283 0.598939,2.221484 0.731838,3.482665 0.308959,2.931939 1.198273,6.222834 1.82137,6.739956 0.266404,0.221097 0.484368,0.551473 0.484368,0.734177 0,0.682261 1.748641,4.124212 2.237884,4.404959 0.552027,0.316774 1.642671,2.687218 1.642671,3.570238 0,0.300578 0.262728,0.836814 0.583844,1.191641 0.543673,0.600753 0.542177,0.691177 -0.02173,1.314285 -0.333061,0.368031 -1.300745,0.844193 -2.150403,1.058139 -2.513284,0.632855 -2.103452,0.955005 1.341346,1.054379 1.781806,0.0514 3.277354,0.131155 3.323434,0.177239 0.04608,0.04608 1.674598,0.121789 3.618922,0.168243 3.19817,0.07641 3.536198,0.02388 3.546224,-0.551205 z M 62.811239,55.274365 c 1.146034,-0.397754 2.376346,-0.723188 2.734028,-0.723188 0.696718,0 0.800107,-0.574029 0.433514,-2.406992 -0.214231,-1.071153 -0.227471,-1.077094 -1.110777,-0.49833 -1.136131,0.744425 -6.427544,1.010024 -6.85063,0.343867 -0.177959,-0.280201 -0.27958,-0.296246 -0.283045,-0.04469 -0.0088,0.639833 -2.119057,3.109704 -2.945633,3.447612 -0.75747,0.309661 -0.756472,0.314607 0.118011,0.584772 1.447005,0.44704 5.674073,0.07107 7.904532,-0.703051 z m 1.047313,-4.64789 c 0.862644,-0.393047 0.864527,-0.404043 0.19299,-1.124853 -0.372992,-0.40036 -0.678169,-0.931873 -0.678169,-1.181138 0,-0.249266 -0.35512,-1.184152 -0.789154,-2.077523 -0.728249,-1.498963 -0.869759,-1.608194 -1.833643,-1.415418 -1.379442,0.27589 -2.66887,1.144206 -2.66887,1.797258 0,0.431648 0.121546,0.448116 0.689511,0.09342 0.93363,-0.583064 1.28391,-0.130535 0.661498,0.85459 -0.77015,1.218957 -0.787834,3.00942 -0.03168,3.206726 1.22132,0.318678 3.601537,0.23695 4.457509,-0.153057 z m -3.968394,-6.834829 c 0.881232,-0.219869 0.910907,-0.300598 0.607257,-1.652041 -0.175588,-0.78148 -0.556203,-1.879095 -0.845816,-2.439144 -0.301791,-0.583597 -0.593679,-2.367791 -0.683782,-4.179679 -0.08647,-1.738775 -0.382983,-3.70174 -0.658915,-4.362143 -0.677555,-1.621617 -5.097702,-6.879872 -6.016731,-7.157572 -0.927389,-0.280222 -2.324354,-1.540079 -2.324354,-2.096223 0,-0.487507 3.897723,-0.366864 7.055556,0.21838 3.095992,0.573786 12.594593,3.8328 13.00481,4.462011 0.336914,0.516774 1.921397,0.826096 6.307469,1.231346 4.270841,0.3946 5.029387,0.208538 5.029387,-1.23365 0,-0.946598 -2.461743,-4.106929 -4.50027,-5.777349 -0.892672,-0.731478 -2.348734,-2.069487 -3.235691,-2.973351 -0.886958,-0.903865 -2.009525,-1.761789 -2.494594,-1.906498 -1.169737,-0.348965 -4.232519,-2.056386 -4.232974,-2.359772 -1.97e-4,-0.131662 -0.249823,-0.48885 -0.554725,-0.79375 -0.449189,-0.449189 -1.45747,-0.554366 -5.314463,-0.554366 -4.923981,0 -6.664084,0.394805 -9.300616,2.110175 -0.829514,0.539695 -2.179002,1.132988 -4.850694,2.132573 -0.63059,0.235929 -1.146528,0.629681 -1.146528,0.875004 0,0.699428 -0.925577,2.305745 -1.181265,2.050057 -0.389567,-0.389567 -0.254089,0.858031 0.206282,1.899621 0.23987,0.542706 0.860695,1.421334 1.379611,1.952512 0.518915,0.531177 1.156095,1.44787 1.415956,2.037094 0.452639,1.026354 0.480543,1.037643 0.664764,0.268947 0.310607,-1.296039 1.156285,-0.951336 1.479218,0.602936 0.160588,0.772922 1.076308,2.995422 2.034935,4.938889 1.333363,2.703191 2.36593,4.196799 4.393925,6.355803 1.458034,1.552222 2.652857,2.941284 2.655161,3.086805 0.0084,0.53334 -0.963373,0.243953 -1.616827,-0.481457 -0.369623,-0.410323 -1.032072,-0.883726 -1.472112,-1.052008 -0.440044,-0.168282 -0.966078,-0.745373 -1.168972,-1.282432 -0.202893,-0.537054 -0.754613,-1.38092 -1.226048,-1.87526 -1.18636,-1.244001 -3.022797,-4.363851 -4.031276,-6.848581 -0.464711,-1.144976 -0.911271,-1.882757 -0.992353,-1.63951 -0.279302,0.837904 1.428936,4.805814 3.05399,7.093832 2.755414,3.879529 4.928083,7.314755 5.705048,9.020305 0.678532,1.48947 0.793055,1.583305 1.335648,1.094412 0.326415,-0.294111 1.010408,-0.638771 1.519989,-0.765916 z M 52.309687,28.974789 c 0.111686,-0.291041 0.265451,-0.529166 0.341707,-0.529166 0.07625,0 0.138646,0.238125 0.138646,0.529166 0,0.291042 -0.153769,0.529167 -0.341708,0.529167 -0.187935,0 -0.250328,-0.238125 -0.138645,-0.529167 z m 24.292852,-2.525878 c -0.970139,-0.286988 -2.478264,-0.66747 -3.351389,-0.845517 -2.917997,-0.595037 -8.820403,-3.507771 -7.108197,-3.507771 0.508448,0 2.620473,0.748298 4.237634,1.501408 1.359232,0.632993 5.081725,1.246582 7.897647,1.301792 0.56884,0.01115 0.970138,0.215614 0.970138,0.494281 0,0.26139 0.357188,0.64752 0.79375,0.858068 l 0.79375,0.38281 -0.764896,0.02388 c -0.420694,0.01312 -0.976319,0.08889 -1.234722,0.168363 -0.258406,0.07947 -1.263576,-0.09032 -2.233715,-0.37731 z m 1.675695,-0.70637 c -0.242535,-0.09786 -0.63941,-0.09786 -0.881945,0 -0.242535,0.09786 -0.0441,0.177937 0.440972,0.177937 0.48507,0 0.683507,-0.08007 0.440973,-0.177937 z M 60.135092,21.376609 C 59.971417,20.885588 55.293803,19.912201 54.276128,20.157389 53.251043,20.40436 50.7835,19.752011 50.42047,19.13806 c -0.151945,-0.256968 -0.633451,-0.654725 -1.070014,-0.883904 -0.808083,-0.424215 -1.102635,-1.4502 -0.416341,-1.4502 0.207578,0 1.041016,0.454777 1.852083,1.010616 1.233957,0.845649 1.935357,1.03897 4.296898,1.184319 2.675254,0.164659 6.291321,1.0626 7.052605,1.751304 0.226364,0.204781 0.164109,0.433889 -0.176389,0.649161 -0.701946,0.443784 -1.672745,0.43168 -1.82422,-0.02275 z m 8.258118,-3.708995 c -1.270797,-0.890099 -4.342899,-1.65993 -6.519143,-1.633617 -1.498607,0.01812 -2.028472,-0.102281 -2.028472,-0.460928 0,-0.702928 1.238952,-0.989749 3.121646,-0.72267 2.362768,0.335182 7.461687,2.304815 7.461687,2.882333 0,0.645745 -1.069671,0.611528 -2.035718,-0.06512 z M 52.79004,14.703275 c 0,-0.302108 0.644204,-0.4633 3.509923,-0.878251 1.10114,-0.159444 2.597595,0.398399 2.311319,0.861605 -0.278874,0.451225 -5.821242,0.467073 -5.821242,0.01665 z m 54.39868,19.284155 c 0.46755,-0.735676 0.31923,-0.918485 -1.04104,-1.283169 -1.58689,-0.42544 -9.611212,-1.203216 -9.858832,-0.955591 -0.0959,0.09585 -0.0685,0.655864 0.0608,1.24447 l 0.23505,1.07019 3.06171,0.101561 c 1.683952,0.05586 4.008862,0.134754 5.166492,0.175317 1.3346,0.04677 2.20396,-0.08232 2.37585,-0.352778 z M 76.60026,32.061595 c -0.139788,-0.339549 -0.326725,-0.867213 -0.41542,-1.172588 -0.133417,-0.459369 -1.633961,-0.676084 -8.691224,-1.255225 -4.691482,-0.384997 -8.576105,-0.671089 -8.632497,-0.635759 -0.05639,0.03533 0.226949,0.622657 0.629645,1.305172 l 0.732169,1.240938 4.309248,0.258646 c 2.370088,0.142254 5.420497,0.376033 6.778692,0.519511 1.358194,0.143475 3.161114,0.28242 4.006493,0.308766 1.334569,0.04159 1.503567,-0.03341 1.282894,-0.569461 z M 46.227845,29.062984 c -0.3207,-0.630591 -0.621384,-1.191782 -0.668187,-1.247091 -0.08696,-0.102768 -9.074236,-0.898955 -14.85578,-1.316083 l -3.212551,-0.231779 -0.358815,1.413623 -0.358815,1.413619 2.86581,0.236298 c 5.442651,0.448776 10.990309,0.774351 14.075564,0.826057 l 3.095865,0.05188 z m 29.49275,0.08819 c 0,-0.194028 -0.547878,-0.352778 -1.21751,-0.352778 -1.529698,0 -3.919076,-0.620066 -8.743749,-2.269087 -2.818596,-0.963366 -4.422345,-1.306347 -6.268417,-1.340577 -3.040228,-0.05637 -3.529961,0.309203 -2.327917,1.737751 0.874882,1.039742 0.948179,1.057014 6.458067,1.521972 3.065226,0.25866 6.684387,0.576294 8.042581,0.705852 3.88336,0.370434 4.056945,0.3703 4.056945,-0.0032 z M 26.568414,26.392026 c 0.08427,-1.011548 -0.0608,-1.867966 -0.405531,-2.394091 -0.295203,-0.450536 -0.536732,-0.983492 -0.536732,-1.184346 0,-0.791404 0.687418,-0.291451 1.614809,1.17444 l 0.974041,1.539624 3.203492,0.230322 c 6.430916,0.462361 11.697955,0.933009 12.855559,1.148736 l 1.185402,0.220909 -0.25609,-1.515784 c -0.14085,-0.83368 -0.634593,-2.22765 -1.097207,-3.097709 -0.998636,-1.878175 -1.066217,-3.190116 -0.223756,-4.343729 0.339549,-0.464957 0.791506,-1.161053 1.00435,-1.546881 0.212845,-0.385828 1.500705,-1.177755 2.861914,-1.759838 1.361208,-0.582084 2.853937,-1.250791 3.317177,-1.486017 0.463239,-0.235226 1.598708,-0.78368 2.52326,-1.218787 1.703696,-0.801781 1.989714,-1.425156 0.759204,-1.654686 C 53.27465,10.303917 52.79004,9.7375608 52.79004,8.6830748 c 0,-0.909111 -1.916095,-5.284674 -2.314205,-5.284674 -0.09785,0 -0.688739,0.213027 -1.313099,0.473393 -1.927202,0.803671 -5.834277,1.389806 -7.654592,1.148333 -1.610774,-0.213677 -1.860733,-0.133754 -3.84899,1.23069 -1.549012,1.063011 -2.237138,1.794912 -2.534399,2.69562 -0.455804,1.3811012 -0.869225,1.9369952 -3.121866,4.1977262 -1.688149,1.694211 -1.753494,1.788809 -3.479551,5.037222 -0.637867,1.200456 -1.394741,2.272819 -1.681941,2.383027 -0.287201,0.110208 -0.479685,0.460128 -0.427742,0.7776 0.06111,0.373517 -0.154554,0.577222 -0.611115,0.577222 -0.53624,0 -0.677984,-0.196889 -0.590662,-0.820452 0.101214,-0.722774 0.03048,-0.775273 -0.594169,-0.440972 -0.389985,0.208714 -1.195749,0.37948 -1.790588,0.37948 -0.594839,0 -1.081525,0.155726 -1.081525,0.346057 0,0.190331 -0.401063,0.446715 -0.89125,0.569747 -1.449833,0.363883 -2.243006,2.611973 -0.921559,2.611973 0.523758,0 0.621063,-0.196317 0.480849,-0.970139 l -0.175785,-0.970139 0.864804,0.79375 c 1.080392,0.991627 1.701274,1.013083 1.701274,0.0588 0,-1.065516 0.859484,-0.635092 0.993571,0.497575 0.0614,0.518612 0.31977,0.942933 0.574166,0.942933 0.863032,0 1.384383,1.091664 1.31801,2.759802 -0.05522,1.38776 -0.0011,1.541825 0.340945,0.969616 0.223626,-0.374166 0.465633,-1.389023 0.537793,-2.255237 z m 65.416577,1.243548 c -0.452787,-0.452786 -0.911949,-0.102834 -0.576736,0.439554 0.129851,0.210101 0.397704,0.28212 0.595232,0.160042 0.240947,-0.148915 0.234861,-0.346238 -0.01849,-0.599596 z m -0.742174,-1.306618 c 0,-0.194028 -0.07001,-0.352778 -0.155568,-0.352778 -0.08556,0 -0.253683,0.15875 -0.373599,0.352778 -0.119916,0.194028 -0.04991,0.352778 0.155568,0.352778 0.205479,0 0.373599,-0.15875 0.373599,-0.352778 z M 84.162464,24.80883 c 0.01364,-0.156972 -0.133953,-0.18729 -0.327981,-0.06737 -0.194027,0.119916 -0.341619,0.565849 -0.327981,0.99096 0.02392,0.745194 0.03567,0.747614 0.327981,0.06737 0.166755,-0.388055 0.314347,-0.833987 0.327981,-0.99096 z m 1.59723,-0.219386 c 0.111633,-0.180622 0.05826,-0.417833 -0.1186,-0.527142 -0.176862,-0.109304 -0.412595,0.03847 -0.523851,0.328401 -0.219322,0.571546 0.310713,0.735507 0.642451,0.198741 z M 58.258095,23.850795 c 2.094713,-0.244955 2.084649,-0.248024 -0.970139,-0.295794 -1.697742,-0.02653 -3.086804,0.08402 -3.086804,0.245713 0,0.558599 0.480772,0.771257 1.209205,0.534861 0.402089,-0.130489 1.683571,-0.34864 2.847738,-0.48478 z m 27.243708,-1.673564 c 0.263017,-0.723981 0.539517,-2.348205 0.61444,-3.609386 l 0.136225,-2.293055 -0.518125,1.940277 c -0.284966,1.067153 -0.72523,2.575278 -0.978358,3.351389 -0.431567,1.323199 -0.394416,2.589117 0.06257,2.132129 0.112765,-0.112765 0.420225,-0.797373 0.683246,-1.521354 z m 9.268791,0.935087 c 0,-0.194028 -0.15875,-0.254667 -0.352777,-0.134751 -0.194028,0.119916 -0.352778,0.376777 -0.352778,0.570805 0,0.194028 0.15875,0.254667 0.352778,0.134751 0.194027,-0.119916 0.352777,-0.376777 0.352777,-0.570805 z m -7.806933,-1.810445 c 0.564445,-1.212674 1.092906,-2.522361 1.174355,-2.910417 0.08145,-0.388055 0.3371,-0.665868 0.568113,-0.617361 0.231013,0.04851 0.41759,-0.268993 0.41462,-0.705555 -0.0043,-0.626997 -0.07435,-0.684728 -0.333597,-0.2748 -0.180506,0.285422 -0.4272,0.419944 -0.548206,0.298936 -0.39145,-0.391447 0.636728,-1.63843 1.179272,-1.430237 0.419601,0.161017 0.465018,0.0022 0.236961,-0.828949 -0.364042,-1.326653 -0.371556,-1.8539 -0.04482,-3.144811 0.251477,-0.993561 0.235976,-1.01539 -0.253274,-0.356669 -0.286632,0.385916 -0.459979,0.800635 -0.385222,0.921598 0.07476,0.120963 -0.311397,1.551464 -0.858129,3.178891 -0.546731,1.627426 -1.277397,3.911457 -1.623702,5.075624 -0.346304,1.164167 -0.705584,2.315104 -0.798396,2.557639 -0.09281,0.242534 -0.07549,0.440972 0.0385,0.440972 0.113993,0 0.669075,-0.992188 1.233523,-2.204861 z m -5.598622,0.599362 c 0,-0.13463 -0.238125,-0.04716 -0.529167,0.194388 -0.291041,0.241543 -0.529166,0.58982 -0.529166,0.773948 0,0.184129 0.238125,0.09666 0.529166,-0.194384 0.291042,-0.291041 0.529167,-0.639321 0.529167,-0.773952 z m 3.162018,-3.33339 c 0.352707,-1.649236 0.761195,-3.458851 0.90775,-4.021368 0.180911,-0.694381 0.145394,-0.94793 -0.110621,-0.789704 -0.207398,0.128179 -0.480525,0.747169 -0.606954,1.375535 -0.126428,0.628365 -0.320879,1.459982 -0.432117,1.848037 l -0.202251,0.705556 -0.278338,-0.705556 c -0.167969,-0.425777 -0.208012,-0.07605 -0.10098,0.881945 0.101615,0.909519 -0.0414,2.295178 -0.334877,3.244539 -0.281732,0.91137 -0.417368,1.751905 -0.301417,1.86786 0.302302,0.302302 0.726676,-0.978796 1.459805,-4.406844 z m 4.72955,0.705556 c 0.202107,-1.166004 0.192977,-1.18073 -0.164006,-0.264584 -0.207913,0.533577 -0.48386,0.970455 -0.613209,0.97084 -0.129353,3.88e-4 -0.266665,0.516323 -0.305139,1.146529 l -0.06995,1.145826 0.469145,-0.881945 c 0.258032,-0.485069 0.565453,-1.437569 0.683161,-2.116666 z m -10.715459,0.454263 c -0.38439,-0.599471 -0.394345,-0.598702 -0.201358,0.01556 0.111665,0.355418 0.215561,0.831668 0.230879,1.058335 0.02011,0.297448 0.07613,0.293116 0.201355,-0.01556 0.09543,-0.235225 -0.0085,-0.711476 -0.230876,-1.058335 z m 2.032441,-2.218152 -0.0025,-1.5875 -0.282473,1.5875 c -0.15536,0.873125 -0.275459,2.06375 -0.266883,2.645833 l 0.01559,1.058333 0.2693,-1.058333 c 0.148114,-0.582083 0.268214,-1.772708 0.266884,-2.645833 z m 12.422434,1.940278 c 0.435448,-0.577129 0.754243,-2.293056 0.426022,-2.293056 -0.360662,0 -1.138421,2.443029 -1.079973,3.392318 0.03752,0.609332 0.05535,0.605924 0.214351,-0.04093 0.09538,-0.388056 0.293205,-0.864306 0.4396,-1.058333 z m -66.311538,0.09545 c 0,-0.206482 -0.224158,-0.172196 -0.529167,0.08094 -0.291042,0.241544 -0.529167,0.494124 -0.529167,0.561291 0,0.06717 0.238125,0.03074 0.529167,-0.08094 0.291042,-0.111683 0.529167,-0.364264 0.529167,-0.561291 z m -0.728106,-0.779401 c 0.524377,-0.502385 1.045647,-0.821192 1.158377,-0.708462 0.112731,0.112731 0.394596,-0.369622 0.626367,-1.071895 0.231771,-0.702272 1.278229,-2.154475 2.325462,-3.227117 1.047234,-1.072642 1.786237,-1.896844 1.64223,-1.831561 -0.144007,0.06528 -1.115651,0.567352 -2.159209,1.115709 -1.043558,0.548357 -2.244508,1.034023 -2.668779,1.079258 -1.090106,0.116224 -2.11576,1.260164 -2.847298,3.175668 -0.345784,0.905424 -0.766491,1.731385 -0.934904,1.83547 -0.56759,0.35079 0.0336,0.751713 0.972632,0.648633 0.512441,-0.05625 1.360746,-0.513318 1.885122,-1.015703 z m -1.576518,-0.881178 c 0.565321,-1.09321 1.168055,-1.629309 1.480522,-1.316842 0.303738,0.303737 -1.049713,2.352805 -1.554075,2.352805 -0.364336,0 -0.348767,-0.219287 0.07355,-1.035963 z m 57.668371,0.77138 c -0.0206,-1.218445 -0.04946,-1.255088 -0.365513,-0.464003 -0.188736,0.472402 -0.263031,1.067715 -0.1651,1.322916 0.325596,0.848496 0.553247,0.479999 0.530613,-0.858913 z m -5.035666,-0.529167 c -0.09786,-0.242535 -0.177938,-0.0441 -0.177938,0.440972 0,0.48507 0.08007,0.683507 0.177938,0.440972 0.09786,-0.242534 0.09786,-0.639409 0,-0.881944 z M 76.42615,17.520585 c 0,-0.472383 -0.169231,-0.629544 -0.529166,-0.491424 -0.291042,0.111684 -0.529167,0.424201 -0.529167,0.694484 0,0.270283 0.238125,0.491423 0.529167,0.491423 0.291168,0 0.529166,-0.31235 0.529166,-0.694483 z m 13.886741,-0.794263 c -0.131572,-0.212889 -0.335658,-0.162576 -0.519882,0.128166 -0.482162,0.760954 -0.36238,1.134279 0.211201,0.658249 0.288904,-0.23977 0.42781,-0.593657 0.308681,-0.786415 z m -10.38376,-1.245281 c 0.01364,-0.242535 -0.133953,-0.440973 -0.327981,-0.440973 -0.194028,0 -0.341619,0.515938 -0.327981,1.146528 0.02078,0.9608 0.07391,1.032234 0.327981,0.440972 0.166755,-0.388055 0.314346,-0.903993 0.327981,-1.146527 z m 13.433778,-0.279768 c 0.175369,-0.77757 0.165565,-1.176863 -0.02424,-0.987062 -0.38057,0.380569 -0.900642,2.871237 -0.528183,2.5295 0.141852,-0.130149 0.390441,-0.824246 0.552419,-1.542438 z M 78.159841,15.040067 c -0.01277,-0.348916 -0.122668,-0.288833 -0.32258,0.176389 -0.416743,0.969816 -0.416743,1.526811 0,0.881945 0.188087,-0.291042 0.333248,-0.767292 0.32258,-1.058334 z m 9.488061,-0.977914 c -0.0274,-0.723327 0.07868,-1.870766 0.235726,-2.549863 0.504677,-2.1823432 -0.162056,-0.891336 -0.882696,1.709178 -0.851877,3.074098 -0.851874,2.98464 -1.13e-4,2.528792 0.519889,-0.278235 0.684241,-0.707002 0.647083,-1.688107 z m -6.147477,-3.07903 c 0.193156,-1.2674572 0.161988,-1.2315442 -0.306141,0.352778 -0.286657,0.970139 -0.5019,2.398889 -0.478324,3.175 0.0423,1.392405 0.04635,1.387729 0.306144,-0.352778 0.144801,-0.970139 0.360048,-2.398889 0.478321,-3.175 z m 2.979652,2.822222 c -0.0083,-0.567191 -0.06576,-0.532599 -0.292816,0.176389 -0.386295,1.206207 -0.386295,2.133679 0,1.234722 0.166755,-0.388055 0.298521,-1.023055 0.292816,-1.411111 z m -14.051149,0.705556 c -0.491606,-0.592348 -1.058333,-0.700655 -1.058333,-0.202256 0,0.179801 0.277812,0.39951 0.617361,0.488244 0.339549,0.08873 0.676487,0.179748 0.74875,0.202256 0.07227,0.02251 -0.06623,-0.197203 -0.307778,-0.488244 z M 83.865119,8.5810218 c 0.218919,-0.9331 0.317323,-1.777254 0.218683,-1.875897 -0.27365,-0.273649 -1.664377,5.9656812 -1.631668,7.3202782 0.01986,0.822066 0.181519,0.426022 0.521857,-1.278391 0.271202,-1.358194 0.672211,-3.2328902 0.891128,-4.1659902 z m -4.019497,4.4372872 c -0.08944,-0.343241 -0.168508,-0.147825 -0.175698,0.434259 -0.0072,0.582083 0.06599,0.862917 0.162627,0.624075 0.09663,-0.238843 0.102514,-0.715093 0.01309,-1.058334 z m 2.105832,-0.53588 c -0.09786,-0.242535 -0.177937,-0.0441 -0.177937,0.440972 0,0.485069 0.08007,0.683507 0.177937,0.440972 0.09786,-0.242535 0.09786,-0.63941 0,-0.881944 z M 30.53925,11.702015 c 0.607664,-0.314235 1.249058,-0.482208 1.425319,-0.373272 0.325607,0.201236 2.672801,-2.9172712 2.400605,-3.1894672 -0.08164,-0.08164 -1.057185,0.08827 -2.167884,0.377569 -2.405572,0.626572 -2.337805,0.622072 -2.337805,0.155221 0,-0.503753 2.211158,-1.393109 3.463612,-1.393109 0.559256,0 2.022632,-0.595313 3.251946,-1.322917 l 2.235118,-1.322917 -1.661772,-0.107877 c -1.538305,-0.09986 -2.068306,-0.774067 -0.608503,-0.774067 0.352847,0 0.850524,-0.25181 1.105948,-0.5595767 0.336026,-0.404886 0.762438,-0.492108 1.542501,-0.315515 0.592952,0.134234 2.200325,0.348243 3.571942,0.4755757 2.091787,0.194189 2.597577,0.133033 3.137247,-0.3793287 0.95798,-0.909507 2.983717,-1.507175 3.46777,-1.023121 0.285958,0.285955 0.177857,0.390855 -0.402773,0.390855 -0.801444,0 -2.875259,0.914239 -2.875259,1.2675537 0,0.256176 1.289762,-0.154563 2.91362,-0.9278737 0.729364,-0.347338 1.999364,-0.734291 2.822222,-0.859896 0.822854,-0.125605 1.916363,-0.3899473 2.430015,-0.5874273 0.710234,-0.27305819 1.191871,-0.2256586 2.010953,0.1979055 0.592373,0.3063278 1.68512,0.5569598 2.428328,0.5569598 1.194735,0 1.404726,-0.132832 1.812519,-1.14652769 0.265278,-0.6594277 0.537122,-0.9541425 0.639861,-0.6936944 0.09825,0.2490583 -0.0088,0.6786668 -0.237871,0.95468539 -0.505629,0.6092447 -0.255351,1.0900287 0.697079,1.3390937 0.529251,0.138403 0.711051,0.01399 0.711051,-0.486584 0,-0.369891 -0.169446,-0.6725285 -0.376551,-0.6725285 -0.526697,0 -0.08299,-1.32503999 0.961118,-2.8701988 0.656294,-0.9712382 1.268762,-1.3913309 2.522347,-1.7300818 2.419075,-0.6536976 2.448109,-0.7291014 0.557209,-1.4472334 -2.472404,-0.9389791 -3.91306,-0.8385281 -5.780789,0.4030697 -0.873125,0.5804221 -1.785938,1.0559923 -2.028472,1.0568231 -0.242535,8.304e-4 -0.440973,0.2396352 -0.440973,0.5306769 0,0.2910416 -0.161903,0.5291666 -0.359787,0.5291666 -0.197884,0 -1.006634,0.4083347 -1.797218,0.9074104 -0.790589,0.49907581 -1.541495,0.80291061 -1.668685,0.67518851 -0.290739,-0.2919582 1.268712,-1.58259891 1.91222,-1.58259891 0.262795,0 1.04956,-0.5020052 1.74837,-1.1155669 l 1.270558,-1.1155665 -1.17009,-0.5058019 c -1.405668,-0.6076353 -4.51377,-0.6558152 -5.577618,-0.08646 -0.691321,0.3699824 -0.713955,0.467929 -0.231362,1.0011879 0.49662,0.5487571 0.281072,0.5971621 -3.01002,0.6759529 -2.895522,0.06932 -3.909107,0.2465338 -5.532741,0.9673336 -1.093286,0.4853559 -2.572538,0.953675 -3.287225,1.0407096 -0.714688,0.087034 -1.905313,0.46498821 -2.645833,0.83989821 -0.740521,0.3749096 -1.862339,0.7930158 -2.492929,0.9291249 -1.268083,0.2737079 -1.583148,1.32311789 -0.567832,1.89131789 0.838595,0.469301 0.270891,1.2242217 -0.578696,0.769537 -0.45725,-0.244712 -0.737018,-0.234495 -0.902311,0.03295 -0.131767,0.213203 -0.715482,0.3177917 -1.297147,0.232422 -0.920024,-0.13503 -1.119351,-0.0074 -1.53258,0.9816377 -0.261255,0.625271 -0.719048,1.230504 -1.017319,1.344961 -0.29827,0.114458 -0.54231,0.462631 -0.54231,0.773719 0,0.311087 -0.384439,1.228882 -0.85431,2.039544 -0.469871,0.810661 -0.962558,2.2174027 -1.09486,3.1260907 l -0.24055,1.652162 1.587877,-0.47788 c 0.873332,-0.262835 2.085056,-0.734983 2.69272,-1.049218 z M 40.513976,1.6025331 c 0.112946,-0.3353936 0.788713,-0.5160077 2.076609,-0.5550221 1.050047,-0.03181 2.623552,-0.32512179 3.496677,-0.65180629 1.656373,-0.619741 5.479193,-0.5133788 6.674418,0.1857018 0.777328,0.45465539 -1.438695,0.43942069 -3.44714,-0.0237 -1.580533,-0.3644483 -4.099111,0.169581 -3.716843,0.78810379 0.09813,0.1587868 -0.770458,0.2887018 -1.930207,0.2887018 -1.159748,0 -2.381404,0.104672 -2.714789,0.232604 -0.42615,0.163529 -0.556435,0.08496 -0.438725,-0.264583 z M 68.665039,12.966597 c 0,-0.459814 -0.911168,-1.131102 -1.175924,-0.866344 -0.26476,0.264758 0.406527,1.175926 0.866341,1.175926 0.170271,0 0.309583,-0.139312 0.309583,-0.309582 z m 10.471542,-0.46212 c -0.112614,-0.281422 -0.196208,-0.197829 -0.213135,0.213137 -0.01531,0.371886 0.06806,0.580246 0.185286,0.463021 0.117225,-0.117225 0.129756,-0.421496 0.02783,-0.676158 z m 5.644444,-0.352778 c -0.112614,-0.281422 -0.196208,-0.197829 -0.213134,0.213137 -0.01531,0.371887 0.06806,0.580246 0.185286,0.463021 0.117224,-0.117225 0.129755,-0.421496 0.02783,-0.676158 z M 68.370488,10.012984 c 0.875358,-0.8246182 1.9246,-2.0572712 2.331645,-2.7392292 0.722133,-1.209843 2.181836,-2.493097 3.960128,-3.481432 2.773754,-1.5415897 2.772855,-1.5413987 5.58116,-1.1842577 3.964996,0.504242 4.170249,0.141035 1.084799,-1.91963319 -4.282179,-2.85992421 -6.193751,-3.52389751 -11.185931,-3.88536521 -3.439407,-0.2490368 -5.43549,0.3266937 -6.777556,1.9548524 -0.648684,0.78696891 -0.894718,1.34323271 -0.658639,1.48913741 0.207267,0.1280985 0.327049,0.81091469 0.266185,1.51736959 -0.09831,1.141025 0.0361,1.384189 1.20355,2.1774917 0.722814,0.491167 1.31421,1.046057 1.31421,1.23309 0,0.890003 0.723537,0.185516 1.100014,-1.071051 0.232527,-0.776111 0.556401,-1.4111107 0.719716,-1.4111107 0.474853,0 0.333315,1.5079027 -0.231792,2.4694437 -0.28508,0.485069 -0.618755,1.159757 -0.7415,1.499305 -0.265095,0.733331 -0.846438,0.823571 -0.846438,0.131391 0,-0.267284 -0.264456,-0.703847 -0.587682,-0.970139 -0.531089,-0.437542 -0.563421,-0.386779 -0.335728,0.527127 0.640666,2.571484 0.66426,3.045649 0.151564,3.045649 -0.681672,0 -2.403154,-1.833114 -2.403154,-2.558989 0,-0.468702 -0.877376,-1.294995 -2.792825,-2.630213 -0.08084,-0.05636 -0.06081,-0.188643 0.04452,-0.293973 0.321253,-0.321254 2.748304,0.995965 2.748304,1.49157 0,0.255105 0.163866,0.463828 0.364145,0.463828 0.200282,0 0.495899,0.356161 0.656932,0.791469 0.257535,0.696189 0.311541,0.6308 0.448592,-0.543164 0.138395,-1.185432 0.03492,-1.409341 -0.925442,-2.002887 -1.851187,-1.1440957 -2.966949,-1.4555747 -3.661131,-1.0220507 -0.492852,0.3077897 -1.017196,0.190593 -2.492858,-0.557181 -1.0278,-0.520826 -1.948211,-0.86747 -2.045362,-0.77032 -0.314964,0.314965 0.251142,0.898021 1.408305,1.450471 1.423532,0.6796197 2.719042,2.5508327 2.719042,3.9273427 0,0.751843 0.410132,1.480457 1.431879,2.543793 0.787534,0.8195892 1.541596,1.4297562 1.675694,1.3559282 0.134098,-0.07383 1.037566,-0.01926 2.007704,0.121269 0.970139,0.140526 2.014203,0.276714 2.320139,0.302638 0.305939,0.02593 1.272455,-0.627552 2.147811,-1.45217 z M 66.934072,7.9273058 c -0.449513,-1.289466 -0.278109,-1.643784 0.487718,-1.008203 0.577021,0.478884 0.746969,2.123742 0.219428,2.123742 -0.175048,0 -0.493264,-0.501992 -0.707146,-1.115539 z m 1.738393,-0.630423 c -0.663381,-1.601539 -0.236865,-2.052565 0.599895,-0.634366 0.688203,1.166417 0.713165,1.674773 0.08224,1.674773 -0.138147,0 -0.44511,-0.468183 -0.682131,-1.040407 z m -0.0074,-5.5153797 c 0,-1.70003769 0.118181,-2.28363049 0.440973,-2.17759149 0.495282,0.1627035 0.775917,2.40916849 0.458798,3.67266749 -0.405723,1.6165347 -0.899771,0.7956177 -0.899771,-1.495076 z M 71.848111,1.1265738 C 71.659248,0.62982881 71.262669,0.22340131 70.966826,0.22340131 c -0.295843,0 -0.537898,-0.15875 -0.537898,-0.3527777 0,-0.4942022 1.534259,-0.4412965 2.046111,0.070556 0.514608,0.5146068 0.554084,1.57088549 0.0699,1.87012949 -0.194391,0.120141 -0.507961,-0.187989 -0.696824,-0.6847348 z m 1.755817,-1.07956139 c 0,-0.2911693 0.31235,-0.5291666 0.694485,-0.5291666 0.47238,0 0.629543,0.1692314 0.491423,0.5291666 -0.111685,0.2910417 -0.424201,0.5291667 -0.694485,0.5291667 -0.270281,0 -0.491423,-0.238125 -0.491423,-0.5291667 z m 3.527778,0.2711683 c -2.020951,-0.2374671 -2.193724,-0.8586279 -0.203966,-0.7333054 0.990657,0.062395 1.798655,0.2987344 1.881481,0.5503316 0.07984,0.2425347 0.01288,0.4155662 -0.148813,0.3845147 -0.161688,-0.031052 -0.849605,-0.121745 -1.528702,-0.2015409 z m 3.129029,8.72466409 -0.03517,-1.5875 -0.291878,1.411112 c -0.160531,0.776111 -0.298595,1.7286112 -0.306807,2.1166662 -0.01231,0.582795 0.04457,0.613486 0.327046,0.176389 0.188087,-0.291042 0.32615,-1.2435422 0.306807,-2.1166672 z m 5.140173,1.5458732 c 0.331125,-1.3193042 -0.0028,-1.4328972 -0.448952,-0.15277 -0.206368,0.591988 -0.241931,1.076342 -0.07903,1.076342 0.162902,0 0.400494,-0.415607 0.527984,-0.923572 z m -25.70929,0.254281 c -0.107587,-0.174082 -1.244085,-1.1662692 -2.52555,-2.2048612 -1.281465,-1.038591 -2.577771,-2.364598 -2.88068,-2.946681 -0.302913,-0.582084 -0.613831,-0.871696 -0.69093,-0.643582 -0.298094,0.88198 0.64606,3.186192 1.891299,4.615709 1.162433,1.3344642 1.470295,1.4959282 2.852281,1.4959282 0.852057,0 1.46117,-0.142431 1.35358,-0.316513 z m 14.617866,-0.683024 c 0,-0.1616902 -0.238125,-0.2939822 -0.529167,-0.2939822 -0.291042,0 -0.529167,0.132292 -0.529167,0.2939822 0,0.16169 0.238125,0.293981 0.529167,0.293981 0.291042,0 0.529167,-0.132291 0.529167,-0.293981 z M 88.767971,8.9546508 c -0.0044,-0.641857 -0.07085,-0.692488 -0.347377,-0.264583 -0.442002,0.683951 -0.442002,1.058333 0,1.058333 0.194028,0 0.350348,-0.357188 0.347377,-0.79375 z M 78.190039,8.6692478 c 0,-0.182577 -0.15875,-0.331958 -0.352778,-0.331958 -0.194027,0 -0.352777,0.247494 -0.352777,0.549986 0,0.302493 0.15875,0.451874 0.352777,0.331958 0.194028,-0.119916 0.352778,-0.367409 0.352778,-0.549986 z m 3.761415,-0.420153 c -0.09786,-0.242534 -0.177937,-0.0441 -0.177937,0.440973 0,0.485069 0.08007,0.683507 0.177937,0.440972 0.09786,-0.242535 0.09786,-0.63941 0,-0.881945 z m -5.637095,-0.330729 c -0.112614,-0.281422 -0.196208,-0.197829 -0.213135,0.213137 -0.01531,0.371886 0.06806,0.580246 0.185286,0.463021 0.117225,-0.117225 0.129755,-0.421496 0.02783,-0.676158 z m 5.749431,-3.620382 c 0.0043,-0.211666 -0.107979,-0.211666 -0.304751,0 -0.171355,0.184327 -0.403119,1.128889 -0.515034,2.099028 l -0.203483,1.763889 0.50823,-1.763889 c 0.27953,-0.970139 0.511295,-1.914701 0.515038,-2.099028 z m -3.541304,-0.105833 c 0.01118,-0.436562 -0.138419,-0.79375 -0.332447,-0.79375 -0.201884,0 -0.335425,0.943093 -0.312208,2.204861 0.03876,2.106493 0.05359,2.141906 0.332447,0.79375 0.160532,-0.776111 0.301025,-1.768298 0.312208,-2.204861 z m -21.146335,2.233633 c 0,-0.586132 -0.367503,-1.080301 -1.174147,-1.578835 -0.645783,-0.399115 -1.356754,-1.126437 -1.579939,-1.6162727 -0.364469,-0.799925 -1.832025,-1.30901 -1.832025,-0.635516 0,0.234208 4.263323,4.6837967 4.487724,4.6837967 0.05411,0 0.09839,-0.383928 0.09839,-0.853173 z m 17.991666,-1.263494 c 0,-0.194028 -0.14938,-0.352778 -0.331957,-0.352778 -0.182576,0 -0.430071,0.15875 -0.549987,0.352778 -0.119917,0.194028 0.02946,0.352778 0.331956,0.352778 0.302493,0 0.549988,-0.15875 0.549988,-0.352778 z m 5.644444,-0.8408 c 0,-0.268411 -0.3175,-0.571049 -0.705555,-0.672528 -0.46851,-0.122518 -0.705556,-0.01082 -0.705556,0.332453 0,0.284327 0.147782,0.425626 0.328401,0.313996 0.180622,-0.11163 0.428117,-0.04162 0.549988,0.155569 0.309573,0.5009 0.532722,0.446658 0.532722,-0.12949 z m -37.652313,-0.09616 c -0.238842,-0.09663 -0.715092,-0.102516 -1.058333,-0.01307 -0.343241,0.08944 -0.147825,0.168508 0.434258,0.175697 0.582083,0.0072 0.862917,-0.06599 0.624075,-0.162627 z M 32.50649,1.6326151 c 0.407673,-0.65962809 -0.419742,-0.3522821 -1.093024,0.406007 -0.66737,0.751633 -0.666662,0.754069 0.102065,0.350881 0.425757,-0.223304 0.871688,-0.563903 0.990959,-0.756888 z m 36.415784,-5.8556837 c -0.117228,-0.1172249 -0.421499,-0.129758 -0.676158,-0.027852 -0.281422,0.1126158 -0.197831,0.196209 0.213137,0.2131367 0.371885,0.015318 0.580246,-0.068061 0.463021,-0.1852859 z m -8.670985,-1.3743633 c 0,-0.1843263 -0.170656,-0.3920242 -0.379236,-0.4615507 -0.208579,-0.069527 -0.379236,0.138171 -0.379236,0.4615507 0,0.3233798 0.170657,0.5310777 0.379236,0.4615508 0.20858,-0.069526 0.379236,-0.2772244 0.379236,-0.4615508 z M 18.041429,30.229394 c -0.582083,-0.370628 -1.455208,-0.687902 -1.940278,-0.705055 -1.255574,-0.0444 -1.90828,-0.546375 -1.635327,-1.257681 0.255158,-0.664929 0.06564,-0.676744 6.133244,0.382292 1.988785,0.347122 3.615972,0.722125 3.615972,0.833342 0,0.380538 -1.966216,1.072903 -3.541293,1.246999 -1.167178,0.129007 -1.847517,-1.94e-4 -2.632318,-0.499897 z"
       style="fill:#000000;stroke-width:0.35277778" />
  </g>
</svg>
