<?xml version="1.0" encoding="UTF-8" standalone="no"?>
<svg
   xmlns:dc="http://purl.org/dc/elements/1.1/"
   xmlns:cc="http://creativecommons.org/ns#"
   xmlns:rdf="http://www.w3.org/1999/02/22-rdf-syntax-ns#"
   xmlns:svg="http://www.w3.org/2000/svg"
   xmlns="http://www.w3.org/2000/svg"
   id="svg15840"
   version="1.1"
   viewBox="0 0 79.057274 99.496552"
   height="99.496552mm"
   width="79.057274mm">
  <defs
     id="defs15834" />
  <metadata
     id="metadata15837">
    <rdf:RDF>
      <cc:Work
         rdf:about="">
        <dc:format>image/svg+xml</dc:format>
        <dc:type
           rdf:resource="http://purl.org/dc/dcmitype/StillImage" />
        <dc:title></dc:title>
      </cc:Work>
    </rdf:RDF>
  </metadata>
  <g
     transform="translate(-73.883383,-102.87735)"
     id="layer1">
    <path
       id="path16447"
       d="m 87.136116,201.8004 c -0.304901,-0.3049 -0.554365,-0.69044 -0.554365,-0.85675 0,-0.49449 1.067396,-1.41111 1.643233,-1.41111 0.91088,0 4.950836,-4.15345 5.249191,-5.39666 0.689695,-2.87387 0.749858,-5.3581 0.219591,-9.06723 -0.20804,-1.45521 -0.385356,-4.15396 -0.394035,-5.99722 -0.0087,-1.84327 -0.234101,-4.46264 -0.500939,-5.82083 -0.266837,-1.3582 -0.431105,-3.10445 -0.365039,-3.88056 0.06607,-0.77611 0.09034,-2.60174 0.05395,-4.05694 -0.169601,-6.78127 -0.0243,-9.0096 0.753794,-11.5599 0.803583,-2.63385 0.764923,-3.25677 -0.202126,-3.25677 -0.45356,0 -0.515942,-0.2769 -0.337782,-1.49931 0.388572,-2.66612 0.617223,-3.58498 1.0098,-4.05801 0.349815,-0.4215 -0.09808,-1.88584 -0.781973,-2.55657 -0.09892,-0.097 -0.454823,-0.97014 -0.790901,-1.94028 -0.574424,-1.65816 -0.692355,-2.8929 -0.611169,-6.39894 0.01916,-0.82735 -0.297289,-2.16444 -0.730244,-3.08551 -0.44434,-0.9453 -0.662937,-1.88433 -0.522405,-2.24411 0.366115,-0.93732 0.612485,-6.08516 0.291824,-6.09761 -0.359199,-0.0139 -5.293061,-0.69013 -6.454212,-0.88455 -0.48507,-0.0812 -2.231319,-0.25205 -3.880555,-0.37961 -1.649236,-0.12757 -3.190095,-0.38279 -3.42413,-0.56715 -0.234035,-0.18436 -0.602975,-0.22553 -0.819865,-0.0915 -0.428379,0.26475 -2.107029,-1.12626 -2.104373,-1.74378 0.0035,-0.80491 2.189972,-2.66552 3.568668,-3.03676 0.791895,-0.21324 1.471831,-0.33758 1.51097,-0.27632 0.03914,0.0613 0.343416,0.54663 0.676172,1.07861 0.507402,0.81118 0.788976,0.93934 1.745311,0.7944 2.444078,-0.37042 5.152571,-0.59238 8.195857,-0.67164 1.74625,-0.0455 3.521751,-0.26965 3.945558,-0.49815 0.423807,-0.2285 1.09207,-0.41545 1.485029,-0.41545 0.392959,0 1.078083,-0.37217 1.522497,-0.82703 1.316953,-1.34792 3.365508,-2.409 4.412742,-2.28564 0.73961,0.0871 0.99917,-0.0526 1.09898,-0.5915 0.0719,-0.38806 0.53038,-1.2358 1.01889,-1.88388 0.58412,-0.7749 0.96883,-1.86204 1.12368,-3.17536 0.27371,-2.32139 0.57637,-2.94054 1.38707,-2.83759 1.07954,0.13709 3.28622,-0.47721 3.47424,-0.96716 0.20685,-0.53903 1.37204,-0.65922 1.67282,-0.17255 0.10608,0.17164 0.89622,0.41754 1.75586,0.54646 0.85965,0.12891 1.75416,0.46473 1.98781,0.74626 0.23365,0.28153 0.6327,0.51187 0.88677,0.51187 0.56327,0 1.73411,1.62081 2.03112,2.81169 0.44197,1.77214 -1.68962,7.05741 -2.84883,7.06368 -0.24517,0.001 -0.75773,0.19724 -1.13902,0.43536 -0.52536,0.3281 -0.94646,0.33739 -1.73867,0.0384 -1.98423,-0.74896 -1.98363,0.74203 0.001,2.99694 1.27623,1.44987 1.42328,1.79756 1.29106,3.05274 -0.10596,1.0059 0.0901,1.89886 0.6764,3.08048 0.45408,0.91518 0.82561,1.90737 0.82561,2.20486 1.5e-4,0.29749 0.20119,0.54089 0.4469,0.54089 0.24571,0 0.96593,0.86803 1.60049,1.92894 1.22978,2.05605 2.55226,3.51303 4.93866,5.44095 2.09587,1.69321 2.05396,3.41502 -0.0519,2.13097 -0.63249,-0.38566 -1.75576,-0.67934 -2.60123,-0.68009 -1.24175,-0.001 -1.56724,-0.15248 -1.96654,-0.91457 -0.26318,-0.50229 -1.49856,-1.49803 -2.74529,-2.21275 -1.71983,-0.98594 -2.43705,-1.64573 -2.97235,-2.73437 -0.38806,-0.78917 -1.12725,-1.93106 -1.64264,-2.53752 -0.80019,-0.94159 -0.99976,-1.02716 -1.36612,-0.58573 -0.23596,0.28433 -0.66866,0.51695 -0.96155,0.51695 -0.65421,0 -2.92893,1.36029 -3.515,2.10197 -0.70738,0.89521 -0.51589,1.43441 0.69433,1.9551 1.52211,0.65488 5.49124,4.51395 5.69681,5.53884 0.0895,0.44607 0.29288,1.68273 0.45203,2.74813 l 0.28936,1.93709 2.59812,1.28754 c 1.71806,0.85141 3.391,2.06992 4.93889,3.5973 3.34589,3.30157 4.93593,3.45491 6.3844,0.61567 0.38201,-0.74879 1.37471,-2.07123 2.20602,-2.93876 1.20797,-1.26061 1.89153,-1.65881 3.40433,-1.98318 1.04108,-0.22322 2.31108,-0.69338 2.82222,-1.0448 0.51114,-0.35141 1.4485,-0.84599 2.08302,-1.09906 1.36815,-0.54567 2.90327,-2.25642 2.90327,-3.23542 0,-0.38281 0.24221,-1.16438 0.53823,-1.73683 0.62535,-1.2093 1.70477,-1.35846 3.4183,-0.47236 0.73708,0.38116 1.86458,0.54681 3.42206,0.50275 1.27754,-0.0361 3.10483,-0.0538 4.06065,-0.0391 4.02868,0.0616 4.73353,3.06566 0.81132,3.45788 -0.81462,0.0815 -1.64633,0.28522 -1.84823,0.45278 -0.20191,0.16757 -1.55346,0.69652 -3.00346,1.17546 -5.2444,1.73222 -8.05389,3.39953 -12.16137,7.21726 -5.33473,4.95841 -5.79733,5.36178 -6.1491,5.36178 -0.19398,0 -1.03292,0.70795 -1.8643,1.57323 -1.37428,1.43031 -1.68785,1.58493 -3.45187,1.70211 -1.06716,0.0709 -2.41653,-0.0621 -2.99861,-0.29561 -0.58209,-0.23348 -2.01084,-0.7185 -3.175,-1.07783 -1.16417,-0.35933 -2.70431,-0.93425 -3.42254,-1.27761 -0.71824,-0.34336 -1.54754,-0.62429 -1.8429,-0.62429 -0.29537,0 -1.73592,-0.47625 -3.20123,-1.05833 -1.46531,-0.58208 -2.80569,-1.05833 -2.97862,-1.05833 -0.6526,0 -1.45353,3.13614 -1.75684,6.87916 -0.25277,3.11928 -0.53541,4.39961 -1.44075,6.52639 -2.496755,5.86527 -2.701204,7.49417 -1.505463,11.99445 0.839453,3.15934 0.809033,3.87253 -0.397641,9.32344 -0.634017,2.86404 -0.816484,4.32326 -0.571265,4.56848 0.198167,0.19816 0.365258,1.08261 0.371314,1.96544 0.0074,1.07395 0.298629,2.07212 0.880137,3.01625 1.053198,1.70998 1.082238,2.28435 0.173846,3.43918 -0.656141,0.83415 -1.135163,1.0077 -4.239993,1.53613 -0.679097,0.11559 -1.485347,0.43249 -1.791667,0.70423 -0.306319,0.27173 -0.723444,0.49407 -0.926943,0.49407 -0.203499,0 -0.567625,0.23812 -0.809168,0.52917 -0.617671,0.74424 -4.339055,0.72582 -5.090079,-0.0252 z m 6.042959,-1.72225 c 1.426101,-0.72436 3.092814,-1.27644 4.111059,-1.36173 1.701239,-0.14251 2.32864,-0.59806 2.338992,-1.69832 0.0068,-0.72712 -1.02052,-1.61751 -1.344401,-1.16516 -0.514831,0.71903 -2.698061,1.18561 -4.075475,0.87098 -1.268592,-0.28978 -1.435739,-0.23337 -2.293055,0.77383 -0.508597,0.59751 -1.200512,1.49822 -1.537588,2.00156 -0.337076,0.50335 -0.813325,0.93655 -1.058333,0.96268 -1.042971,0.11121 -1.10107,0.21521 -0.269079,0.48166 1.417161,0.45386 1.609961,0.41343 4.12788,-0.8655 z m 1.869342,-6.51763 c 0,-0.57802 -0.602625,-0.4495 -0.844201,0.18004 -0.369875,0.96388 -0.234407,1.27654 0.315035,0.7271 0.291041,-0.29104 0.529166,-0.69926 0.529166,-0.90714 z m 2.43527,-2.64752 c -0.467093,-0.50121 -0.669221,-0.0915 -0.421732,0.85494 0.205207,0.78472 0.240483,0.79667 0.47512,0.16099 0.139401,-0.37767 0.115376,-0.83483 -0.05339,-1.01593 z m 0.03417,-1.59019 c 0,-0.18258 -0.15875,-0.43008 -0.352778,-0.54999 -0.194028,-0.11992 -0.347729,-0.56585 -0.341559,-0.99096 0.01046,-0.72059 0.04319,-0.7308 0.483323,-0.15084 0.426111,0.56149 0.492839,0.49275 0.684955,-0.70555 0.117069,-0.73021 0.312504,-1.82465 0.4343,-2.43208 0.204713,-1.02098 0.157153,-1.09214 -0.629436,-0.94177 -1.169104,0.22349 -1.812455,-0.66703 -2.060676,-2.85235 l -0.204934,-1.80423 -0.286219,2.55071 c -0.177193,1.57909 -0.422981,2.46618 -0.645247,2.32882 -0.230607,-0.14253 -0.275778,0.14387 -0.126285,0.80068 0.128007,0.56241 0.331823,1.93538 0.452923,3.05104 0.219635,2.02343 0.223129,2.02847 1.405907,2.02847 0.652149,0 1.185726,-0.14938 1.185726,-0.33195 z m 1.500521,-7.81858 c 0.479431,-0.98992 0.466734,-1.38593 -0.132326,-4.12727 -0.364452,-1.66776 -0.66264,-3.57453 -0.66264,-4.23726 0,-1.18631 -0.01294,-1.1965 -0.835389,-0.65761 -0.742929,0.48679 -0.918633,0.48907 -1.5875,0.0206 -0.630443,-0.44158 -0.751769,-0.88024 -0.749996,-2.71165 0.0036,-3.70164 0.436993,-8.00569 0.80616,-8.00569 0.228527,0 0.250956,1.26117 0.06431,3.61597 -0.476912,6.0168 -0.47122,6.08542 0.504865,6.08542 0.712056,0 0.953136,-0.30848 1.501226,-1.92094 0.35912,-1.05651 0.562307,-2.24714 0.451527,-2.64583 -0.158614,-0.57085 -0.125104,-0.61379 0.157682,-0.20207 0.28451,0.41422 0.535857,0.12111 1.210052,-1.41111 1.002471,-2.27829 1.528651,-3.96365 0.996241,-3.19091 -0.23907,0.34697 -0.31478,-0.48205 -0.23995,-2.62747 0.0938,-2.68886 0.21537,-3.22026 0.85533,-3.73847 0.43393,-0.35138 0.75123,-1.02315 0.7585,-1.60586 0.007,-0.55098 0.23938,-1.39866 0.51667,-1.88373 0.85282,-1.49186 0.67467,-1.76462 -1.14653,-1.75547 -0.92163,0.005 -2.271008,0.14666 -2.998612,0.31562 -0.727604,0.16897 -1.858255,0.18647 -2.512559,0.0389 l -1.189643,-0.26831 -0.760735,3.39227 c -0.662088,2.95238 -0.741001,4.16994 -0.608555,9.38949 0.0837,3.29847 0.263978,6.27503 0.400621,6.61458 0.147202,0.36579 0.08931,0.61736 -0.142079,0.61736 -0.214787,0 -0.390522,0.18521 -0.390522,0.41158 0,0.22636 0.105264,0.30631 0.233919,0.17765 0.128655,-0.12865 0.534085,0.25967 0.900954,0.86294 0.36687,0.60326 0.589669,1.17422 0.495108,1.26878 -0.286866,0.28686 -0.955512,-0.27821 -1.279563,-1.08135 l -0.305695,-0.75765 -0.02236,0.77715 c -0.02547,0.88511 0.666689,2.57424 1.054854,2.57424 0.142125,0 0.385045,-0.27782 0.539823,-0.61737 0.207925,-0.45613 0.338401,-0.20279 0.499628,0.97014 0.176047,1.28075 0.275362,1.45117 0.513968,0.88195 0.162665,-0.38806 0.528161,-1.26118 0.812215,-1.94028 0.284053,-0.6791 0.584861,-1.05574 0.668462,-0.83698 0.0836,0.21876 -0.25162,1.28016 -0.744933,2.35865 -0.899208,1.96587 -1.237289,3.43143 -0.544155,2.35889 0.241651,-0.37394 0.343558,0.097 0.347375,1.60513 0.003,1.18244 0.194203,2.32311 0.428736,2.55764 0.732084,0.73209 1.585699,0.46362 2.135521,-0.67164 z m -1.149711,-21.74738 c -0.0011,-1.11566 -0.171404,-2.63868 -0.378494,-3.38447 -0.433954,-1.56282 -0.222828,-2.06432 0.388315,-0.92239 0.592093,1.10634 0.918389,6.33533 0.395334,6.33533 -0.255424,0 -0.403909,-0.74341 -0.405155,-2.02847 z m -3.170783,18.9618 c 0.0568,-3.70946 -0.0046,-4.0849 -0.375266,-2.29305 -0.412082,1.99224 -0.413231,6.04365 -0.0016,5.6268 0.182018,-0.18433 0.351606,-1.68451 0.376862,-3.33375 z m 7.211976,-20.58881 c 0.20328,-1.65015 0.15953,-2.0363 -0.21654,-1.9112 -0.3297,0.10967 -0.48788,0.94295 -0.52651,2.77353 -0.0612,2.90024 0.33637,2.43885 0.74305,-0.86233 z m 19.22678,-3.75286 c 0.15605,0 0.48134,0.23813 0.72289,0.52917 0.64945,0.78254 1.07388,0.64565 2.77939,-0.89641 1.57536,-1.42438 1.70155,-1.8063 0.29159,-0.88246 -0.45079,0.29537 -0.97925,0.39399 -1.24176,0.23175 -0.52597,-0.32507 2.10175,-1.45149 3.38604,-1.45149 0.43008,0 0.78196,-0.14479 0.78196,-0.32176 0,-0.34217 6.68607,-6.34783 9.59203,-8.61589 1.80517,-1.40891 1.86632,-2.02597 0.25158,-2.53847 -0.84735,-0.26894 -3.49361,0.86617 -3.49361,1.49858 0,0.2585 -0.43656,0.65513 -0.97014,0.8814 -0.99913,0.42368 -1.33356,0.4879 -3.00649,0.57724 -1.18843,0.0635 -3.82002,2.39033 -4.92313,4.35305 -0.42612,0.75817 -1.2748,1.68753 -1.88597,2.06526 -0.93432,0.57744 -1.29032,0.62433 -2.23631,0.29455 -0.6188,-0.21571 -1.21838,-0.29892 -1.33239,-0.1849 -0.23252,0.23252 1.42392,0.93261 2.20656,0.93261 0.27841,0 0.5062,0.15875 0.5062,0.35277 0,0.47884 -1.17588,0.44483 -2.29802,-0.0665 -0.69142,-0.31503 -0.87338,-0.60543 -0.73208,-1.16838 0.32268,-1.28568 -3.81191,-4.92966 -7.20045,-6.34604 -0.87313,-0.36497 -1.93324,-0.96861 -2.35581,-1.34144 -0.66034,-0.58261 -1.08173,-0.6431 -2.99861,-0.43049 -1.22667,0.13606 -2.60851,0.4879 -3.07075,0.78188 -0.9,0.57237 -4.274837,3.81608 -4.274837,4.10875 0,0.27403 6.203707,3.75662 6.691857,3.75662 0.23897,0 -0.37518,-0.88592 -1.36479,-1.96871 -2.69759,-2.95159 -2.16861,-3.44561 0.58211,-0.54363 1.63252,1.72229 2.64134,2.51234 3.20802,2.51234 0.54063,0 0.89305,0.25396 1.01858,0.73399 0.13644,0.52176 0.39219,0.68163 0.88443,0.55291 0.65318,-0.17081 2.35278,0.36789 2.73813,0.86788 0.25707,0.33354 5.52646,0.98502 6.30997,0.78012 0.36628,-0.0958 0.76036,-0.0214 0.87575,0.1653 0.11538,0.1867 -0.46201,0.45973 -1.28311,0.60674 l -1.49289,0.2673 1.41111,0.4304 c 1.15944,0.35364 1.43146,0.34529 1.52517,-0.0468 0.0627,-0.26249 0.24174,-0.47725 0.39778,-0.47725 z m 5.66178,-5.89289 c 0,-0.1968 0.55408,-1.05484 1.23129,-1.90677 0.67722,-0.85192 1.23284,-1.74738 1.23472,-1.98992 0.002,-0.24253 0.17288,-0.44097 0.37998,-0.44097 0.4783,0 0.0929,1.29046 -0.73754,2.46944 -0.83314,1.18286 -2.10845,2.31286 -2.10845,1.86822 z m -29.745132,-1.22881 c -0.112615,-0.28142 -0.196209,-0.19783 -0.213136,0.21314 -0.01532,0.37188 0.06806,0.58025 0.185286,0.46302 0.117225,-0.11723 0.129758,-0.4215 0.02785,-0.67616 z m 2.054026,-2.40546 c 0.352262,-0.38924 0.573477,-0.77472 0.49159,-0.8566 -0.08189,-0.0819 -0.492235,0.23658 -0.911884,0.70771 -0.419649,0.47114 -0.640865,0.85661 -0.49159,0.85661 0.149274,0 0.559622,-0.31847 0.911884,-0.70772 z m -1.072903,-2.13491 c -0.121559,-0.19669 -0.420406,-0.12614 -0.715436,0.16889 -0.726823,0.72683 -0.624356,0.99766 0.208762,0.55178 0.39349,-0.21059 0.621494,-0.53489 0.506674,-0.72067 z m 43.555439,-1.90682 c 1.81231,-0.93718 1.64922,-2.5098 -0.22704,-2.18934 -0.4298,0.0734 -0.85639,-0.0419 -0.94798,-0.25623 -0.10239,-0.2396 -0.37237,-0.13487 -0.70091,0.27191 -0.29391,0.36388 -0.76853,0.57175 -1.05471,0.46194 -0.28617,-0.10982 -0.73036,0.0587 -0.98709,0.37458 -0.3995,0.49149 -0.38321,0.54298 0.11305,0.35729 0.36186,-0.13541 0.88225,0.10498 1.38441,0.6395 0.94136,1.00203 1.09809,1.02407 2.42027,0.34035 z m 3.72879,-2.21791 c -0.17622,-0.89767 -0.1607,-0.9135 0.20772,-0.21193 0.33661,0.64102 0.56115,0.71147 1.45263,0.45579 0.57996,-0.16633 1.3016,-0.50751 1.60364,-0.75819 0.30205,-0.25067 0.8026,-0.4167 1.11234,-0.36894 0.30974,0.0478 0.79996,-0.0647 1.08938,-0.24991 0.43163,-0.27622 0.44379,-0.41865 0.0676,-0.79241 -0.33043,-0.32831 -1.48496,-0.42684 -4.13082,-0.35253 -2.7786,0.078 -3.92826,-0.0293 -4.7244,-0.44097 -1.41704,-0.73278 -2.3981,-0.685 -2.8387,0.13826 -0.7366,1.37635 -0.47718,1.71303 1.17634,1.52666 0.93533,-0.10543 1.63717,-0.019 1.7847,0.21972 0.13375,0.21641 0.52672,0.39348 0.87326,0.39348 0.34653,0 0.91739,0.3175 1.26857,0.70555 0.88677,0.97987 1.28258,0.88086 1.05773,-0.26458 z m -36.15911,-1.33198 c 0,-0.38048 -0.67988,-0.12176 -1.46023,0.55568 l -0.83283,0.723 1.14653,-0.55567 c 0.63059,-0.30562 1.14653,-0.63098 1.14653,-0.72301 z m -12.185905,0.20983 c 0.260893,-0.42214 -0.40274,-0.8404 -0.872634,-0.54999 -0.394532,0.24383 -0.135526,0.87839 0.358532,0.87839 0.171126,0 0.402472,-0.14778 0.514102,-0.3284 z m 1.778954,-0.0244 c 0.275936,-0.44647 -0.191075,-0.44647 -0.881945,0 -0.456031,0.29471 -0.446719,0.34272 0.06737,0.34738 0.328098,0.003 0.694654,-0.15335 0.81457,-0.34738 z m -4.564296,-2.38883 c -0.118252,-0.11825 -0.489036,0.0719 -0.823965,0.42257 -0.582161,0.60951 -0.572699,0.61897 0.215003,0.215 0.45318,-0.23241 0.727213,-0.51932 0.608962,-0.63757 z m 13.040297,0.34029 c -0.10861,-0.10861 -0.39327,-2.2e-4 -0.63257,0.24088 -0.34582,0.3484 -0.3053,0.38893 0.19748,0.19748 0.34792,-0.13248 0.54371,-0.32974 0.43509,-0.43836 z m 14.10178,-0.28262 c -0.38806,-0.29966 -1.16526,-0.7869 -1.72712,-1.08277 -0.92807,-0.4887 -1.00173,-0.48624 -0.80482,0.0269 0.33784,0.88039 -0.32081,0.66358 -0.9634,-0.31713 -0.42453,-0.64792 -0.4587,-0.88332 -0.12876,-0.88714 0.247,-0.003 0.0649,-0.2013 -0.40457,-0.44097 -0.58817,-0.30024 -0.97219,-0.92951 -1.23472,-2.02328 -0.28855,-1.20212 -0.55233,-1.59623 -1.08661,-1.62346 -1.86866,-0.0952 -1.94037,-0.13682 -1.91548,-1.11056 0.022,-0.85967 0.0593,-0.8898 0.32798,-0.26459 0.27316,0.63569 0.30564,0.61388 0.32798,-0.22015 0.0136,-0.50914 -0.38594,-1.6606 -0.88796,-2.5588 -0.72804,-1.30261 -0.86637,-1.90766 -0.68354,-2.98981 0.19332,-1.14423 0.0827,-1.53081 -0.7061,-2.46828 -0.86352,-1.02624 -1.91352,-1.58683 -1.39218,-0.74328 0.22012,0.35617 -0.81285,2.29743 -1.08022,2.03007 -0.0728,-0.0728 0.0709,-0.7234 0.31927,-1.44584 0.47132,-1.37098 0.36905,-3.42196 -0.17062,-3.42196 -0.17201,0 -0.31274,0.32648 -0.31274,0.72552 0,0.67603 -1.66391,5.0325 -3.15877,8.27031 -0.64332,1.39343 -0.64258,1.41259 0.0596,1.52917 0.3911,0.0649 0.88328,-0.0541 1.09374,-0.26458 0.21045,-0.21045 0.60846,-0.38264 0.88445,-0.38264 0.4094,0 0.4197,0.0989 0.0559,0.53724 -0.37131,0.44741 -0.35214,0.50127 0.1147,0.32213 0.30831,-0.11831 0.97385,-0.75694 1.47896,-1.41919 0.50512,-0.66224 1.17814,-1.20407 1.49561,-1.20407 0.44153,0 0.34632,0.241 -0.40501,1.02522 -1.16389,1.21484 -1.03629,2.01839 0.501,3.15495 0.63843,0.47202 1.05478,1.09952 1.05478,1.58973 0,0.85994 1.01519,1.96901 2.46944,2.6978 0.60941,0.3054 0.45976,0.0709 -0.48428,-0.75872 -1.22791,-1.07914 -1.30827,-1.2488 -0.79375,-1.67582 0.49683,-0.41233 0.57248,-0.37841 0.57248,0.25669 0,0.46735 0.55834,1.11596 1.54505,1.79483 1.35057,0.92922 2.02225,1.73621 2.12865,2.55745 0.0635,0.49023 0.54267,0.70411 2.20084,0.98235 2.4448,0.41025 2.49018,0.40501 1.71018,-0.19731 z m -13.75275,-11.25078 c 0.28542,-1.78441 0.87636,-2.47215 0.87636,-1.01993 0,0.5838 -0.24797,1.36962 -0.55104,1.74625 -0.51595,0.64119 -0.53666,0.59495 -0.32532,-0.72632 z m 1.25393,-0.42016 c -0.0136,-0.42511 0.13396,-0.87104 0.32799,-0.99096 0.41726,-0.25788 0.41726,0.0873 0,1.05834 -0.29231,0.68024 -0.30408,0.67782 -0.32799,-0.0674 z m 1.67864,-2.22568 c -0.13598,-1.42586 0.15781,-1.88001 0.55188,-0.85309 0.32154,0.83792 0.25754,2.2642 -0.10159,2.2642 -0.17365,0 -0.37628,-0.635 -0.45029,-1.41111 z m -17.517448,11.10547 c -0.504046,-1.10626 -0.510078,-1.22769 -0.06099,-1.22769 0.194028,0 0.352777,0.23813 0.352777,0.52917 0,0.67308 0.246008,0.64879 1.763889,-0.17413 2.726569,-1.47822 2.891331,-1.5133 5.064352,-1.07829 1.13616,0.22744 2.14323,0.33604 2.23794,0.24133 0.18627,-0.18628 -2.20294,-0.91686 -3.068959,-0.93844 -0.403666,-0.0101 -0.366758,-0.13603 0.155621,-0.53114 0.597128,-0.45164 0.608418,-0.51794 0.08819,-0.51794 -1.009958,0 -0.658628,-0.70289 0.373545,-0.74734 0.533583,-0.023 1.110653,-0.0158 1.282393,0.0159 0.63217,0.11675 -0.0614,-3.09935 -0.9179,-4.25659 -0.482635,-0.65207 -0.975383,-1.46339 -1.095001,-1.80294 -0.26832,-0.76165 -1.569341,-0.80174 -2.933333,-0.0904 -0.555755,0.28984 -1.566089,0.5304 -2.245186,0.53456 -1.789994,0.011 -2.190097,0.41292 -2.327283,2.33795 -0.06725,0.94367 -0.207029,2.30501 -0.310618,3.0252 -0.153138,1.06466 -0.05608,1.38021 0.519223,1.6881 0.849291,0.45453 0.929601,1.05941 0.140657,1.05941 -0.400878,0 -0.492992,0.18081 -0.314519,0.61737 0.138816,0.33954 0.406642,1.15233 0.595171,1.80618 0.247918,0.85983 0.449463,1.08214 0.728282,0.80332 0.27882,-0.27882 0.270999,-0.63681 -0.02826,-1.29362 z m 3.302822,-3.19432 c -0.131316,-0.40256 -0.783143,-0.92877 -1.448504,-1.16937 -0.665362,-0.24059 -1.209749,-0.6653 -1.209749,-0.94378 0,-0.64963 0.333648,-0.63779 1.735645,0.0616 1.247531,0.62235 1.587963,1.17143 1.330195,2.14547 -0.152926,0.57787 -0.191323,0.56902 -0.407587,-0.0939 z m -3.300057,-4.05307 c -0.255978,-0.41348 -0.372395,-0.8448 -0.258704,-0.9585 0.34081,-0.34081 0.975874,0.50938 0.845397,1.13177 -0.101562,0.48446 -0.196938,0.45629 -0.586693,-0.17327 z m 9.814033,4.07942 c 0,-0.29104 -0.0624,-0.52916 -0.13865,-0.52916 -0.0763,0 -0.23002,0.23812 -0.3417,0.52916 -0.11169,0.29104 -0.0493,0.52917 0.13864,0.52917 0.18794,0 0.34171,-0.23813 0.34171,-0.52917 z m 2.26761,-1.98145 c -0.12188,-0.1972 -0.25062,-0.3083 -0.2861,-0.24688 -0.0355,0.0614 -0.29739,0.41547 -0.58203,0.78678 -0.4879,0.63646 -0.47152,0.6506 0.28609,0.24689 0.442,-0.23553 0.70392,-0.58958 0.58204,-0.78679 z m -1.82528,-0.75775 c 0.28791,-0.43941 0.63337,-1.29927 0.76768,-1.91081 0.13432,-0.61153 0.46432,-1.19634 0.73333,-1.29957 0.45478,-0.17452 1.35854,-2.58645 1.39499,-3.72291 0.009,-0.27514 0.2535,-0.57871 0.54372,-0.67459 0.65597,-0.21671 1.38348,-1.13777 1.39839,-1.77044 0.009,-0.36027 -0.79925,-2.4342 -1.22061,-3.13398 -0.0272,-0.0451 -0.55488,0.10873 -1.17268,0.34192 -1.35211,0.51037 -1.42347,1.04979 -0.24132,1.82436 0.48507,0.31783 0.88195,0.81709 0.88195,1.10947 0,0.41577 -0.24162,0.35635 -1.10889,-0.27271 -0.68372,-0.49593 -1.16201,-0.65442 -1.24744,-0.41337 -0.367,1.03547 -1.03193,1.52848 -1.78881,1.32629 -1.07766,-0.28786 -1.01351,-0.95955 0.0718,-0.75208 0.71097,0.13591 0.93151,-0.0237 1.23472,-0.89346 0.20303,-0.58241 0.36914,-1.11053 0.36914,-1.17361 0,-0.34835 -2.23903,-1.19114 -3.16449,-1.19114 -1.239052,0 -4.004082,1.60124 -3.803603,2.20268 0.07348,0.22044 0.810261,0.43559 1.637285,0.47809 1.719738,0.0884 2.110818,0.32755 1.513098,0.92528 -0.323876,0.32386 -0.760093,0.31073 -1.916768,-0.0577 -2.105304,-0.67061 -4.513292,-0.60766 -4.925414,0.12876 -0.270937,0.48414 -0.67606,0.54603 -2.341095,0.35765 -1.107405,-0.12528 -4.041229,-0.0445 -6.519609,0.17955 -5.011221,0.453 -6.024313,0.32579 -5.693987,-0.71498 0.158152,-0.49829 0.04559,-0.67675 -0.42623,-0.67578 -0.661213,0.001 -2.934189,1.24221 -2.934189,1.60182 0,0.11131 0.133504,0.11988 0.296677,0.019 0.163172,-0.10084 0.644174,0.28666 1.068894,0.86113 0.740396,1.00144 2.514984,1.50055 2.514984,0.70735 0,-0.18833 0.614116,-0.12046 1.39136,0.15377 1.202658,0.42432 1.365069,0.42239 1.197507,-0.0143 -0.153655,-0.40042 0.05161,-0.46019 0.98989,-0.28823 0.651059,0.11933 1.618892,0.42333 2.150741,0.67558 0.644622,0.30573 1.041801,0.33759 1.191377,0.0956 0.294343,-0.47626 2.637083,-0.0911 3.016552,0.49596 0.236726,0.36622 0.352375,0.36161 0.601042,-0.0239 0.240127,-0.3723 0.473117,-0.38898 1.058333,-0.0758 0.458605,0.24544 0.75042,0.26604 0.75042,0.053 0,-0.4366 1.909123,-1.30389 3.482599,-1.5821 1.019752,-0.1803 1.12799,-0.13615 0.758302,0.30929 -0.237183,0.28579 -0.96526,0.6198 -1.617947,0.74225 -0.652688,0.12244 -1.354701,0.42505 -1.56003,0.67245 -0.296751,0.35756 -0.02798,0.41281 1.310348,0.26932 0.92602,-0.0993 1.951048,-0.31831 2.277841,-0.48673 0.790945,-0.40764 4.168332,-0.39374 4.168332,0.0172 0,0.17786 -0.16123,0.37712 -0.358287,0.4428 -0.541706,0.18057 0.652887,1.6986 1.628617,2.06957 0.56481,0.21475 0.83809,0.58872 0.82155,1.12427 -0.0238,0.76887 -0.0388,0.77293 -0.35953,0.0969 -0.2602,-0.54848 -0.29395,-0.44049 -0.15159,0.48507 0.10072,0.65484 0.18313,1.40891 0.18313,1.6757 0,0.73492 0.56125,0.58146 1.14789,-0.31386 z m 0.26322,-3.83649 c 0,-0.22114 -0.27756,-0.60504 -0.6168,-0.8531 -0.77231,-0.56473 -0.48385,-0.89875 0.54401,-0.62996 0.52796,0.13806 0.77835,0.47402 0.77835,1.04434 0,0.46244 -0.15875,0.8408 -0.35278,0.8408 -0.19403,0 -0.35278,-0.18094 -0.35278,-0.40208 z m 0.50214,-3.21389 c 0.13174,-0.82462 0.41083,-1.65806 0.6202,-1.85208 0.27005,-0.25028 0.31719,0.0572 0.16221,1.05833 -0.12015,0.77611 -0.2202,1.60955 -0.22233,1.85208 -0.002,0.24254 -0.18292,0.44097 -0.40175,0.44097 -0.27047,0 -0.32116,-0.48008 -0.15833,-1.4993 z m -6.146586,-0.24376 c 0,-0.59354 0.15875,-1.07916 0.352778,-1.07916 0.194028,0 0.352778,0.38751 0.352778,0.86113 0,0.47362 -0.15875,0.95923 -0.352778,1.07915 -0.205819,0.1272 -0.352778,-0.23152 -0.352778,-0.86112 z m -11.802989,0.35633 c -0.11163,-0.18062 -0.0402,-0.42899 0.158726,-0.55194 0.463866,-0.28668 1.766486,0.11988 1.766486,0.55134 0,0.42814 -1.660656,0.42866 -1.925212,6e-4 z m 19.952595,-5.7212 c 1.38215,-0.4141 1.5442,-1.00595 0.27543,-1.00595 -0.41056,0 -0.60819,-0.15756 -0.47267,-0.37683 0.12809,-0.20726 0.47508,-0.28389 0.77109,-0.1703 0.29601,0.11358 0.74925,0.0314 1.0072,-0.18271 0.25795,-0.21408 0.60259,-0.30667 0.76588,-0.20576 0.16328,0.10092 0.5261,0.0418 0.80625,-0.13132 0.68123,-0.42103 0.17809,-0.82607 -1.68383,-1.35549 -0.82145,-0.23358 -1.66339,-0.74205 -1.87098,-1.12992 -0.3494,-0.65286 -0.46296,-0.57988 -1.52901,0.98257 -1.63488,2.39616 -1.73534,2.81074 -0.83402,3.44205 0.92199,0.64578 1.03682,0.65133 2.76466,0.13366 z m -1.7996,-1.9779 c 0,-0.19402 0.23812,-0.5504 0.52917,-0.79194 0.29518,-0.24498 0.52916,-0.28318 0.52916,-0.0864 0,0.19402 -0.23812,0.5504 -0.52916,0.79194 -0.29519,0.24498 -0.52917,0.28318 -0.52917,0.0864 z m 10.76049,-0.0268 c -0.0951,-0.0951 -0.50321,0.12615 -0.907,0.49158 -0.73025,0.66086 -0.73297,0.65881 -0.50906,-0.38434 0.18558,-0.86464 0.15549,-0.93912 -0.17145,-0.42427 -0.21811,0.34346 -0.2925,0.95235 -0.16532,1.35308 0.23058,0.72646 0.23375,0.72626 1.07846,-0.0673 0.46597,-0.43775 0.76943,-0.87368 0.67437,-0.96874 z m -1.82268,-1.1179 0.57972,-1.23472 -0.70182,0.83283 c -0.386,0.45806 -0.70182,1.07983 -0.70182,1.38171 0,0.68249 0.0983,0.56552 0.82392,-0.97982 z m -3.7356,-2.07112 c 0.88095,-1.19155 2.36879,-1.59637 3.11705,-0.84811 0.73878,0.73878 1.42145,0.34138 1.68602,-0.98151 0.26381,-1.31903 -0.12747,-1.93144 -1.44531,-2.2622 -0.72076,-0.1809 -1.06941,-0.0582 -1.51564,0.53338 -0.50685,0.67194 -0.67199,0.7106 -1.31636,0.30819 -0.57627,-0.35989 -0.93424,-0.37019 -1.64297,-0.0473 -0.49839,0.22708 -1.40752,0.31261 -2.02028,0.19006 l -1.11411,-0.22283 0.24831,1.55418 c 0.30082,1.88289 0.51028,2.11894 1.9156,2.1589 0.60198,0.0171 1.01124,0.16587 0.90946,0.33056 -0.48539,0.78537 0.52039,0.17643 1.17823,-0.71335 z m -0.5604,-2.16221 c 0,-0.48507 0.0801,-0.68351 0.17794,-0.44098 0.0979,0.24254 0.0979,0.63941 0,0.88195 -0.0979,0.24253 -0.17794,0.0441 -0.17794,-0.44097 z m 6.88071,2.02847 c -0.0979,-0.24254 -0.17793,-0.0441 -0.17793,0.44097 0,0.48507 0.0801,0.68351 0.17793,0.44097 0.0979,-0.24253 0.0979,-0.63941 0,-0.88194 z m -0.57566,-1.45328 c -0.24952,-0.24952 -0.35652,0.0182 -0.34117,0.85356 0.021,1.1436 0.043,1.16555 0.36353,0.36353 0.22592,-0.5652 0.21836,-0.97637 -0.0224,-1.21709 z m -4.77325,-3.04464 c -0.11992,-0.19403 -0.36741,-0.35278 -0.54999,-0.35278 -0.18257,0 -0.33195,0.15875 -0.33195,0.35278 0,0.19403 0.24749,0.35278 0.54998,0.35278 0.3025,0 0.45188,-0.15875 0.33196,-0.35278 z"
       style="fill:#000000;stroke-width:0.35277778" />
  </g>
</svg>
