<?xml version="1.0" encoding="UTF-8" standalone="no"?>
<!-- Created with Inkscape (http://www.inkscape.org/) -->

<svg
   xmlns:dc="http://purl.org/dc/elements/1.1/"
   xmlns:cc="http://creativecommons.org/ns#"
   xmlns:rdf="http://www.w3.org/1999/02/22-rdf-syntax-ns#"
   xmlns:svg="http://www.w3.org/2000/svg"
   xmlns="http://www.w3.org/2000/svg"
   xmlns:sodipodi="http://sodipodi.sourceforge.net/DTD/sodipodi-0.dtd"
   xmlns:inkscape="http://www.inkscape.org/namespaces/inkscape"
   width="343.22141mm"
   height="87.442833mm"
   viewBox="0 0 343.22142 87.442827"
   version="1.1"
   id="svg8"
   inkscape:version="0.92.2 5c3e80d, 2017-08-06"
   sodipodi:docname="Figure_113.svg">
  <defs
     id="defs2" />
  <sodipodi:namedview
     id="base"
     pagecolor="#ffffff"
     bordercolor="#666666"
     borderopacity="1.0"
     inkscape:pageopacity="0.0"
     inkscape:pageshadow="2"
     inkscape:zoom="0.98994949"
     inkscape:cx="519.68369"
     inkscape:cy="157.27451"
     inkscape:document-units="mm"
     inkscape:current-layer="layer1"
     showgrid="false"
     fit-margin-top="0"
     fit-margin-left="0"
     fit-margin-right="0"
     fit-margin-bottom="0"
     inkscape:window-width="1440"
     inkscape:window-height="807"
     inkscape:window-x="0"
     inkscape:window-y="1"
     inkscape:window-maximized="1" />
  <metadata
     id="metadata5">
    <rdf:RDF>
      <cc:Work
         rdf:about="">
        <dc:format>image/svg+xml</dc:format>
        <dc:type
           rdf:resource="http://purl.org/dc/dcmitype/StillImage" />
        <dc:title></dc:title>
      </cc:Work>
    </rdf:RDF>
  </metadata>
  <g
     inkscape:label="Layer 1"
     inkscape:groupmode="layer"
     id="layer1"
     transform="translate(108.93562,98.748727)">
    <path
       style="fill:#000000;stroke-width:0.35277781"
       d="m 75.952359,-11.582412 c -1.224298,-0.775222 0.707863,-2.108133 4.193562,-2.892954 2.194736,-0.494153 6.266833,-0.467487 9.529784,0.06241 2.549553,0.414038 3.280805,0.365577 10.803235,-0.715955 7.5352,-1.08337 8.4417,-1.143187 13.71302,-0.904868 7.28395,0.329307 9.46807,0.272852 13.73228,-0.354951 3.52053,-0.518315 13.27286,-0.706046 15.3278,-0.29506 0.7684,0.153681 1.10243,0.422646 1.10243,0.887688 0,0.634072 -0.26052,0.656604 -5.2468,0.45382 -4.42745,-0.180054 -5.98375,-0.09285 -9.96597,0.558458 -3.47629,0.568558 -5.92702,0.749582 -9.30529,0.687335 -11.12628,-0.205006 -14.82412,-0.07774 -19.40278,0.667815 -2.522362,0.410715 -5.14069,0.907976 -5.818507,1.105024 -1.869902,0.543592 -3.742542,0.434509 -6.67717,-0.388948 -3.330384,-0.934509 -6.092776,-0.770668 -8.91297,0.528637 -2.217057,1.021426 -2.364066,1.050209 -3.072624,0.601553 z m -126.331242,-7.799673 c -4.180272,-0.975784 -8.780114,-1.480852 -11.609238,-1.274706 -1.66707,0.121472 -3.25261,0.079 -3.52342,-0.09438 -0.6982,-0.447012 -0.22912,-1.38533 0.92431,-1.848919 1.29887,-0.522048 9.504412,-0.485591 10.143815,0.04506 0.265183,0.220087 2.359752,0.771564 4.654593,1.225504 4.395844,0.869541 4.39408,0.869594 10.169663,-0.298633 1.552223,-0.313969 4.016474,-0.808288 5.476117,-1.098487 4.353218,-0.865494 11.774947,-0.706822 16.572496,0.354305 2.610055,0.577297 5.075866,0.881945 7.138392,0.881945 2.3633641,0 3.1142341,0.110183 3.0040231,0.44081 -0.347197,1.041597 -4.8702001,1.092599 -9.0840821,0.102432 -5.224597,-1.227656 -6.783285,-1.347971 -11.838168,-0.913761 -2.705326,0.232382 -6.188777,0.721483 -7.741,1.086891 -1.552222,0.365403 -3.86424,0.90933 -5.137817,1.208722 -2.444369,0.574622 -7.075601,0.667357 -9.149684,0.183212 z m 109.36112,-3.880782 c -1.067153,-0.128227 -3.166206,-0.662608 -4.664562,-1.187517 -1.498354,-0.524908 -3.562104,-1.104614 -4.586112,-1.288231 -1.024004,-0.183621 -2.635151,-0.492316 -3.580324,-0.685991 -1.747781,-0.358136 -2.059224,-0.334433 -11.843555,0.901376 -4.822854,0.609152 -9.368505,0.426286 -9.368505,-0.376883 0,-0.20495 1.847839,-0.442504 4.409722,-0.566897 2.425348,-0.117764 5.759098,-0.403701 7.408334,-0.635416 7.084773,-0.995387 11.664821,-0.676691 17.521563,1.219218 4.162923,1.347593 6.195195,1.565631 14.501779,1.55587 4.363752,-0.0051 8.021525,0.07811 8.128385,0.184968 0.627966,0.627966 -1.293022,0.856181 -8.225336,0.977177 -4.268611,0.0745 -8.634236,0.03055 -9.701389,-0.09767 z m 148.325553,-0.746502 c -4.96725,-0.289225 -8.49636,-0.838945 -11.17158,-1.740158 -1.16423,-0.392204 -3.32984,-0.769098 -4.81246,-0.83754 -1.48262,-0.06845 -3.72754,-0.318555 -4.98872,-0.555794 -1.51401,-0.284801 -5.34933,-0.403712 -11.28889,-0.350009 -20.57537,0.186045 -26.65175,0.0808 -27.90932,-0.483404 -0.32628,-0.146382 -1.68076,0.13638 -3.175,0.66282 -2.47288,0.871223 -2.75911,0.898468 -5.60458,0.533492 -1.64923,-0.211544 -3.63438,-0.546414 -4.41143,-0.744157 -0.96981,-0.2468 -2.07598,-0.242556 -3.52777,0.01355 -8.5213,1.503115 -10.63824,1.771971 -14.00755,1.778991 -2.49595,0.0052 -4.77134,-0.221527 -6.70278,-0.667886 -1.60824,-0.371665 -5.06721,-0.863568 -7.68658,-1.093117 -2.619376,-0.229549 -4.856217,-0.474786 -4.970757,-0.544971 -0.344149,-0.210887 -15.25753,-2.019039 -16.019523,-1.942268 -3.624101,0.365136 -5.651504,-0.366719 -9.396491,-3.391948 -2.879052,-2.325719 -4.42733,-2.800762 -10.182678,-3.124249 -7.118495,-0.400107 -9.004738,-0.346089 -15.698612,0.449548 -6.486966,0.771049 -8.269295,0.736159 -12.700001,-0.248616 -5.651292,-1.256062 -15.221187,-2.332684 -20.284724,-2.282042 -2.080401,0.02081 -7.5612199,1.103619 -9.6977519,1.915925 -0.470048,0.17871 -2.17128096,0.544495 -3.78052196,0.81285 -3.27282904,0.545775 -6.66471404,0.338232 -9.80506114,-0.599955 -2.118833,-0.633004 -6.443917,-1.428567 -9.573892,-1.761035 -2.236396,-0.237565 -5.929722,-1.860462 -11.592776,-5.094031 -4.059739,-2.318085 -6.888812,-4.208928 -11.641668,-7.780838 -4.830431,-3.630211 -5.389189,-3.920067 -7.556687,-3.920067 -1.185997,0 -2.900949,0.351589 -4.462502,0.914873 -3.773622,1.361221 -8.028105,1.90543 -11.824015,1.512464 -1.72937,-0.179031 -3.53232,-0.491564 -4.00657,-0.694524 -0.47425,-0.20296 -2.45863,-0.456978 -4.40972,-0.564487 -3.11246,-0.171503 -3.95841,-0.08212 -6.89884,0.728962 -3.79201,1.045969 -7.24825,1.213341 -8.31105,0.40247 -0.59272,-0.452218 -0.61364,-0.570067 -0.15562,-0.87654 0.29104,-0.194743 1.40229,-0.359805 2.46945,-0.366797 1.06715,-0.007 3.84527,-0.326887 6.17361,-0.710875 5.26432,-0.868186 9.75835,-0.910805 11.86189,-0.112494 1.16829,0.443375 2.78755,0.590963 6.65894,0.606937 4.707652,0.0194 5.326121,-0.05518 7.761113,-0.936153 1.455209,-0.526485 3.332163,-0.958356 4.171005,-0.959711 1.263058,-0.0021 1.504248,-0.10856 1.403407,-0.61982 -0.09523,-0.482832 -0.504455,-0.625143 -1.877949,-0.653072 -0.965903,-0.01965 -2.073685,-0.152164 -2.46174,-0.294492 -2.161287,-0.792706 -3.457064,-1.455801 -4.155106,-2.126312 -1.08541,-1.042596 -4.07432,-3.152172 -5.48238,-3.869461 -1.40461,-0.715532 -3.21418,-2.62619 -3.22856,-3.408931 -0.006,-0.309477 -0.32784,-0.850019 -0.7159,-1.201204 -0.89446,-0.809477 -0.89744,-1.657274 -0.009,-2.461623 0.69672,-0.630527 2.39926,-0.626439 4.50656,0.01082 0.59481,0.179874 0.79375,0.09709 0.79375,-0.330276 0,-0.714846 1.33746,-0.759031 2.31208,-0.07638 0.38785,0.27166 1.615989,0.607726 2.7292,0.746812 1.113212,0.139087 2.379367,0.532398 2.813675,0.874024 1.291315,1.015751 4.346046,1.48081 7.133622,1.086041 1.342023,-0.190054 3.082664,-0.26866 3.868092,-0.174682 0.785428,0.09398 4.285552,0.340478 7.778052,0.547774 9.818241,0.582758 12.125422,0.796506 15.484614,1.434566 1.5543,0.295229 2.889924,0.289959 5.291667,-0.02088 1.766934,-0.228679 3.969908,-0.469605 4.895494,-0.535393 1.5642671,-0.111182 1.7600121,-0.236052 2.7770671,-1.771525 1.16113,-1.752973 3.160201,-3.033438 4.735848,-3.033438 0.513497,0 2.33862404,-0.257047 4.05583704,-0.571216 1.71721696,-0.314168 3.49148496,-0.478534 3.94281396,-0.365257 0.451334,0.113278 2.447008,1.828956 4.434837,3.81262 l 3.6142259,3.60666 2.099618,0.151874 c 2.095133,0.151547 2.103649,0.148202 3.98719,-1.56571 2.341869,-2.130968 6.019169,-3.99322 8.041714,-4.072471 l 1.502873,-0.05889 -1.387451,-0.618137 c -3.716055,-1.655576 -4.743584,-2.03645 -7.031899,-2.60652 -1.902037,-0.47384 -3.157075,-0.559709 -5.462125,-0.373718 -1.645977,0.132812 -3.172288,0.390536 -3.391807,0.57272 -0.21952,0.182185 -0.936565,0.308752 -1.5934309,0.281261 -0.656868,-0.02749 -2.95178,0.04977 -5.099809,0.171696 -4.74116396,0.269114 -13.167724,-0.244285 -14.312276,-0.871994 -2.7923641,-1.531422 -13.1796131,-1.156355 -21.1169451,0.762498 -0.873125,0.211078 -2.620906,0.584578 -3.883956,0.829999 -1.263047,0.245421 -2.658495,0.639979 -3.100991,0.876796 -0.674166,0.360803 -0.988029,0.318751 -1.936877,-0.259507 -1.220485,-0.743798 -5.048776,-1.819372 -6.475696,-1.819372 -0.482152,0 -1.205455,-0.175975 -1.60734,-0.391057 -0.831409,-0.444957 -5.748804,-0.438278 -7.865975,0.01068 -1.281822,0.271819 -1.176771,0.302953 1.146528,0.339805 2.106179,0.03341 2.557639,0.141485 2.557639,0.612284 0,0.511602 -0.510025,0.545214 -4.850695,0.31967 -3.614014,-0.187785 -4.752584,-0.149993 -4.465884,0.148236 0.21165,0.220154 1.759461,0.587728 3.439583,0.816831 2.918079,0.397911 3.773001,0.763803 2.437413,1.043171 -0.339549,0.07102 -1.887362,-0.07291 -3.439584,-0.319858 -1.552222,-0.246946 -3.343142,-0.452166 -3.979822,-0.456045 -1.61384,-0.0098 -1.87515,-0.905909 -0.56902,-1.951269 0.80463,-0.643984 1.76883,-0.900182 4.548842,-1.208678 1.940278,-0.21531 4.902077,-0.547413 6.581772,-0.738007 2.413293,-0.273833 3.583108,-0.235231 5.57608,0.184003 3.218798,0.677096 6.038977,1.573281 6.71576,2.13411 0.42229,0.349937 0.8498,0.345921 2.116667,-0.01988 1.448647,-0.418291 4.05825,-0.970701 11.735122,-2.484133 1.592944,-0.314036 4.914647,-0.561309 7.937501,-0.590882 4.507283,-0.04409 5.620223,0.06345 8.3732131,0.80911 2.925974,0.792513 3.783736,0.858641 10.93611204,0.843099 4.83725696,-0.01051 8.89078396,-0.200414 10.75972286,-0.504079 5.030978,-0.817435 7.89432,-0.500642 14.640279,1.619761 1.552222,0.487898 3.774722,1.183723 4.938889,1.54628 1.164167,0.362556 3.026978,0.760276 4.13958,0.883821 1.112601,0.123545 2.114158,0.372268 2.225678,0.552716 0.111524,0.180451 0.594805,0.32809 1.073955,0.32809 0.479153,0 1.779471,0.4491 2.889599,0.998001 1.110125,0.5489 3.367787,1.274596 5.017023,1.612658 4.616386,0.94627 5.64848,1.263595 7.109407,2.185835 2.730377,1.723612 5.896709,2.909612 10.189804,3.816756 2.418143,0.51096 6.076343,1.322006 8.129337,1.802327 4.928906,1.153175 5.174087,1.141078 5.53779,-0.273215 0.254515,-0.989701 0.548524,-1.228669 2.149443,-1.747044 1.020029,-0.330285 3.392202,-0.769539 5.271496,-0.976122 1.879289,-0.206583 4.349598,-0.542255 5.489572,-0.745938 2.111974,-0.37736 4.642517,-0.168416 5.001849,0.412993 0.109481,0.177148 0.763387,0.322083 1.45312,0.322083 0.689737,0 1.831305,0.305198 2.536822,0.678222 1.374156,0.726553 4.698096,1.953479 8.691086,3.208038 1.91017,0.60016 3.86762,0.84116 8.64306,1.064129 3.39548,0.158535 7.52298,0.524334 9.17222,0.812882 2.89542,0.506578 7.71697,2.308024 12.10213,4.521644 1.80028,0.908777 2.71998,1.107267 6.58893,1.422023 3.87946,0.315612 4.85421,0.282942 7.10208,-0.23803 1.50855,-0.349627 4.84431,-0.683602 7.92329,-0.793277 4.82456,-0.171859 5.56081,-0.115852 7.9375,0.6038 2.50658,0.75898 11.14064,4.014982 13.73219,5.178563 3.06166,1.374662 8.98137,2.365943 10.75972,1.801763 0.58208,-0.184665 1.9887,-0.815449 3.12582,-1.401738 1.67401,-0.86311 2.36492,-1.032457 3.63029,-0.889832 2.03743,0.229647 2.69047,0.872303 4.36601,4.296614 1.71899,3.513096 2.4976,4.78813 3.59258,5.883106 1.14904,1.14904 3.67079,3.132649 3.98252,3.132649 0.31125,0 3.13118,2.188239 3.29259,2.555015 0.0647,0.146963 0.34892,0.267208 0.63165,0.267208 0.28273,0 0.96715,0.33499 1.52094,0.744424 0.90834,0.671562 0.99891,0.924694 0.92531,2.586239 -0.0449,1.012998 -0.19766,2.02965 -0.33955,2.259228 -0.50377,0.815117 -2.94087,1.784674 -4.30822,1.713953 -0.75347,-0.03897 -3.12407,-0.172988 -5.26801,-0.297822 z m 7.16303,-2.155328 c -0.0799,-0.242535 -0.49036,-0.491751 -0.91219,-0.553815 -0.42183,-0.06206 -1.17076,-0.642246 -1.66429,-1.289301 -1.06834,-1.400665 -3.90249,-2.811014 -6.28872,-3.129438 -2.31178,-0.30849 -5.1542,-1.980756 -8.25625,-4.857348 -2.7938,-2.590741 -4.51057,-3.430606 -5.7054,-2.79115 -0.39756,0.212767 -0.72283,0.624371 -0.72283,0.914675 0,0.290305 -0.26328,0.628855 -0.58507,0.752338 -0.49517,0.190013 -0.43391,0.345034 0.39868,1.008919 0.95926,0.764883 0.96504,0.790346 0.23229,1.022911 -0.4133,0.131177 -0.75146,0.37586 -0.75146,0.543737 0,0.694679 -1.42434,0.717659 -2.36875,0.03822 -0.792,-0.569796 -1.70125,-0.735884 -4.6868,-0.85611 -2.07476,-0.08355 -5.10081,-0.487021 -6.87917,-0.917212 -3.44634,-0.833688 -8.39645,-2.320523 -9.525,-2.860972 -2.57858,-1.234845 -3.65827,-1.356472 -10.47592,-1.180105 -7.26445,0.187929 -7.87319,0.258953 -7.49292,0.874244 0.78028,1.262507 -2.70168,1.321929 -8.17094,0.139439 -2.24354,-0.48507 -4.88149,-0.881945 -5.8621,-0.881945 -1.75032,0 -2.74351,-0.194391 -6.62729,-1.297107 -4.40519,-1.25076 -5.72451,-1.772067 -11.21652,-4.432011 -3.16165,-1.531285 -6.09852,-2.862044 -6.52639,-2.957245 -0.42786,-0.0952 -3.15918,-0.48121 -6.06959,-0.857793 -2.91042,-0.376587 -6.323547,-0.859984 -7.584728,-1.074219 -2.803038,-0.476151 -4.409723,-0.33485 -4.409723,0.387819 0,0.291042 -0.3175,0.576323 -0.705555,0.633952 -0.388056,0.05763 -1.181806,0.844289 -1.763889,1.74812 -0.582084,0.903835 -1.886197,2.213709 -2.898031,2.910837 -1.01183,0.697128 -2.427351,1.855159 -3.1456,2.573408 -0.718248,0.718248 -1.436067,1.305906 -1.595155,1.305906 -0.371193,0 -1.374225,2.351034 -1.546225,3.624234 -0.07269,0.53812 -0.241449,1.155213 -0.375014,1.371321 -0.133561,0.216109 0.116343,0.663854 0.555343,0.994993 0.66916,0.504747 0.734198,0.721628 0.402354,1.341684 -0.326912,0.610842 -0.257433,0.894465 0.399083,1.629036 0.713013,0.797786 1.212886,0.929118 4.851856,1.274735 2.231319,0.211924 5.565069,0.529903 7.408334,0.706624 1.843264,0.176721 5.891389,0.493039 8.99583,0.702927 3.10445,0.209893 6.20007,0.523106 6.87917,0.696034 2.44139,0.62168 11.35523,0.730646 14.32368,0.175098 4.81758,-0.901619 5.57893,-1.093438 6.73728,-1.697432 1.23212,-0.642465 3.28071,-0.794862 3.28071,-0.244052 0,0.716513 1.90378,1.544973 4.52021,1.967036 2.4544,0.395929 2.85545,0.375204 4.22616,-0.218415 0.83293,-0.360723 2.08562,-0.763013 2.78374,-0.893985 0.69813,-0.130969 2.08039,-0.550743 3.07169,-0.932833 2.49076,-0.960042 4.09542,-0.848949 4.09542,0.283538 0,0.329643 -0.37204,0.508346 -1.05833,0.508346 -0.58208,0 -1.05833,0.135925 -1.05833,0.302055 0,0.53733 5.69068,0.937317 10.75972,0.756278 6.32643,-0.225943 24.14087,-0.168677 28.04584,0.09016 3.60596,0.239018 3.92491,0.299897 9.525,1.818058 4.09393,1.109846 4.80972,1.198012 9.99537,1.231121 4.32324,0.02759 5.55282,-0.064 5.44042,-0.405307 z m -1.80694,-4.704359 c -1.08471,-1.050621 -2.18648,-1.910224 -2.44838,-1.910224 -0.49985,0 -3.54345,-1.897476 -4.51627,-2.81558 -0.87845,-0.829049 -2.85694,-3.844678 -4.02262,-6.131295 -0.57975,-1.137236 -1.43268,-2.367549 -1.89541,-2.734028 -1.08805,-0.861727 -2.74061,-0.84575 -4.19428,0.04055 -0.647,0.394473 -1.77686,0.704236 -2.56871,0.704236 -0.972,0 -1.48151,0.176819 -1.63084,0.565962 -0.21372,0.556944 -0.81926,0.546932 -3.81762,-0.06313 -0.38806,-0.07896 -1.50001,-0.270309 -2.47101,-0.425225 -0.971,-0.154919 -1.98696,-0.418567 -2.25769,-0.585886 -0.27073,-0.167322 -1.06378,-0.35482 -1.76233,-0.416666 -0.69855,-0.06185 -1.58758,-0.262883 -1.97564,-0.446751 -0.38806,-0.183867 -2.53118,-0.999204 -4.7625,-1.811863 -2.23132,-0.812655 -5.00944,-1.922162 -6.17361,-2.465571 -3.50757,-1.637252 -4.61695,-1.839281 -9.00543,-1.639968 -4.37953,0.198906 -6.65903,0.501981 -7.23578,0.962046 -0.20141,0.160662 -2.18628,0.400928 -4.41082,0.533925 -5.76683,0.344774 -10.89095,-0.642129 -13.69281,-2.637229 -1.67959,-1.195973 -6.27997,-3.062337 -8.34128,-3.384038 -0.97014,-0.151406 -3.70514,-0.253944 -6.0778,-0.227863 -6.49471,0.0714 -10.00273,-0.591817 -16.8116,-3.178327 -3.317504,-1.260228 -3.613682,-0.64328 -0.65851,1.371706 1.11565,0.760716 2.19296,1.687601 2.394,2.059746 0.20105,0.372145 1.03448,1.390932 1.85209,2.263973 0.8176,0.873037 1.48654,1.706474 1.48654,1.852083 0,0.145606 0.30847,0.264739 0.68549,0.264739 0.37701,0 2.10699,0.47625 3.8444,1.058333 1.7374,0.582083 3.35836,1.058333 3.60214,1.058333 0.24377,0 1.49036,0.591323 2.77018,1.314052 5.31912,3.003744 11.6405,5.047802 17.6728,5.714612 1.84326,0.203757 3.90596,0.531287 4.58378,0.727844 1.53489,0.445103 3.3853,0.459705 4.18259,0.03302 0.33335,-0.178403 3.22011,-0.365989 6.415,-0.416853 3.1949,-0.05087 7.34014,-0.234082 9.21164,-0.407151 3.12218,-0.288728 3.5231,-0.253263 4.86274,0.430166 0.803,0.409664 2.72467,1.211139 4.27037,1.781059 2.21734,0.817555 3.00128,0.96363 3.71509,0.692238 2.59042,-0.984874 11.76313,0.294277 12.67354,1.76735 0.12173,0.196966 0.92136,0.358122 1.77694,0.358122 1.2643,0 1.51607,-0.103039 1.34447,-0.550227 -0.28415,-0.740477 1.43495,-2.49469 2.69091,-2.745881 1.67514,-0.335026 3.50628,0.440891 5.77462,2.446909 2.09549,1.853156 2.61502,2.286141 5.05622,4.214004 0.61469,0.485437 2.28169,1.180331 3.70445,1.544208 3.43195,0.87775 6.23792,2.130926 6.48014,2.894115 0.2104,0.662894 1.31416,1.066627 1.52539,0.557956 0.0702,-0.169012 -0.75988,-1.1669 -1.84459,-2.217526 z m -10.31096,-3.980557 c -2.28889,-1.499553 -3.8605,-3.071319 -5.02638,-5.026861 -0.85889,-1.440629 -0.94578,-2.341746 -0.35155,-3.645931 0.77929,-1.710372 1.60968,-0.917039 1.4077,1.344895 -0.0608,0.681394 1.81693,3.085709 2.66329,3.410081 0.26615,0.102005 0.83675,0.895755 1.26801,1.763889 0.47358,0.953332 1.0623,1.621553 1.4866,1.687329 0.38637,0.05989 0.98772,0.496457 1.33632,0.970139 0.61304,0.832986 0.61194,0.861236 -0.0335,0.861236 -0.36704,0 -1.60476,-0.614151 -2.7505,-1.364777 z m -126.437349,1.722289 c 0,-0.305576 -2.186439,-1.418858 -2.777109,-1.414039 -0.191029,0.0014 2.449622,1.721199 2.688915,1.751072 0.04851,0.0061 0.08819,-0.145609 0.08819,-0.337033 z m 0.352778,-1.592234 c -1.996214,-1.405661 -3.175,-1.932228 -3.175,-1.41828 0,0.09307 0.674688,0.511764 1.499306,0.93043 0.824618,0.41867 1.877903,1.056898 2.340631,1.418284 0.462728,0.361385 1.009668,0.657066 1.215418,0.657066 0.205751,0 -0.640408,-0.714375 -1.880355,-1.5875 z m 1.234723,-1.06927 c -0.582084,-0.477125 -1.217084,-0.867505 -1.411112,-0.867505 -0.194027,0 0.123473,0.39038 0.705556,0.867505 0.582083,0.477129 1.217083,0.867506 1.411111,0.867506 0.194028,0 -0.123472,-0.390377 -0.705555,-0.867506 z m -5.932958,-3.369186 c 0.03754,-1.245376 0.296133,-4.089947 0.574658,-6.321267 0.511182,-4.095136 1.164766,-5.979865 3.241894,-9.348611 1.479663,-2.399757 1.523009,-2.367058 -5.027345,-3.792771 -3.249966,-0.707368 -6.702778,-1.388212 -7.672917,-1.512986 -2.659469,-0.342046 -7.56526,-1.971322 -8.670834,-2.879697 -0.306321,-0.251682 -0.721473,-0.457602 -0.922564,-0.457602 -0.20109,0 -0.816342,-0.354538 -1.367225,-0.787866 -0.996001,-0.783452 -4.817601,-1.970352 -6.501878,-2.019331 -0.949604,-0.02762 -2.891131,-0.660474 -4.098809,-1.336045 -0.411082,-0.229957 -1.681082,-0.776804 -2.822223,-1.215216 -1.816746,-0.69797 -2.732959,-0.798233 -7.36647,-0.806132 l -5.291667,-0.009 -1.857382,1.146528 c -1.021563,0.63059 -1.986076,1.146528 -2.143369,1.146528 -0.157289,0 -0.662679,0.400973 -1.123082,0.891053 -0.889219,0.946527 -2.615611,1.931169 -3.385961,1.931169 -0.277509,0 -0.378111,0.223555 -0.250381,0.556408 0.182633,0.475936 -0.137862,0.549981 -2.215935,0.511958 -3.482816,-0.06373 -5.0752799,0.270775 -5.0752799,1.066077 0,0.355378 -0.15875,0.744252 -0.352778,0.864168 -0.194028,0.119916 -0.352778,0.509175 -0.352778,0.865022 0,0.797263 -1.013361,1.250159 -1.274512,0.569609 -0.106771,-0.27824 -0.947656,-0.598029 -1.92653,-0.732656 -0.955382,-0.131399 -1.824736,-0.380771 -1.931896,-0.554161 -0.107163,-0.173391 -0.754253,-0.243636 -1.437979,-0.156094 -1.076864,0.137873 -1.42110096,-0.0224 -2.57367196,-1.198252 -0.731796,-0.746577 -1.67238204,-1.465908 -2.09019504,-1.598517 -0.417816,-0.132609 -0.759661,-0.36225 -0.759661,-0.510311 0,-0.148061 -0.714375,-0.782228 -1.5875,-1.409259 -0.873125,-0.627029 -1.5875,-1.309286 -1.5875,-1.516124 0,-0.206839 0.515937,0.03694 1.146528,0.541722 2.188182,1.751631 6.285276,4.464299 6.742684,4.464299 1.057829,0 0.78504,-0.498197 -0.88999096,-1.62541 -0.978151,-0.658248 -1.93185004,-1.196813 -2.11933004,-1.196813 -0.423027,0 -4.218683,-3.248246 -4.023604,-3.443322 0.192433,-0.192434 1.630518,0.5707 2.495102,1.324051 0.388056,0.33813 1.181806,0.889626 1.763889,1.225548 0.78533604,0.453217 0.62608904,0.210089 -0.617361,-0.942539 -0.921632,-0.854316 -1.675695,-1.682617 -1.675695,-1.840668 0,-0.320797 2.21476,1.292073 3.43665904,2.502702 0.867111,0.859113 3.79456696,2.938117 4.13717396,2.938117 0.327762,0 -0.838218,-1.09982 -2.987721,-2.818186 -2.231853,-1.784198 -3.986658,-3.543305 -3.760372,-3.769591 0.08554,-0.08554 0.934135,0.561685 1.88576304,1.438282 0.951626,0.876598 2.35802696,2.053102 3.12533696,2.614452 0.767309,0.561354 1.697521,1.36138 2.067143,1.777841 0.726698,0.81879 1.771958,1.034376 1.533219,0.31623 -0.08063,-0.242535 -1.165419,-1.296532 -2.410648,-2.342219 -1.245231,-1.045686 -2.81967796,-2.402378 -3.49877596,-3.01487 -1.80041904,-1.623837 -1.95948304,-1.679792 -3.55433804,-1.250342 -1.396443,0.376023 -3.853996,2.39233 -3.853996,3.162024 0,0.598241 2.970033,3.268778 4.910738,4.415546 1.63538304,0.96635 1.77248304,1.146489 1.57743204,2.072608 -0.137838,0.654467 -0.08447,0.934452 0.150449,0.789266 0.63639,-0.393308 2.13308896,0.55057 2.48816696,1.569142 0.188351,0.540304 0.672503,1.159009 1.075891,1.374898 0.959876,0.513708 0.979953,2.0058 0.03104,2.306973 -0.990935,0.314512 -1.560043,-0.103836 -1.022449,-0.751596 0.344068,-0.414578 0.279464,-0.616092 -0.335647,-1.046932 -0.418959,-0.293444 -0.76173496,-0.822593 -0.76173496,-1.17589 0,-0.353296 -0.255305,-0.854237 -0.567341,-1.113207 -0.482035,-0.400054 -0.641166,-0.369888 -1.058333,0.200621 -0.27004804,0.369309 -0.49099304,0.879252 -0.49099304,1.13321 0,0.253958 -0.15875,0.46174 -0.352778,0.46174 -0.366737,0 -0.478028,-0.448091 -0.37169,-1.496564 0.04246,-0.418649 -0.110007,-0.548488 -0.478173,-0.407208 -0.297278,0.114074 -0.966283,-0.127508 -1.486676,-0.53685 -1.035216,-0.814299 -1.560075,-0.721925 -0.838461,0.147567 0.249326,0.300418 0.36492,0.634619 0.256875,0.742664 -0.285715,0.285711 -1.363423,-0.364458 -2.34684,-1.415828 -0.788674,-0.843163 -0.802404,-0.915211 -0.176389,-0.925555 0.66736,-0.01104 0.667262,-0.02 -0.0059,-0.529166 -1.024195,-0.774658 -1.255497,-0.642606 -1.255497,0.716774 0,0.812158 0.165925,1.234722 0.484826,1.234722 0.489603,0 3.042952,2.15325 3.042952,2.566137 0,0.12264 -0.566946,0.492016 -1.259882,0.820837 -1.092733,0.518534 -1.230482,0.719642 -1.038303,1.515854 0.24711,1.023786 2.050874,2.732511 4.33651,4.10802 1.608329,0.967899 2.33063104,0.934279 3.958898,-0.184274 1.591193,-1.093085 5.771889,-2.411829 8.384272,-2.644704 2.8272889,-0.252035 3.9629509,-0.0454 3.9629509,0.72107 0,0.277965 0.16812,0.505393 0.373599,0.505393 0.205479,0 0.2834,0.145941 0.173161,0.324313 -0.113263,0.183261 -1.643825,0.238195 -3.519178,0.126312 -3.7805009,-0.225549 -5.0276969,0.119584 -7.9068159,2.188023 -0.950754,0.683052 -1.94780896,1.242501 -2.21567696,1.243228 -0.267868,7.05e-4 -1.04266,0.344572 -1.72175704,0.764102 -1.051581,0.649644 -1.717971,0.755809 -4.492731,0.715769 -2.128929,-0.03073 -3.534883,-0.22043 -4.056945,-0.547413 -0.8425111,-0.527688 -5.1172821,-1.266888 -8.3836591,-1.449719 -2.420828,-0.135502 -2.338818,-0.108574 -1.842396,-0.604996 0.318657,-0.318657 -0.07082,-0.684862 -1.672632,-1.572659 -1.148408,-0.636503 -2.476649,-1.209322 -2.951646,-1.272935 -0.474998,-0.06361 -1.079627,-0.294866 -1.343618,-0.513902 -0.263994,-0.21904 -1.988111,-0.815001 -3.831375,-1.324363 -1.843264,-0.509362 -4.780139,-1.424524 -6.52639,-2.03369 -2.799951,-0.976739 -4.018851,-1.631911 -7.899859,-4.246245 -0.50577,-0.340702 -1.748508,-1.011389 -2.761633,-1.490419 -1.274025,-0.602389 -2.120805,-1.312545 -2.746029,-2.302965 -1.29316,-2.0485 -2.032399,-2.69172 -3.389292,-2.949077 -0.657168,-0.124642 -1.671105,-0.47953 -2.253188,-0.788638 -0.615767,-0.326996 -2.090992,-0.594939 -3.527778,-0.640746 -1.358195,-0.0433 -3.183825,-0.212387 -4.056945,-0.375746 -1.37263,-0.256814 -1.52991,-0.227148 -1.16202,0.219168 0.23402,0.283902 1.47097,0.885272 2.74879,1.336378 1.32004,0.466015 2.259796,0.991644 2.176247,1.217235 -0.08087,0.218373 -0.365326,0.337732 -0.632117,0.265239 -0.26679,-0.07249 -0.99648,-0.253185 -1.62153,-0.401548 -0.62505,-0.148363 -1.86248,-0.695224 -2.74983,-1.215248 -0.88735,-0.520024 -1.78172,-0.889381 -1.98748,-0.820794 -0.36017,0.120056 2.07402,1.799986 4.63905,3.201594 1.69116,0.924098 1.978083,1.234994 1.5421,1.670971 -0.24867,0.248676 -0.63174,0.152901 -1.21708,-0.304289 -1.29014,-1.007692 -3.8528,-2.235955 -3.8528,-1.846611 0,0.349045 2.91148,2.49356 3.38536,2.49356 0.14279,0 0.51106,0.233624 0.81838,0.519162 2.439733,2.266827 2.941506,2.655838 3.425701,2.655838 0.302253,0 0.953191,0.3175 1.446523,0.705556 0.513577,0.40398 1.442088,0.709154 2.17231,0.713973 2.034773,0.01344 3.933776,0.577624 4.695247,1.394968 0.969613,1.040754 1.776571,1.292419 5.077058,1.583351 2.956434,0.260608 3.914363,0.572071 3.553789,1.155492 -0.132751,0.214792 -0.956296,0.223597 -2.230099,0.02385 -3.385514,-0.530903 -3.709018,-0.277005 -1.434166,1.12559 1.101422,0.679097 3.871917,2.49017 6.156661,4.024606 2.284741,1.534435 4.86845,3.264877 5.741575,3.845429 2.689194,1.788068 6.612795,4.049081 7.472649,4.306179 0.449696,0.134461 1.214505,0.496129 1.699574,0.803705 0.501855,0.318223 2.554334,0.752161 4.762501,1.006895 2.134305,0.246211 5.430354,0.851154 7.324549,1.344313 4.7885951,1.246723 8.5026151,1.216596 13.7439941,-0.111478 6.259678,-1.5861 7.378362,-1.807238 9.4467369,-1.867426 3.323354,-0.0967 10.214222,0.418666 14.816668,1.108135 4.922922,0.737482 7.507302,1.107796 8.819445,1.263731 0.485069,0.05765 1.521167,0.266767 2.302439,0.464711 1.615257,0.40924 5.922551,0.247527 7.293854,-0.273844 0.8195,-0.31157 7.553216,-0.911429 9.806486,-0.87359 9.001045,0.151165 10.526921,0.27269 13.052779,1.039562 1.455208,0.441811 2.803687,0.761728 2.996621,0.710921 0.192935,-0.05081 0.381501,-1.111317 0.419033,-2.356693 z M 5.0072331,-40.448049 c 0,-0.200035 1.37953,-0.475756 3.086805,-0.616944 1.697744,-0.140399 3.3776109,-0.40984 3.7330389,-0.598756 0.391474,-0.208072 2.164644,-0.245068 4.497917,-0.09384 2.987809,0.193646 3.851684,0.36275 3.851684,0.753967 0,0.415724 -0.759241,0.485221 -4.321528,0.395584 -2.37684,-0.05981 -5.789966,0.03309 -7.5847229,0.206459 -2.198726,0.21238 -3.263194,0.197221 -3.263194,-0.04647 z m 15.5222229,-5.929669 c 0,-0.754888 0.281316,-0.800216 5.997223,-0.966297 4.507456,-0.130969 5.391041,-0.259567 7.436013,-1.082227 2.638686,-1.061501 3.147321,-1.133842 3.147321,-0.447622 0,0.721808 -0.650822,1.137264 -2.998611,1.914187 -2.904434,0.961125 -13.581946,1.418635 -13.581946,0.581959 z m 37.574223,-6.218968 c -2.539598,-0.484282 -11.88222,-3.385594 -12.323696,-3.827071 -0.263208,-0.263207 -0.218112,-0.472217 0.152424,-0.706479 0.759429,-0.480127 1.833658,-0.399461 2.622117,0.196895 0.376632,0.284872 1.024862,0.517949 1.440508,0.517949 0.41565,0 0.854749,0.09903 0.97578,0.220059 0.583533,0.583533 5.59743,1.956252 8.759589,2.398222 3.726805,0.520894 4.322907,0.739789 3.474953,1.276054 -0.637177,0.402964 -2.756694,0.371542 -5.101675,-0.07563 z m -20.552694,-2.641233 c -0.824618,-0.291892 -1.499305,-0.666866 -1.499305,-0.833275 0,-0.646017 0.760437,-0.708011 2.46725,-0.201143 2.306853,0.685062 2.678709,0.919998 2.068329,1.306752 -0.646765,0.409812 -1.266098,0.35426 -3.036274,-0.272334 z M 14.94867,-56.148791 c 0.246652,-1.732284 6.205866,-4.180339 7.520383,-3.089388 0.78819,0.654138 0.404626,0.922334 -1.99402,1.394238 -1.626503,0.319994 -2.434844,0.694471 -3.148743,1.458701 -1.187753,1.271496 -2.544202,1.406391 -2.37762,0.236449 z m 24.247519,-2.014869 c -0.501837,-0.152083 -1.295587,-0.523459 -1.763889,-0.825278 -2.322823,-1.497058 -5.314671,-2.139992 -10.084827,-2.167177 -2.555992,-0.01457 -4.742643,-0.121864 -4.859218,-0.238443 -1.086245,-1.086245 5.954378,-1.662345 10.120274,-0.828096 2.031634,0.406851 4.228198,1.255857 7.941068,3.069346 0.436562,0.213233 0.79375,0.598996 0.79375,0.85725 0,0.514439 -0.736622,0.559859 -2.147158,0.132398 z m 3.029102,-3.940613 c -1.452495,-0.574989 -2.246549,-0.659557 -4.497917,-0.479054 -1.78804,0.143354 -2.734028,0.09305 -2.734028,-0.145408 0,-1.296124 4.939232,-1.45681 8.466668,-0.275449 1.26118,0.422377 2.258303,0.926708 2.215829,1.120736 -0.131915,0.602594 -1.609327,0.508046 -3.450552,-0.220825 z m 32.497563,24.155951 c -0.714738,-0.662742 -1.088122,-0.80512 -1.370605,-0.522636 -0.21354,0.21354 -0.319461,0.430586 -0.23538,0.482324 0.948584,0.583745 2.302877,1.18775 2.428935,1.083289 0.08767,-0.07265 -0.282656,-0.54199 -0.82295,-1.042977 z m 4.01494,0.935708 c 0,-0.194028 -0.247495,-0.352778 -0.549988,-0.352778 -0.302493,0 -0.451873,0.15875 -0.331957,0.352778 0.119917,0.194028 0.367411,0.352778 0.549988,0.352778 0.182577,0 0.331957,-0.15875 0.331957,-0.352778 z m 105.639316,0.05911 c -0.57615,-0.50486 -3.99784,-1.117441 -6.24168,-1.117441 -1.1817,0 -2.07285,0.07571 -1.98032,0.168233 0.2691,0.269102 5.6359,1.176513 7.16367,1.21122 0.77242,0.01757 1.2441,-0.09923 1.05833,-0.262012 z M 75.681426,-39.305669 c -1.759462,-1.638576 -2.588077,-1.977419 -2.588077,-1.058334 0,0.291042 0.209846,0.529167 0.466323,0.529167 0.256476,0 1.089914,0.471833 1.852083,1.048519 2.064128,1.561797 2.20762,1.285448 0.269671,-0.519352 z m 2.797066,-0.157325 c -1.016311,-1.090884 -4.421799,-3.569445 -4.625062,-3.366185 -0.30486,0.30486 4.868746,4.511379 5.184419,4.21531 0.06802,-0.06379 -0.183695,-0.445897 -0.559357,-0.849125 z M 76.909766,-43.1764 c -2.021339,-1.750667 -3.357637,-2.463793 -3.052064,-1.628758 0.179398,0.490245 4.287012,3.503881 4.815953,3.533324 0.255768,0.01425 -0.537982,-0.842818 -1.763889,-1.904566 z m 3.944695,1.224897 c 0,-0.194028 -0.16812,-0.352778 -0.373599,-0.352778 -0.205479,0 -0.275484,0.15875 -0.155568,0.352778 0.119916,0.194028 0.288036,0.352778 0.373599,0.352778 0.08556,0 0.155568,-0.15875 0.155568,-0.352778 z m -1.955455,-1.947566 c -1.199878,-0.990117 -1.308199,-1.074484 -3.028407,-2.358704 -1.182987,-0.883162 -1.718917,-0.95208 -1.718917,-0.221044 0,0.161689 0.21789,0.293981 0.484202,0.293981 0.266312,0 1.48063,0.796515 2.698486,1.770034 1.217856,0.973519 2.302824,1.681494 2.411038,1.57328 0.108215,-0.108219 -0.272665,-0.584112 -0.846402,-1.057547 z m 6.356121,-1.744282 c 1.547242,-1.439608 2.676448,-2.745683 2.509344,-2.902394 -0.167103,-0.156708 -0.374696,-0.08649 -0.461317,0.156047 -0.25401,0.711232 -1.15703,0.511246 -2.389403,-0.529166 -2.294943,-1.937477 -5.31301,-4.231616 -6.128918,-4.658815 -0.740001,-0.387453 -0.775098,-0.496955 -0.308776,-0.963278 0.46632,-0.466323 0.706484,-0.392229 2.112702,0.651799 4.09466,3.040035 6.228719,4.529322 6.490244,4.529322 0.453143,0 -3.35909,-3.381157 -5.840205,-5.179812 -2.152146,-1.56017 -2.305544,-1.614717 -3.172503,-1.128106 -0.501057,0.281235 -0.951385,0.744005 -1.000731,1.028376 -0.05085,0.293063 1.17064,1.475863 2.819728,2.730415 3.768686,2.867043 5.55528,4.465027 5.55528,4.968812 0,0.22255 -0.635,0.679736 -1.411111,1.015972 -0.920514,0.398797 -1.411111,0.839187 -1.411111,1.266701 0,0.360451 -0.315715,0.737923 -0.701587,0.838832 -0.723611,0.189226 -0.641516,0.815043 0.105047,0.800784 0.231083,-0.0044 1.686076,-1.185884 3.233317,-2.625489 z m -5.387541,0.236552 c -0.445767,-0.330906 -1.626905,-1.276336 -2.624748,-2.100954 -1.730312,-1.429928 -2.68919,-1.923151 -2.199997,-1.131619 0.452082,0.731484 4.589866,3.841665 5.106064,3.837989 0.362222,-0.0025 0.27347,-0.193576 -0.281319,-0.605416 z m 1.262655,-1.59772 c -0.717638,-0.616328 -2.175027,-1.83497 -3.238641,-2.708095 -1.063615,-0.873125 -1.943337,-1.706563 -1.954936,-1.852084 -0.05943,-0.745567 1.477172,-0.05429 3.677698,1.654493 2.317817,1.799869 3.038528,2.168024 2.482286,1.268003 -0.414094,-0.67002 -5.92593,-4.579489 -6.20944,-4.404272 -0.148572,0.09182 -0.377363,0.655165 -0.50842,1.251875 -0.194631,0.886149 -0.09042,1.18849 0.568798,1.650227 0.4439,0.310921 1.127386,0.885603 1.518857,1.277073 1.019542,1.019542 4.582911,3.369049 4.792215,3.159746 0.09701,-0.09701 -0.410782,-0.680642 -1.128417,-1.296966 z M -6.3852329,-51.21192 c -3.103471,-2.999161 -3.60487,-3.81641 -3.153671,-5.140283 0.182305,-0.534906 0.202681,-2.16547 0.04694,-3.756692 -0.151349,-1.546355 -0.147835,-2.975105 0.0078,-3.175 0.155643,-0.199894 0.383978,-0.786867 0.507411,-1.304385 0.285913,-1.198725 -0.25999,-1.410046 -1.9408491,-0.7513 -1.58096,0.619591 -6.334743,0.708335 -9.651567,0.18017 -1.358194,-0.216273 -3.104445,-0.478659 -3.880556,-0.583074 -0.776111,-0.104415 -1.887361,-0.269628 -2.469444,-0.367143 -0.582084,-0.09751 -2.963334,-0.265158 -5.291667,-0.372544 -2.328334,-0.107386 -5.762767,-0.332947 -7.63207,-0.501246 -1.869306,-0.168298 -4.996663,-0.217945 -6.949687,-0.110328 l -3.550949,0.195668 1.020234,1.482858 c 0.748312,1.087631 1.648728,1.783069 3.378313,2.609247 1.296945,0.619513 3.012698,1.556769 3.812787,2.082789 2.627475,1.727444 5.153117,2.667385 11.156094,4.151835 1.26118,0.311873 2.769306,0.77174 3.351389,1.021926 4.579162,1.968183 5.406747,2.30903 5.60637,2.30903 0.124558,0 1.427949,0.729347 2.896422,1.620767 1.764376,1.071047 2.916922,1.556184 3.398107,1.430352 0.959531,-0.250924 6.0839151,0.385991 8.0590151,1.001663 0.857744,0.26737 2.092026,0.49675 2.742848,0.509728 l 1.183326,0.0236 z m 96.0591389,0.617361 c 0,-0.291041 -0.123508,-0.529166 -0.274461,-0.529166 -0.150954,0 -1.460641,-0.943808 -2.910417,-2.097353 -4.261962,-3.391118 -4.48503,-3.547092 -5.073001,-3.547092 -0.934982,0 -0.636299,0.562342 0.805441,1.51644 0.751854,0.497554 2.452285,1.868022 3.778737,3.045488 2.359318,2.094322 3.673701,2.670955 3.673701,1.611683 z m 15.455994,-0.833547 c 0.3423,-0.217071 -0.054,-0.82303 -1.52056,-2.325197 -1.09092,-1.117392 -2.05191,-1.963201 -2.13553,-1.879579 -0.0836,0.08362 0.58482,0.888909 1.48544,1.789526 1.38355,1.383548 1.56784,1.721389 1.18843,2.178558 -0.36648,0.441579 -0.36002,0.540078 0.0351,0.535672 0.26629,-0.0028 0.69249,-0.137513 0.9471,-0.29898 z m -2.22683,-0.401175 c -0.11991,-0.194028 -0.44678,-0.352778 -0.72637,-0.352778 -0.27959,0 -0.50835,-0.133498 -0.50835,-0.296661 0,-0.16316 -0.67469,-1.020724 -1.4993,-1.905692 -0.824623,-0.884967 -1.903181,-2.061157 -2.396802,-2.613755 -1.138382,-1.274396 -3.22743,-2.933167 -3.68862,-2.928888 -0.194027,0.0018 0.758473,1.080085 2.116667,2.39619 1.358195,1.316105 3.18382,3.209703 4.056945,4.20799 0.87313,0.998291 1.87468,1.822115 2.22568,1.830723 0.351,0.0086 0.54007,-0.143101 0.42015,-0.337129 z m -12.748811,-1.234722 c -0.111686,-0.291042 -0.314692,-0.529167 -0.451125,-0.529167 -0.136437,0 -0.714764,-0.442743 -1.285174,-0.983876 -1.435883,-1.362177 -3.902001,-3.249457 -4.246083,-3.249457 -0.156869,0 -0.806333,-0.505086 -1.443252,-1.122416 -0.636923,-0.617326 -1.273863,-1.006588 -1.41543,-0.865022 -0.33735,0.337348 0.291113,1.312196 1.152342,1.787473 0.375087,0.206996 0.767803,0.490692 0.872702,0.630442 0.435003,0.579529 6.193437,4.799983 6.58918,4.82932 0.241935,0.01792 0.341115,-0.199493 0.22684,-0.497297 z m 2.694647,0.228935 c 0,-0.634841 -6.310359,-5.996249 -7.849306,-6.668925 -1.24563,-0.544467 -1.28851,-1.49751 -0.06737,-1.49751 0.512008,0 0.808391,-0.152697 0.684735,-0.352778 -0.28872,-0.467163 -2.156354,-0.450762 -3.048632,0.02678 -0.643794,0.344547 -0.422067,0.58977 2.404442,2.659221 4.960776,3.632066 6.817802,5.213463 6.817802,5.805869 0,0.180167 0.238125,0.327578 0.529166,0.327578 0.291042,0 0.529167,-0.135103 0.529167,-0.300231 z m 4.87861,-1.235957 c -0.822819,-1.199229 -1.66443,-2.024306 -3.470903,-3.402701 -0.635713,-0.485069 -2.045748,-1.715382 -3.133411,-2.734027 -1.796246,-1.682267 -2.878664,-2.285348 -2.84926,-1.5875 0.01803,0.427982 1.686949,2.204861 2.070891,2.204861 0.193594,0 1.907773,1.547812 3.809284,3.439583 1.901508,1.891771 3.654718,3.383298 3.896022,3.314506 0.308902,-0.08806 0.213434,-0.453443 -0.322623,-1.234722 z m -1.70361,0.922962 c -0.291041,-0.112607 -1.402291,-1.093668 -2.469444,-2.180128 -2.217809,-2.257933 -4.702617,-4.046979 -5.330275,-3.837757 -0.235176,0.07839 0.50166,0.927774 1.637411,1.887513 1.13575,0.959743 2.709083,2.336331 3.496296,3.059085 0.884424,0.812006 1.768263,1.306823 2.313235,1.295064 0.548636,-0.01185 0.681961,-0.09641 0.352777,-0.223777 z M -6.2928759,-57.385531 c -0.02028,-0.478183 -0.940114,-1.499306 -1.350588,-1.499306 -0.607681,0 -0.481916,0.743561 0.215279,1.272805 0.69639,0.528637 1.151975,0.619531 1.135309,0.226501 z M 99.551684,-60.295948 c 0,-0.194028 -0.406244,-0.352778 -0.902765,-0.352778 -0.512008,0 -0.80839,0.152697 -0.684735,0.352778 0.119917,0.194028 0.526161,0.352778 0.902766,0.352778 0.376604,0 0.684734,-0.15875 0.684734,-0.352778 z m -7.163474,-1.619867 c -1.265425,-1.176228 -2.077314,-1.43945 -2.04918,-0.664369 0.0069,0.189177 0.342318,0.395478 0.745447,0.458449 0.40313,0.06297 0.923855,0.420158 1.157164,0.79375 0.233314,0.373591 0.663833,0.674962 0.956709,0.669713 0.32772,-0.0059 0.01616,-0.489483 -0.81014,-1.257543 z m -4.830971,0.208756 c -0.291042,-0.188087 -0.687917,-0.341972 -0.881944,-0.341972 -0.194028,0 -0.114653,0.153885 0.176388,0.341972 0.291042,0.188087 0.687917,0.341972 0.881945,0.341972 0.194028,0 0.114653,-0.153885 -0.176389,-0.341972 z m -89.6055629,-0.529167 c -0.241543,-0.291041 -0.697544,-0.524118 -1.013333,-0.517948 -0.48236,0.0094 -0.464675,0.09404 0.110621,0.529167 0.891307,0.674151 1.465594,0.667014 0.902712,-0.01122 z m -2.998611,-0.74259 c -2.139982,-1.806892 -2.67335,-2.075501 -3.023316,-1.522571 -0.601497,0.950341 -0.347536,1.383026 0.818455,1.394435 0.63059,0.0062 1.454683,0.244299 1.831315,0.529167 1.170859,0.885592 1.490691,0.54223 0.373546,-0.401031 z m 10.671529,0.478007 c -0.08085,-0.242535 -0.358659,-0.440972 -0.617361,-0.440972 -0.258703,0 -0.536515,0.198437 -0.617362,0.440972 -0.08744,0.262322 0.16267,0.440972 0.617362,0.440972 0.454691,0 0.7048,-0.17865 0.617361,-0.440972 z m -12.209915,-3.117173 c -1.001741,-0.812123 -1.460225,-0.857973 -1.460225,-0.146022 0,0.291042 0.30813,0.529167 0.684734,0.529167 0.376605,0 0.789376,0.169312 0.917272,0.376248 0.127893,0.206936 0.3357,0.272648 0.461793,0.146022 0.12609,-0.126623 -0.145517,-0.53406 -0.603574,-0.905415 z m 13.356443,0.02164 c 0,-0.410866 -0.337175,-0.850039 -0.79375,-1.033868 -0.436563,-0.175768 -1.508126,-0.981536 -2.381251,-1.790594 -1.023969,-0.948835 -1.243122,-1.267705 -0.617361,-0.898278 1.402775,0.82815 1.191458,0.08471 -0.333131,-1.171983 -1.315876,-1.084654 -1.99667696,-1.212517 -1.173251,-0.220349 0.662629,0.798417 -0.132814,0.652098 -0.86733996,-0.159545 -0.711094,-0.785749 -1.477814,-0.606679 -0.797764,0.18632 0.240601,0.280565 1.54870796,1.42041 2.90690296,2.532988 1.358194,1.112579 2.707569,2.301281 2.998611,2.64156 0.699573,0.817922 1.058334,0.788684 1.058334,-0.08625 z m 4.2333329,0.168197 c 0,-0.10632 -0.435991,-0.568332 -0.968872,-1.026696 -0.6787619,-0.583846 -1.0474219,-0.71082 -1.2312119,-0.424051 -0.331114,0.516638 -4.12972,-3.556888 -4.141615,-4.441358 -0.006,-0.448926 -0.297046,-0.617361 -1.066635,-0.617361 -1.26371,0 -1.333348,0.336165 -0.264583,1.277224 0.436563,0.384397 1.271563,1.246463 1.855555,1.915702 1.67671,1.921463 3.027895,2.863503 3.520631,2.45457 0.297995,-0.247315 0.617001,-0.142003 1.063138,0.350972 0.6054339,0.669001 1.2335929,0.929206 1.2335929,0.510998 z m -2.8222219,-2.751183 c 0,-0.246891 -2.548813,-2.738176 -2.673664,-2.613321 -0.199193,0.199189 1.976515,2.735594 2.346568,2.735594 0.179903,0 0.327096,-0.05502 0.327096,-0.122273 z m -68.9680641,-1.994394 c -0.11991,-0.194028 -0.64522,-0.34162 -1.16735,-0.327983 -0.84766,0.02214 -0.87376,0.05726 -0.24376,0.327983 0.9801,0.421162 1.67141,0.421162 1.41111,0 z m 241.476411,11.944286 c -0.87312,-0.185166 -2.8575,-0.626413 -4.40972,-0.980549 -7.295,-1.664328 -10.06598,-1.699803 -16.75477,-0.214492 -2.58374,0.573743 -3.65164,0.179913 -1.72951,-0.637816 1.85189,-0.787848 6.92667,-1.648922 9.66483,-1.639901 2.43329,0.008 7.10454,0.697124 9.17223,1.353097 2.75399,0.873703 7.10389,1.206496 10.60981,0.81171 1.92571,-0.216846 4.4538,-0.489508 5.61796,-0.605917 1.16417,-0.116407 3.14855,-0.318767 4.40973,-0.44969 2.33477,-0.242372 8.76699,0.02092 13.22917,0.541489 1.35819,0.158454 6.20007,0.155808 10.75972,-0.0059 14.0143,-0.496965 13.08759,-0.504254 12.97221,0.101999 -0.0567,0.297762 -0.49828,0.596286 -0.98137,0.663384 -0.48309,0.0671 -1.07252,0.281443 -1.30986,0.476324 -0.26344,0.216313 -4.04221,0.360924 -9.70139,0.371264 -9.11173,0.01665 -10.32179,-0.04437 -15.26709,-0.769769 -3.14609,-0.461482 -8.31067,-0.476288 -10.78313,-0.0309 -1.69986,0.306204 -7.86957,0.927319 -12.32382,1.240656 -0.87312,0.06142 -2.30187,-0.03983 -3.175,-0.224998 z m -53.79862,-9.149566 c -2.07005,-0.44701 -16.1282,-1.29948 -22.04861,-1.337003 -2.8134,-0.01783 -6.829904,0.173017 -8.925559,0.424107 -2.255355,0.270223 -4.486801,0.345543 -5.468056,0.184567 -6.512204,-1.068336 -8.058049,-1.369128 -8.963273,-1.744084 -1.37541,-0.569713 -5.790022,-0.252668 -12.383485,0.889347 -5.89763,1.021495 -10.903297,1.168162 -13.950376,0.408749 -1.095156,-0.272943 -2.913056,-0.602995 -4.039772,-0.733451 -1.334621,-0.154528 -1.997872,-0.381153 -1.903098,-0.650269 0.167919,-0.476809 3.565864,-0.411584 6.574102,0.126193 2.794526,0.499572 7.944218,0.418637 10.783127,-0.169473 3.558159,-0.73711 7.675129,-1.295756 11.063563,-1.501255 2.92463,-0.17737 3.267245,-0.125205 11.514216,1.753105 2.114071,0.481496 5.745068,0.434121 8.74605,-0.114112 2.189261,-0.399944 4.817331,-0.338544 16.477561,0.384967 5.42243,0.336459 12.19728,0.901754 15.08125,1.258384 0.98325,0.121586 1.49931,0.360102 1.49931,0.692953 0,0.576873 -1.72439,0.63097 -4.05695,0.127275 z m 90.35256,-8.69171 c -0.11293,-0.112938 -4.87401,-0.241032 -10.58017,-0.284653 -5.70616,-0.04362 -10.55855,-0.192856 -10.7831,-0.331633 -0.29413,-0.181782 -0.3018,-0.380603 -0.0274,-0.711194 0.30198,-0.363864 2.68241,-0.432867 11.49685,-0.333265 6.11381,0.06908 11.26827,0.219705 11.45436,0.334712 0.18608,0.115007 0.33833,0.333002 0.33833,0.484435 0,0.37232 -1.64085,1.099577 -1.89883,0.841598 z M 11.180844,-87.463082 c -1.9402779,-0.371994 -4.7184029,-0.851713 -6.1736109,-1.066042 -1.455209,-0.214329 -4.10059096,-0.639396 -5.87862596,-0.944594 -2.99565904,-0.514201 -3.46358004,-0.510077 -6.37908004,0.05621 -3.2387721,0.629083 -4.9051321,0.635143 -4.7813071,0.01739 0.06859,-0.342158 0.869357,-0.574231 3.8098451,-1.104138 1.684383,-0.303544 7.045893,-0.321229 8.29027804,-0.02735 0.48507,0.114557 1.75506996,0.375055 2.82222296,0.578884 11.5530459,2.206659 15.1404999,2.385307 21.1666679,1.054056 3.394756,-0.749941 4.588204,-0.820993 14.287501,-0.85061 5.820834,-0.01777 12.170834,-0.200522 14.111112,-0.406107 4.274133,-0.452871 8.976439,-0.350689 10.039337,0.218158 0.429447,0.229833 0.698923,0.499769 0.598837,0.599858 -0.237303,0.2373 -12.247352,0.521086 -24.925675,0.588968 -5.529792,0.02961 -10.219391,0.161736 -10.421328,0.293619 -0.679601,0.443832 -6.661574,1.363514 -9.863396,1.51642 -2.221314,0.106081 -4.234649,-0.05153 -6.702778,-0.524729 z m 121.002786,-3.515104 c -2.1343,-0.142362 -5.03263,-0.533205 -6.44072,-0.86854 -1.5712,-0.374183 -3.51339,-0.564488 -5.02787,-0.492656 -1.35725,0.06437 -2.46736,0.09034 -2.46693,0.0577 3.6e-4,-0.03264 -0.0881,-0.29091 -0.19667,-0.573938 -0.36569,-0.95297 4.4586,-1.128479 8.16336,-0.296985 5.1342,1.152317 8.96128,1.214718 16.37578,0.267011 6.79793,-0.868899 8.17303,-0.882106 17.68924,-0.169905 4.25802,0.318674 6.11597,0.316606 8.13473,-0.0091 2.49173,-0.40196 3.80936,-0.293679 3.80936,0.313048 0,0.865131 -6.86451,1.83765 -9.91838,1.40517 -4.68456,-0.663417 -12.82517,-1.040301 -14.78962,-0.684711 -1.0597,0.191818 -3.51422,0.495723 -5.4545,0.675345 -1.94028,0.179622 -4.0834,0.396284 -4.7625,0.48147 -0.6791,0.08519 -2.98097,0.03841 -5.11528,-0.103956 z m -240.88844,-6.947391 c -0.40592,-0.40592 -0.25691,-0.82315 0.29398,-0.82315 0.29104,0 0.52917,0.23813 0.52917,0.52917 0,0.55089 -0.41723,0.6999 -0.82315,0.29398 z"
       id="path8921"
       inkscape:connector-curvature="0"
       sodipodi:nodetypes="cscssscssssccsccccscccsscssccccscccscsssscsccsccccccscccccscsccssssccsccsssssssccccsscccccccscccsscscscscsccsssscccccsssscssssscsccssscscccssssccscsssssscssscssccsccsccssssccscscsccscscccscccccsscscccscsccscsssscscscccssccccsssccscsccccssssssccccsccscsccccccccssssscccccsscscccccsccccscssccccccccccccccscccccccssccsscscscccssscscccscccscsccsssccccscscscssscscsssssscccccssscsccccccsccssscccccccssscccsssscccccccsscccsscsscsccccccsscsccsscssccccccsccccsccsccccccccssccsscsssssssccccscccccssscsssscsccccccscsssscscccscsscsscscccsssssccccsccssssssccsssccsccccccssccssssccscsscccsccsccscccsssccccscssscsccscscccccsssssssscccscccccsscscsscccscscscccccssscssscccsscsscccsccscccsccsscssccccccsscssccccscccscscsccsscscscssscccsssssccscsccsscsscsccccsscsscscccccsscsccsssssssscsssssscsscsccscscccssccscssssccscscccccccssscssssccccasc" />
  </g>
</svg>
