<?xml version="1.0" encoding="UTF-8" standalone="no"?>
<svg
   xmlns:dc="http://purl.org/dc/elements/1.1/"
   xmlns:cc="http://creativecommons.org/ns#"
   xmlns:rdf="http://www.w3.org/1999/02/22-rdf-syntax-ns#"
   xmlns:svg="http://www.w3.org/2000/svg"
   xmlns="http://www.w3.org/2000/svg"
   id="svg8"
   version="1.1"
   viewBox="0 0 66.01563 205.95376"
   height="205.95378mm"
   width="66.015633mm">
  <defs
     id="defs2" />
  <metadata
     id="metadata5">
    <rdf:RDF>
      <cc:Work
         rdf:about="">
        <dc:format>image/svg+xml</dc:format>
        <dc:type
           rdf:resource="http://purl.org/dc/dcmitype/StillImage" />
        <dc:title></dc:title>
      </cc:Work>
    </rdf:RDF>
  </metadata>
  <g
     transform="translate(-26.850653,44.781613)"
     id="layer1">
    <path
       id="path3759"
       d="m 29.327092,160.67065 c -1.293583,-0.56268 -2.124689,-1.68528 -2.449302,-3.30835 -0.211595,-1.05797 0.834959,-4.06422 2.414383,-6.93536 0.601547,-1.09351 2.036764,-6.574 2.036764,-7.77753 0,-0.59315 0.196601,-1.27505 0.43689,-1.51534 0.30719,-0.30719 0.500312,-2.7631 0.650524,-8.27264 0.233842,-8.57698 0.33699,-9.05847 2.566205,-11.97889 1.506011,-1.97299 1.825137,-2.56617 2.540606,-4.72246 0.313475,-0.94475 0.948903,-2.27596 1.412062,-2.95824 0.804707,-1.1854 0.848086,-1.55359 0.976736,-8.29027 0.118886,-6.225461 0.268276,-7.709782 1.277616,-12.694232 0.628643,-3.10444 1.197412,-5.918912 1.263933,-6.254376 0.06652,-0.335463 0.267627,-0.872038 0.446905,-1.192392 0.179278,-0.320351 0.249304,-1.262546 0.155613,-2.093768 -0.200375,-1.777718 0.325144,-4.173372 1.697004,-7.736036 0.545714,-1.4172 1.145385,-3.682072 1.332601,-5.033052 0.187217,-1.350977 0.630026,-2.99586 0.984019,-3.655293 1.391534,-2.592197 1.454905,-3.161203 0.599498,-5.382874 -0.437771,-1.136982 -0.932569,-2.248232 -1.099552,-2.469445 -0.599137,-0.793715 -1.83362,-4.074386 -2.032046,-5.400216 -0.111288,-0.743596 -0.354012,-1.937149 -0.539388,-2.652343 -0.185376,-0.715193 -0.314863,-1.429568 -0.287749,-1.5875 0.13376,-0.77912 -0.08953,-1.526748 -0.612038,-2.049254 -0.692818,-0.69282 -1.509286,-4.265461 -1.526491,-6.679512 -0.0128,-1.795946 -0.0635,-2.002014 -1.655399,-6.727826 -1.544672,-4.585621 -1.137946,-11.069884 0.834053,-13.296949 0.390069,-0.440518 0.444923,-0.84792 0.209332,-1.554696 -0.411462,-1.234383 0.05293,-5.093116 0.7828,-6.504541 0.311334,-0.602054 0.639448,-1.837581 0.729142,-2.745617 0.337294,-3.414638 0.534763,-4.401185 1.096961,-5.480368 0.317894,-0.610224 0.611074,-1.665121 0.651511,-2.344219 0.04044,-0.67909695 0.147954,-2.6634719 0.238927,-4.4097219 0.110482,-2.1207449 0.465913,-4.0535473 1.070415,-5.8208335 0.809909,-2.3678026 2.029677,-8.1103316 2.027805,-9.5466746 -3.94e-4,-0.302962 -0.303601,-0.875948 -0.673791,-1.2733 -1.050403,-1.127476 -2.149149,-3.510061 -2.149149,-4.660343 0,-0.765011 0.417839,-1.462376 1.561392,-2.605929 1.036536,-1.036536 1.642658,-1.994576 1.80315,-2.850073 0.222595,-1.186534 0.175729,-1.289141 -0.591253,-1.294484 -1.47905,-0.01031 -3.549457,-1.483272 -4.454629,-3.169197 -0.738656,-1.375778 -0.827115,-1.906801 -0.663274,-3.981626 0.158857,-2.011692 0.371936,-2.625032 1.333931,-3.839649 2.181427,-2.754276 5.46455,-3.462112 8.66374,-1.867889 2.609254,1.300247 3.75019,3.152122 3.924534,6.369984 0.161992,2.989915 -0.655408,4.975987 -2.562445,6.22608 -1.156869,0.758347 -1.967597,2.605127 -1.346373,3.066941 0.1478,0.109874 0.645021,1.284725 1.104935,2.610782 0.938038,2.704613 0.890568,4.119206 -0.221345,6.596009 -1.042057,2.321199 -1.307575,5.782217 -0.640953,8.354797 0.521178,2.0112883 0.486619,5.7055315 -0.06167,6.59269 -0.120531,0.1950226 -0.244239,1.6784357 -0.274905,3.29647605 C 52.277447,0.85347205 52.07883,2.287729 51.845422,2.521134 51.595046,2.771511 51.437274,4.194906 51.437274,6.203397 V 9.47751 l 0.970139,0.231048 c 1.539186,0.366575 2.910416,1.291361 2.910416,1.962845 0,0.339471 0.469576,1.152035 1.043501,1.8057 0.573925,0.653666 1.466941,2.031535 1.984479,3.061928 0.81723,1.627068 0.916968,2.172579 0.7584,4.148007 -0.100419,1.251007 -0.349846,2.441822 -0.554282,2.64626 -0.260416,0.260417 -0.171272,0.764572 0.29775,1.683932 0.368198,0.721727 0.862722,2.08763 1.098946,3.035339 0.585364,2.348445 1.305334,4.01616 1.733821,4.01616 0.19576,0 1.027067,0.617442 1.847349,1.37209 0.844917,0.777311 2.179581,1.568101 3.078925,1.82426 0.873125,0.248695 1.954089,0.861565 2.402138,1.361938 2.666806,2.97822 2.889528,3.461858 2.889528,6.274562 0,1.822669 0.120788,2.113072 1.641178,3.945784 0.90264,1.088069 1.89483,2.216436 2.20486,2.507478 0.31002,0.291041 0.87252,1.115056 1.24999,1.831142 0.3922,0.744047 1.04004,1.390763 1.51178,1.509159 1.08882,0.273279 1.50608,1.482736 1.50608,4.365533 0,3.619433 -1.51655,6.495514 -5.28418,10.02125 -1.60689,1.503715 -3.076338,2.734028 -3.265459,2.734028 -0.312035,0 0.02371,0.433944 1.949139,2.519288 1.52613,1.652866 1.68284,3.684873 0.4016,5.207533 -0.49897,0.592998 -0.81178,1.232613 -0.69512,1.421366 0.11665,0.18875 0.25981,1.819187 0.31812,3.623194 0.0861,2.663352 0.28522,3.674403 1.05916,5.377812 1.56503,3.444592 2.10334,6.807352 1.85564,11.591933 -0.11859,2.290601 -0.38561,4.482391 -0.5934,4.870631 -0.29658,0.55417 -0.21874,0.97546 0.36216,1.95999 0.41291,0.69985 0.64878,1.54128 0.53369,1.90389 -0.11343,0.35739 0.0264,1.43307 0.31067,2.3904 0.34476,1.16095 0.39936,1.85813 0.16396,2.09354 -0.47091,0.47091 -0.41921,4.63539 0.0736,5.92979 0.68179,1.7907 1.07006,4.43634 1.2382,8.43703 0.19919,4.73918 0.46977,6.92171 0.92705,7.47748 0.43881,0.53333 1.35209,4.40569 1.12553,4.77228 -0.0931,0.15062 -0.0204,0.27385 0.16155,0.27385 0.18194,0 0.54358,0.51593 0.80366,1.14652 0.57187,1.38663 2.70719,3.77153 5.02428,5.61153 1.36624,1.08494 2.00254,1.35584 3.1847,1.35584 1.75527,0 2.89522,0.70285 3.12975,1.9297 0.32287,1.68899 -0.38366,2.07686 -4.07736,2.23841 -2.74051,0.11986 -3.83899,0.005 -5.8741,-0.6129 -1.37678,-0.41818 -2.65096,-0.66903 -2.83152,-0.55743 -0.18056,0.11159 -1.59316,0.26626 -3.1391,0.34371 -2.14666,0.10754 -2.91034,0.0209 -3.23201,-0.36671 -0.53047,-0.63917 -0.54191,-2.09464 -0.0243,-3.09197 0.969,-1.86707 0.98099,-9.70422 0.0154,-10.05457 -0.43957,-0.1595 -0.414,-1.46991 0.0287,-1.46991 0.19403,0 0.35278,0.16297 0.35278,0.36215 0,0.19918 0.83131,-0.19769 1.84737,-0.88194 1.01606,-0.68426 2.06054,-1.2441 2.32109,-1.2441 0.32564,0 0.41691,-0.30323 0.29198,-0.97014 -0.26883,-1.43522 -0.53191,-3.70044 -0.9124,-7.85645 -0.18688,-2.04121 -0.5854,-4.65426 -0.88558,-5.80675 -0.30019,-1.1525 -0.5458,-2.68773 -0.5458,-3.41163 0,-1.50805 -0.47872,-1.98087 -1.31623,-1.29998 -0.50034,0.40678 -0.54901,0.38924 -0.35529,-0.12806 0.16237,-0.43354 0.0794,-0.54372 -0.29986,-0.39818 -0.70142,0.26916 -1.91047,-0.86823 -1.90397,-1.79113 0.005,-0.67693 0.0429,-0.66492 0.45408,0.14287 0.36302,0.71325 0.71205,0.88195 1.82469,0.88195 1.25685,0 1.40156,-0.0994 1.67343,-1.14946 0.19079,-0.73684 0.15553,-1.41495 -0.0982,-1.88909 -0.21772,-0.4068 -0.44974,-1.23892 -0.51562,-1.84916 -0.0659,-0.61023 -0.3669,-1.78075 -0.66895,-2.60115 -0.79315,-2.15425 -0.95515,-4.49114 -0.3653,-5.26949 0.94046,-1.241011 0.41365,-6.990612 -1.21388,-13.248269 -0.42342,-1.627985 -0.77669,-4.394768 -0.87835,-6.879167 -0.0935,-2.285735 -0.18064,-4.274947 -0.19357,-4.420468 -0.0564,-0.635215 -0.898046,-0.11121 -3.460853,2.15483 -1.733966,1.533176 -3.183456,3.197331 -3.95708,4.543119 -1.318246,2.293196 -3.456866,3.973579 -5.057164,3.973579 -0.501781,0 -0.986179,0.119493 -1.076441,0.26554 -0.240529,0.389184 2.655477,8.759824 3.813767,11.023355 0.546082,1.06715 1.625272,2.892771 2.398197,4.056941 1.132773,1.70616 1.46558,2.59526 1.716045,4.58441 0.41444,3.29142 0.909613,4.6796 1.90094,5.32914 0.453234,0.29697 1.001049,0.96604 1.217362,1.48681 0.805864,1.94012 1.478911,2.8875 2.059996,2.89964 0.328951,0.007 0.994981,0.25461 1.480051,0.55053 l 0.88194,0.53803 -1.05833,-0.17209 c -2.039153,-0.33155 -2.999838,-0.90761 -3.594998,-2.15568 -0.325939,-0.6835 -0.721967,-1.24273 -0.880057,-1.24273 -0.158094,0 -0.28744,1.93675 -0.28744,4.30388 0,3.34747 0.09408,4.20982 0.423333,3.88056 0.763461,-0.76346 0.904046,-0.45224 0.804728,1.78153 -0.100852,2.26833 0.293572,3.63095 0.936072,3.23386 0.428815,-0.26502 2.436442,2.00466 2.165562,2.44825 -0.10151,0.16623 -0.32104,0.0869 -0.48784,-0.17639 -0.629599,-0.99365 -0.310303,0.85757 0.56777,3.29181 0.48501,1.34457 0.73551,2.35424 0.55665,2.2437 -0.17886,-0.11054 -0.66865,-1.23307 -1.08843,-2.49452 -0.419784,-1.26144 -1.322581,-3.10667 -2.006222,-4.10051 -2.063467,-2.99976 -2.657577,-5.68803 -2.405447,-10.8844 0.194236,-4.00323 0.14792,-4.53058 -0.50245,-5.72091 -0.394025,-0.72115 -1.022491,-2.71359 -1.396588,-4.42764 -0.428924,-1.96526 -1.084195,-3.76141 -1.773911,-4.86242 -1.423973,-2.27314 -4.284676,-8.207002 -5.303903,-11.001712 -0.726038,-1.99079 -1.425435,-2.6285 -1.425435,-1.29973 0,0.28347 -0.695448,1.90129 -1.545439,3.59516 -0.849992,1.69386 -1.95738,4.385411 -2.460863,5.981222 -0.503483,1.5958 -1.06469,3.1833 -1.247126,3.52777 -0.804559,1.51916 -1.44935,3.25767 -1.44935,3.9078 0,0.38797 -0.395324,1.5546 -0.878498,2.59252 -0.483174,1.03791 -0.880049,2.14277 -0.881944,2.45524 -0.0019,0.31247 -0.365568,1.10622 -0.808162,1.76389 -0.442593,0.65767 -0.994512,1.83681 -1.226487,2.62031 -0.231974,0.78351 -1.060478,2.28062 -1.841118,3.32691 -0.78064,1.0463 -1.419346,2.15943 -1.419346,2.47364 0,0.31421 -0.178571,0.74986 -0.396825,0.96811 -0.218254,0.21826 -0.601032,1.77944 -0.850617,3.46931 -0.26985,1.82707 -0.723904,3.44652 -1.120171,3.99526 -0.600533,0.83159 -1.643894,2.90106 -3.222058,6.39083 -0.327338,0.72384 -0.579734,2.32948 -0.609999,3.88056 -0.02839,1.4552 -0.216637,3.51895 -0.418315,4.58611 -0.240489,1.27251 -0.247443,2.08622 -0.02021,2.36432 0.333511,0.40816 0.211459,1.25688 -0.395612,2.75095 -0.157674,0.38806 -0.465197,1.14959 -0.683383,1.6923 -0.228656,0.56874 -0.30582,1.73291 -0.18216,2.7482 0.189044,1.55212 0.09508,1.93386 -0.790647,3.21196 -0.975679,1.4079 -2.626722,2.4161 -3.910482,2.3879 -0.345781,-0.008 -1.132647,-0.23302 -1.748593,-0.50094 z m 4.017186,-1.45886 c 0.828007,-0.63155 1.166403,-1.151 1.091632,-1.6757 -0.100816,-0.70746 -0.288678,-0.75545 -2.697601,-0.68918 -2.849142,0.0784 -3.720249,0.50467 -3.380326,1.65427 0.545999,1.84653 3.032445,2.20088 4.986295,0.71061 z m -2.587636,-3.1169 c 0.799831,-0.042 2.113606,-0.10439 2.919497,-0.13872 l 1.465258,-0.0624 0.157583,-1.85209 c 0.150016,-1.76314 0.09659,-1.90689 -1.11248,-2.99336 -0.698534,-0.6277 -1.587563,-1.14305 -1.975618,-1.14521 -1.141826,-0.006 -2.834327,1.21684 -2.900574,2.0963 -0.03307,0.43907 -0.276092,1.05835 -0.540039,1.37619 -0.674911,0.81271 -1.321887,2.41849 -1.321887,3.28089 0,0.70654 0.02922,0.71039 0.92701,0.12213 0.509855,-0.33407 1.581417,-0.64173 2.38125,-0.6837 z m 57.46113,-5.14004 c 1.10408,-0.38806 2.24952,-0.70556 2.54541,-0.70556 0.79847,0 0.65325,-0.56368 -0.34816,-1.35138 -0.49631,-0.39039 -1.18697,-0.61837 -1.56996,-0.51821 -0.48104,0.12579 -1.24837,-0.3551 -2.58754,-1.62163 -1.04704,-0.99025 -2.01877,-1.80045 -2.1594,-1.80045 -0.14063,0 -0.50344,-0.24774 -0.80624,-0.55054 -0.49887,-0.49888 -0.64394,-0.46107 -1.54565,0.40283 -0.67515,0.64683 -1.58696,1.04694 -2.83576,1.24434 -1.01235,0.16004 -1.93404,0.4421 -2.0482,0.62681 -0.11416,0.18471 -0.76179,0.38843 -1.4392,0.45273 -1.17524,0.11154 -1.2366,0.18554 -1.34012,1.61619 -0.10339,1.42907 -0.0621,1.5004 0.88195,1.52258 6.23079,0.14636 7.94401,0.28639 9.45709,0.77297 0.97014,0.31199 1.76939,0.57796 1.77612,0.59106 0.007,0.0131 0.91557,-0.29369 2.01966,-0.68174 z m -51.965871,-1.41181 c 0.0099,-0.67872 0.04481,-2.18653 0.07763,-3.35069 0.09996,-3.54585 0.05377,-4.08281 -0.388664,-4.51891 -0.330154,-0.32542 -0.528797,-0.28097 -0.88221,0.19738 -0.558277,0.75564 -1.613054,0.81331 -1.613054,0.0882 0,-0.3205 0.327455,-0.52916 0.83043,-0.52916 1.721228,0 2.514097,-1.31161 3.166102,-5.23753 0.834664,-5.02576 2.613982,-9.51673 5.59625,-14.12481 0.328322,-0.50732 1.418309,-2.50989 2.422192,-4.45017 1.003884,-1.94027 1.965569,-3.67859 2.137078,-3.86291 0.680101,-0.73093 0.252932,-0.85339 -0.781792,-0.22414 -1.211177,0.73656 -2.434149,2.50967 -2.434149,3.52911 0,0.36284 -0.436563,1.13364 -0.970139,1.71288 -0.533577,0.57923 -1.582023,2.27278 -2.329882,3.76344 -0.747858,1.49066 -1.428893,2.64114 -1.513411,2.55662 -0.392221,-0.39222 2.090089,-5.66347 3.045657,-6.46753 0.631847,-0.53166 1.131398,-1.37025 1.276261,-2.14244 0.130919,-0.69785 0.452839,-1.68047 0.715378,-2.1836 0.26254,-0.50311 0.478322,-1.16611 0.479518,-1.47332 0.0035,-0.8851 0.422067,-1.07184 0.910399,-0.4061 0.409748,0.55861 0.554205,0.49014 1.659278,-0.78656 1.015024,-1.17265 1.283174,-1.85614 1.660852,-4.23333 0.247717,-1.55919 0.66604,-3.31114 0.929606,-3.89323 0.263566,-0.58208 0.416227,-0.74083 0.339247,-0.35277 -0.567271,2.85959 -0.569485,2.88915 -0.145341,1.94027 0.216824,-0.48507 0.702964,-1.51694 1.080311,-2.29305 0.377347,-0.77611 1.212871,-2.839861 1.856719,-4.586111 0.643849,-1.746251 1.815483,-4.683131 2.603633,-6.526391 0.78815,-1.84327 1.43788,-3.686933 1.443845,-4.097037 0.01423,-0.978147 -1.415602,-2.376018 -3.460983,-3.383633 -1.340149,-0.660195 -2.221788,-0.809611 -4.777216,-0.809611 -3.876544,0 -4.184037,0.284198 -3.299668,3.04969 0.490793,1.534746 0.513747,1.949381 0.132941,2.401291 -0.664944,0.78913 -1.863128,3.84222 -2.152634,5.48513 -0.136762,0.77611 -0.564509,2.35325 -0.950548,3.50474 -0.386039,1.151501 -0.922959,3.135882 -1.193156,4.409722 l -0.491267,2.3161 0.168437,-2.29306 c 0.09264,-1.26118 0.404651,-3.072351 0.693356,-4.024821 0.288705,-0.952461 0.524918,-2.081571 0.524918,-2.509111 0,-0.79784 1.704116,-5.27056 2.630438,-6.90401 0.408103,-0.719631 0.439547,-1.200302 0.147674,-2.257383 -0.203961,-0.738685 -0.29802,-1.723982 -0.20902,-2.189554 0.242824,-1.270254 -0.857047,-0.893741 -1.233856,0.422378 -1.103856,3.855539 -2.051984,7.867349 -2.53674,10.733699 -0.650392,3.845731 -0.788764,14.308362 -0.194094,14.675892 0.202561,0.12519 0.758186,-0.0278 1.234723,-0.34009 0.747834,-0.49 0.86643,-0.49586 0.86643,-0.0428 0,0.64274 -1.284867,1.3792 -1.956546,1.12145 -0.692651,-0.2658 -0.95821,0.32632 -1.020021,2.27432 -0.05835,1.83898 0.313553,2.01335 0.685197,0.32127 0.246778,-1.12358 1.028252,-2.109 1.672507,-2.109 0.213991,0 0.0439,0.36742 -0.377976,0.81649 -0.421877,0.44907 -0.76705,1.21107 -0.76705,1.69333 0,0.48227 -0.172056,1.04891 -0.382348,1.2592 -0.210292,0.21029 -0.447775,1.06161 -0.527741,1.89181 -0.151413,1.57199 -0.49274,2.36422 -0.512241,1.18894 -0.011,-0.66258 -0.02161,-0.66241 -0.529167,0.009 -0.399811,0.52858 -0.517947,0.56211 -0.517947,0.14697 0,-0.29579 0.105865,-0.64366 0.235256,-0.77305 0.357465,-0.35746 0.488075,-4.11567 0.143032,-4.11567 -0.673829,0 -1.900484,4.30312 -2.313827,8.11693 -0.11584,1.06882 -0.373131,2.18007 -0.57176,2.46944 -0.291203,0.42424 -0.32825,0.38949 -0.191298,-0.17942 0.09341,-0.38806 0.271412,-1.49931 0.395551,-2.46945 l 0.225706,-1.76389 -0.896981,1.05834 c -0.493339,0.58208 -1.322853,1.9087 -1.843363,2.94805 -0.900445,1.79798 -0.960305,2.25178 -1.233176,9.34861 -0.157737,4.10239 -0.299438,7.7367 -0.314891,8.07625 -0.01545,0.33955 -0.176982,0.61736 -0.358951,0.61736 -0.181969,0 -0.330853,0.47625 -0.330853,1.05834 0,1.12747 0.30155,1.32122 0.987978,0.6348 0.316519,-0.31652 0.313102,-0.18954 -0.01352,0.50258 -0.336514,0.71307 -0.544551,0.83691 -0.904328,0.53831 -0.376825,-0.31273 -0.418876,-0.19497 -0.217249,0.60837 0.164737,0.65637 0.124744,0.91875 -0.11724,0.76919 -0.538414,-0.33276 -0.874871,0.83392 -0.404084,1.40118 0.221133,0.26645 0.257654,0.48446 0.08116,0.48446 -0.176495,0 -0.338504,0.35718 -0.360019,0.79375 -0.02152,0.43656 0.03764,0.59432 0.131448,0.35058 0.09381,-0.24375 0.306149,-0.35938 0.471863,-0.25696 0.398162,0.24608 1.972684,-1.47318 2.487577,-2.71624 0.22426,-0.54142 0.54929,-0.89691 0.722288,-0.78999 0.172998,0.10692 0.07374,0.4352 -0.220573,0.72951 -0.294314,0.29431 -0.444912,0.68107 -0.334664,0.85945 0.110248,0.17839 0.07202,0.32933 -0.08495,0.33542 -0.156972,0.006 -0.578443,0.41334 -0.936602,0.90498 -0.620859,0.85224 -0.622421,0.92568 -0.03352,1.57641 0.339724,0.37539 0.763166,0.68253 0.940981,0.68253 0.177815,0 0.57163,0.24833 0.875145,0.55185 0.719318,0.71931 1.123397,0.2756 1.145722,-1.2581 z m -0.336853,-11.75856 c 0,-0.51741 0.157754,-0.94075 0.350564,-0.94075 0.192811,0 0.302735,0.31341 0.244277,0.69647 -0.168612,1.10484 -0.594841,1.27988 -0.594841,0.24428 z m 0.241279,-2.44005 c -0.103393,-0.43656 -0.06204,-1.74625 0.09189,-2.91042 l 0.279877,-2.11666 0.04626,2.91041 c 0.04679,2.94406 -0.07546,3.56308 -0.418021,2.11667 z m 0.489072,-6.2912 c 0.01364,-0.46891 0.168642,-1.17005 0.344456,-1.55811 0.222787,-0.49173 0.254545,-0.27792 0.104794,0.70556 -0.249407,1.63795 -0.485101,2.08523 -0.44925,0.85255 z m 0.866618,-2.96922 c 0.143509,-0.38805 0.418602,-1.56395 0.611318,-2.61309 0.33746,-1.83714 1.576112,-4.47982 1.932631,-4.12331 0.09509,0.0951 -0.168468,0.72524 -0.585692,1.40032 -0.447791,0.72454 -0.72931,1.70776 -0.687127,2.39981 0.044,0.72184 -0.236653,1.64688 -0.730297,2.40711 -0.440968,0.67909 -0.684342,0.91722 -0.540833,0.52916 z M 42.70602,115.4281 c -0.436562,-0.0841 -0.79375,-0.27858 -0.79375,-0.4322 0,-0.15363 0.396875,-0.20346 0.881945,-0.11073 0.485069,0.0927 0.881944,0.30883 0.881944,0.48025 0,0.1714 -0.03969,0.29003 -0.08819,0.26361 -0.04851,-0.0264 -0.445382,-0.11684 -0.881945,-0.20093 z m 0.352778,-7.49223 c -1.050037,-0.87598 -1.011672,-0.97561 0.440972,-1.1452 1.390186,-0.1623 1.507654,-0.0416 0.617361,0.6342 -0.339548,0.25776 -0.458611,0.47126 -0.264583,0.47446 0.661235,0.0109 1.250974,-0.56296 1.406051,-1.36821 0.08514,-0.4421 0.297657,-0.98606 0.472259,-1.2088 0.174602,-0.22273 0.417161,-0.82326 0.53902,-1.33451 0.121859,-0.51124 0.797086,-1.78124 1.500504,-2.82222 1.772471,-2.623061 3.058721,-5.539122 2.829647,-6.415102 -0.105361,-0.4029 -0.06627,-0.89955 0.08687,-1.10368 0.851306,-1.13474 1.868302,-4.97209 1.661117,-6.267757 -0.279919,-1.750515 0.375325,-1.478657 0.707814,0.293667 0.38436,2.04881 -1.978589,8.58954 -5.307056,14.690122 -0.715504,1.31142 -1.249861,2.64483 -1.187459,2.96313 0.09839,0.50189 -2.078339,3.31594 -2.540096,3.2838 -0.09277,-0.006 -0.525857,-0.30971 -0.962419,-0.6739 z m 7.713211,-5.84075 c -0.0095,-0.19403 0.304138,-1.2259 0.696959,-2.293051 0.433857,-1.17863 0.643467,-1.50495 0.533976,-0.83128 -0.189188,1.164021 -1.201173,3.732621 -1.230935,3.124331 z m 1.551083,-5.767162 c 0.206412,-1.64991 1.126241,-4.15642 1.418174,-3.86449 0.09794,0.0979 -0.06192,0.63825 -0.355236,1.20069 -0.293316,0.56245 -0.545438,1.4195 -0.560271,1.90457 -0.01483,0.48507 -0.177176,1.19945 -0.360762,1.5875 -0.24282,0.51326 -0.281496,0.28752 -0.141905,-0.82827 z m 25.1881,49.476952 c 0.0796,-0.0755 -0.16953,-0.41608 -0.55366,-0.75686 -0.96943,-0.86004 -1.22582,-1.72873 -0.65101,-2.20578 0.32965,-0.27359 0.69246,-0.29237 1.12951,-0.0585 0.85625,0.45825 2.07402,1.82105 1.62726,1.82105 -0.19403,0 -0.64011,-0.3175 -0.9913,-0.70556 -0.63906,-0.70615 -1.5875,-0.9572 -1.5875,-0.4202 0,0.77359 1.03617,1.50038 2.41023,1.69058 1.26512,0.17513 1.64715,0.084 2.2186,-0.52941 0.37968,-0.40753 0.84289,-0.74097 1.02936,-0.74097 0.63974,0 0.33842,-0.80038 -0.60724,-1.61296 -0.52045,-0.44721 -0.98093,-1.0213 -1.0233,-1.27577 -0.0424,-0.25446 -0.27701,-0.93891 -0.52142,-1.52099 -0.24441,-0.58209 -0.4118,-1.25747 -0.37199,-1.50085 0.10591,-0.64735 -1.03529,-2.90887 -1.46786,-2.90887 -0.20344,0 -1.11679,0.47928 -2.02966,1.06507 l -1.65978,1.06508 0.33644,1.66895 c 0.41787,2.07293 0.44848,3.61434 0.11857,5.97042 l -0.25653,1.83203 1.35326,-0.36962 c 0.7443,-0.20329 1.4184,-0.43138 1.49802,-0.50687 z m -1.17342,-4.95413 c -0.1858,-0.48418 -0.13418,-0.506 0.31503,-0.13319 0.61216,0.50804 0.67587,0.71226 0.22221,0.71226 -0.17327,0 -0.41503,-0.26058 -0.53724,-0.57907 z m -36.652249,-7.79941 c 1.461667,-3.05728 2.491586,-6.79097 1.873255,-6.79097 -0.545379,0 -2.905819,5.95751 -3.669092,9.26042 -0.405091,1.75294 0.126856,1.02147 1.795837,-2.46945 z M 58.970776,85.580943 c 0.145693,0.14569 0.163845,0.0014 0.04034,-0.320287 -0.123505,-0.32185 -0.06494,-0.870391 0.130139,-1.218985 0.31598,-0.564621 0.381583,-0.526669 0.601035,0.347705 0.220885,0.880078 0.305763,0.927971 0.821355,0.463469 0.316258,-0.284918 1.020392,-0.629197 1.564742,-0.765066 0.765105,-0.190969 0.966244,-0.426275 0.886241,-1.036775 -0.05692,-0.434358 0.115468,-1.053567 0.383085,-1.376027 0.420938,-0.5072 0.411533,-0.557492 -0.06972,-0.372816 -0.437882,0.168032 -0.549522,-0.0248 -0.524468,-0.905891 0.0175,-0.61565 0.244468,-1.200962 0.50437,-1.300695 0.259898,-0.09973 0.405737,-0.28943 0.324083,-0.421549 -0.08166,-0.132118 0.117694,-0.255326 0.442997,-0.27379 0.938071,-0.05325 4.768673,-1.539847 5.381738,-2.088568 0.30632,-0.274172 0.901633,-0.498493 1.322916,-0.498493 0.421284,0 0.765973,-0.146138 0.765973,-0.324746 0,-0.178612 0.477636,-0.429655 1.06141,-0.557876 1.05205,-0.231069 1.1492,-0.881267 0.13167,-0.881267 -0.29104,0 -0.42381,0.170469 -0.29504,0.37882 0.12924,0.209105 -0.0883,0.177472 -0.485527,-0.07061 -0.395809,-0.247184 -0.637353,-0.582595 -0.536762,-0.745356 0.203363,-0.329046 -2.284165,-2.737855 -2.82733,-2.737855 -0.189339,0 -0.639509,0.267201 -1.000376,0.593781 -0.569319,0.515229 -0.722086,0.526895 -1.154775,0.08819 -0.430498,-0.436478 -0.352281,-0.67436 0.572223,-1.740309 0.588987,-0.679098 0.984007,-0.961994 0.877824,-0.628661 -0.334963,1.051542 0.308543,0.980422 1.377604,-0.152248 l 1.0307,-1.092031 -1.404281,0.260392 c -0.772357,0.143217 -1.457201,0.405878 -1.521876,0.583692 -0.06468,0.177814 -0.370163,0.3233 -0.678857,0.3233 -0.453888,0 -0.414521,-0.156199 0.205789,-0.816487 0.421876,-0.449068 0.767048,-1.004693 0.767048,-1.234722 0,-0.504881 -1.2812,-0.561058 -1.585002,-0.0695 -0.127734,0.206675 0.02935,0.254758 0.38566,0.118036 0.4751,-0.182312 0.428032,0.0035 -0.224409,0.885987 -0.858767,1.161542 -1.241816,1.433121 -0.953064,0.675711 0.112723,-0.295674 -0.220818,-0.44958 -1.012271,-0.467092 -1.002454,-0.02219 -1.115187,0.05244 -0.747868,0.495028 0.237881,0.286629 0.908826,0.723082 1.490983,0.969889 0.88706,0.376071 0.957767,0.487969 0.436619,0.690968 -0.342021,0.133223 -0.897646,0.04814 -1.234722,-0.189071 -0.337079,-0.237212 -0.06324,0.06253 0.608528,0.66609 0.671766,0.60356 1.068641,1.096581 0.881944,1.095604 -0.570696,-0.0028 -3.872364,-2.692827 -3.790315,-3.087934 0.0423,-0.203719 -0.156132,-0.56381 -0.440972,-0.800203 -0.582863,-0.483736 -0.698246,-1.401752 -0.176181,-1.401752 0.187936,0 0.250328,-0.238125 0.138645,-0.529166 -0.258272,-0.673047 0.246268,-0.678064 1.127916,-0.01122 0.522513,0.395207 0.559389,0.521155 0.15562,0.531492 -0.303794,0.0078 -0.07842,0.31206 0.529167,0.714449 1.19579,0.79194 1.856514,0.925601 1.307917,0.264583 -0.201285,-0.242534 -0.369228,-0.520347 -0.3732,-0.617361 -0.004,-0.09701 -0.11229,-0.450172 -0.240697,-0.784796 -0.137739,-0.358938 0.07462,-1.106901 0.517906,-1.824151 0.584535,-0.945801 0.650949,-1.277807 0.299099,-1.495259 -0.670377,-0.41432 -2.512152,-0.153113 -2.957019,0.419372 -0.213211,0.274376 -0.516318,0.382273 -0.673569,0.239769 -0.157251,-0.142505 -0.191262,0.0056 -0.07559,0.329064 0.221061,0.618204 -0.580139,1.177882 -1.471454,1.027881 -0.270383,-0.0455 -0.637969,0.1279 -0.816859,0.385336 -0.231435,0.333047 -0.271845,0.264541 -0.140093,-0.237494 0.101841,-0.388055 -0.01186,-0.966329 -0.252675,-1.285049 -0.484642,-0.641438 -3.206768,-1.037558 -3.290575,-0.47884 -0.0291,0.194028 0.0635,0.32191 0.205787,0.284184 0.142287,-0.03773 0.258704,0.158189 0.258704,0.43537 0,0.371415 -0.119652,0.404665 -0.454918,0.126418 -0.250204,-0.207648 -0.618802,-0.27626 -0.819107,-0.152463 -0.213184,0.131755 -0.281383,0.0093 -0.164481,-0.295353 0.227101,-0.591813 -0.826517,-1.2801 -1.959559,-1.2801 -0.406901,0 -0.833827,0.244979 -0.948724,0.544396 -0.184881,0.481792 -0.285031,0.475506 -0.870873,-0.05468 -0.364082,-0.329487 -0.661968,-0.431454 -0.661968,-0.226589 0,0.204865 1.031875,1.209689 2.293056,2.232939 1.26118,1.023253 2.293055,1.907134 2.293055,1.964178 0,0.05705 -0.264167,0.0025 -0.587038,-0.121546 -0.409598,-0.15718 -0.505444,-0.09325 -0.317094,0.211508 0.148469,0.240231 0.489895,0.352376 0.758724,0.249216 0.268829,-0.103159 0.914921,0.178989 1.43576,0.626996 l 0.946979,0.814557 -0.854082,-0.07637 c -0.469745,-0.042 -0.810462,-0.267395 -0.757147,-0.500878 0.05331,-0.233482 -0.03988,-0.339957 -0.207092,-0.236611 -0.394844,0.244027 -1.894896,-0.803579 -1.670507,-1.166647 0.173168,-0.28019 -0.948141,-1.435985 -1.923503,-1.982657 -0.456081,-0.255626 -0.462296,-0.21415 -0.045,0.300295 0.410371,0.505912 0.410371,0.598819 0,0.609572 -0.266293,0.007 -0.0079,0.403066 0.574165,0.880195 0.876764,0.718675 0.943038,0.867805 0.386296,0.869255 -0.660865,0.0018 -0.660865,0.01471 0,0.781656 l 0.672037,0.779904 -0.957727,-0.603515 c -1.203481,-0.758377 -1.370422,-0.756239 -1.081817,0.01383 0.196415,0.524098 0.147672,0.549385 -0.322651,0.167386 -0.748016,-0.607543 -1.129606,0.299487 -0.492533,1.170736 0.409806,0.560444 0.467222,0.563379 0.670254,0.03429 0.122129,-0.318266 0.495502,-0.578662 0.829717,-0.578662 0.544472,0 0.537836,0.05106 -0.06381,0.490993 -0.533607,0.390183 -0.58539,0.594713 -0.252209,0.99617 0.324481,0.390977 0.32147,0.610683 -0.01332,0.971875 -0.341945,0.36891 -0.341033,0.415054 0.0044,0.220228 0.293178,-0.165378 0.36781,-0.06634 0.22684,0.301022 -0.230088,0.599603 0.39625,0.762787 0.747339,0.194712 0.119916,-0.194027 0.407098,-0.340243 0.638181,-0.324926 0.302949,0.02007 0.297142,0.07749 -0.02082,0.205786 -0.695607,0.280684 -0.524119,0.915847 0.623006,2.307509 1.049085,1.27272 0.898643,2.23629 -0.206013,1.319509 -0.287231,-0.238382 -0.637464,-0.309689 -0.778296,-0.158464 -0.140833,0.151229 -0.03966,0.351818 0.224831,0.445756 0.406002,0.144198 0.406002,0.219487 0,0.483464 -0.379928,0.247026 -0.296834,0.455189 0.395784,0.991503 0.982364,0.76067 1.399998,0.675541 0.717902,-0.146332 -0.793345,-0.955922 0.194412,-0.569443 1.077958,0.421771 0.470384,0.527706 0.577432,0.746393 0.237883,0.485969 -0.544164,-0.417351 -0.617361,-0.381897 -0.617361,0.299032 0,0.622465 -0.142866,0.727181 -0.73549,0.53909 -0.703954,-0.223428 -0.711464,-0.196769 -0.175152,0.62175 0.308187,0.470351 0.467176,0.948347 0.353309,1.062214 -0.274495,0.274492 -2.457438,-0.677193 -2.384356,-1.039495 0.03131,-0.155205 -0.883381,-0.297297 -2.032641,-0.315758 -2.324988,-0.03735 -2.912562,-0.331523 -1.99796,-1.000298 0.336228,-0.245854 0.512856,-0.545475 0.392507,-0.665825 -0.12035,-0.120351 0.318681,-0.05129 0.975622,0.153469 0.656941,0.204759 1.511939,0.423442 1.899994,0.485962 0.388056,0.06252 0.971786,0.220133 1.297177,0.350248 0.472689,0.189018 0.551496,0.08314 0.39202,-0.526701 -0.109781,-0.419805 -0.415698,-0.846204 -0.679816,-0.947554 -0.685283,-0.262968 -0.59403,-0.812278 0.137147,-0.825563 0.587963,-0.01069 0.587963,-0.03355 0,-0.479866 -0.667041,-0.506357 -0.863851,-1.114006 -0.234916,-0.725305 0.24347,0.150474 0.339616,-0.0663 0.264583,-0.59654 -0.07631,-0.539252 -0.388677,-0.871467 -0.885992,-0.942276 -0.422472,-0.06016 -0.978097,-0.363961 -1.234722,-0.675118 -0.415941,-0.504331 -0.382945,-0.52118 0.303966,-0.155212 0.423807,0.225796 0.845963,0.410535 0.938125,0.410535 0.287376,0 -1.247655,-2.985358 -1.665472,-3.23904 -0.217791,-0.132221 -0.713486,-0.489797 -1.101542,-0.7946 -0.568349,-0.446416 -0.5855,-0.512375 -0.08819,-0.339186 0.339548,0.118248 0.629158,0.07895 0.643576,-0.08733 0.01442,-0.166282 0.0928,-0.659514 0.174175,-1.096077 0.105107,-0.563855 -0.02169,-0.79375 -0.437789,-0.79375 -0.322162,0 -0.480926,0.104825 -0.352808,0.232943 0.128117,0.128115 -0.08355,0.454618 -0.470371,0.725558 -0.448571,0.314191 -0.706359,0.900645 -0.711727,1.619141 -0.0046,0.61959 -0.154387,1.756092 -0.332796,2.525568 -0.221831,0.956751 -0.200292,1.548557 0.06813,1.871987 0.298692,0.3599 0.272835,0.44711 -0.108177,0.364846 -0.295124,-0.06372 -0.480571,0.145366 -0.451691,0.509263 0.02695,0.339549 -0.09211,0.617361 -0.264583,0.617361 -0.172469,0 -0.31358,0.238125 -0.31358,0.529167 0,0.291041 0.168119,0.529166 0.373597,0.529166 0.205479,0 0.260326,-0.183278 0.121882,-0.407285 -0.157207,-0.254367 -0.09664,-0.311439 0.161324,-0.152012 0.557265,0.34441 0.16044,0.912075 -0.637583,0.912075 -0.456136,0 -0.693357,0.331551 -0.811071,1.133585 -0.159892,1.08942 0.33971,2.041415 1.071324,2.041415 0.181429,0 0.766375,0.436563 1.29988,0.970139 0.533506,0.533577 1.309216,0.991451 1.723801,1.017496 0.414584,0.02603 1.769197,0.101889 3.01025,0.168536 2.073463,0.111351 2.362251,0.229101 3.560941,1.451949 0.717465,0.731922 1.497364,1.330769 1.73311,1.330769 0.235746,0 0.326218,0.165704 0.201049,0.36823 -0.125168,0.20253 -0.02681,0.610147 0.218576,0.905817 0.393025,0.473565 0.49335,0.4494 0.842455,-0.202907 0.217964,-0.407268 0.515501,-0.621288 0.661193,-0.475594 z M 57.78727,83.600152 c 0,-0.1798 -0.277813,-0.38196 -0.617361,-0.449248 -0.394759,-0.07823 -0.47536,-0.211755 -0.223537,-0.370325 0.216603,-0.136395 0.67777,0.06577 1.024815,0.449248 0.360341,0.398173 0.456222,0.697237 0.223537,0.697237 -0.2241,0 -0.407454,-0.147108 -0.407454,-0.326912 z m 3.180401,-0.437441 c 0.0028,-0.45273 0.153183,-1.056823 0.333801,-1.342425 0.282935,-0.447393 0.359576,-0.438034 0.553601,0.06758 0.307541,0.80144 0.0825,1.773252 -0.451831,1.951164 -0.269582,0.08976 -0.438873,-0.173101 -0.435571,-0.676324 z m -6.179012,-0.29398 c -0.119916,-0.194028 0.02946,-0.352778 0.331958,-0.352778 0.302492,0 0.549986,0.15875 0.549986,0.352778 0,0.194027 -0.149381,0.352777 -0.331958,0.352777 -0.182577,0 -0.43007,-0.15875 -0.549986,-0.352777 z m 3.468986,-0.160803 c -0.614418,-0.267283 -1.209731,-0.393362 -1.322916,-0.280173 -0.194547,0.194543 -0.305123,-0.832542 -0.117598,-1.092306 0.04851,-0.06719 -0.149922,-0.409078 -0.440952,-0.759749 -0.29103,-0.350668 -0.477355,-0.943289 -0.414056,-1.316927 0.0633,-0.373641 -0.16881,-1.262066 -0.515799,-1.974278 -0.346988,-0.712213 -0.636913,-1.408847 -0.644277,-1.548077 -0.0074,-0.139231 -0.295991,-0.583202 -0.641394,-0.986604 -0.345403,-0.403401 -0.518174,-0.911168 -0.383935,-1.12837 0.156606,-0.253397 0.553557,-0.02625 1.107694,0.633825 0.474993,0.565807 0.742298,0.805773 0.594012,0.533259 -0.178901,-0.328774 -0.132581,-0.410788 0.137672,-0.243762 0.224007,0.138444 0.407285,0.474885 0.407285,0.747649 0,0.272764 0.338947,0.677333 0.753216,0.899044 0.576079,0.30831 0.643637,0.470831 0.287267,0.691081 -0.382523,0.236414 -0.376034,0.39631 0.03624,0.893071 0.276204,0.332803 0.455059,0.964741 0.397457,1.404302 -0.0576,0.439565 0.08792,0.918274 0.323386,1.063798 0.272682,0.168526 0.336727,0.11672 0.1764,-0.142695 -0.392989,-0.635871 0.351925,-0.477756 0.893256,0.189601 0.400979,0.494329 0.401907,0.547352 0.0054,0.308599 -0.365796,-0.22026 -0.422785,-0.111901 -0.241515,0.459228 0.195394,0.615633 0.124263,0.706452 -0.403178,0.514781 -0.437411,-0.158955 -0.36085,0.0043 0.241515,0.514893 l 0.881944,0.747624 0.332684,-0.865448 c 0.182975,-0.476 0.477774,-0.865452 0.655105,-0.865452 0.177331,0 0.22606,0.251107 0.108289,0.55802 -0.117775,0.30691 -0.214133,0.78316 -0.214133,1.058333 0,0.619411 -0.553117,0.615742 -1.999069,-0.01326 z m -1.175931,-3.719753 c 0,-0.194028 -0.15875,-0.352778 -0.352778,-0.352778 -0.194027,0 -0.352777,0.15875 -0.352777,0.352778 0,0.194028 0.15875,0.352778 0.352777,0.352778 0.194028,0 0.352778,-0.15875 0.352778,-0.352778 z m -1.058333,-2.625012 c 0,-0.08556 -0.15875,-0.253683 -0.352778,-0.373599 -0.194028,-0.119916 -0.352778,-0.04991 -0.352778,0.155568 0,0.205479 0.15875,0.373598 0.352778,0.373598 0.194028,0 0.352778,-0.07 0.352778,-0.155567 z m -4.228294,4.948304 c 0.228466,-0.228462 0.467011,-0.228462 0.695476,0 0.228466,0.228466 0.109194,0.34774 -0.347738,0.34774 -0.456931,0 -0.576203,-0.119274 -0.347738,-0.34774 z M 50.18178,80.90899 c -0.657587,-0.526835 -0.653259,-0.533347 0.108962,-0.163975 0.436563,0.211558 0.79375,0.458439 0.79375,0.548626 0,0.269953 -0.182953,0.191996 -0.902712,-0.384651 z m 11.26708,-0.09201 c -0.785774,-0.524277 -1.416858,-3.020603 -0.703658,-2.783403 0.216401,0.07197 0.481658,0.594011 0.589456,1.160089 0.107802,0.566074 0.385615,0.989542 0.617361,0.941035 0.231751,-0.04851 0.421362,0.06119 0.421362,0.243762 0,0.479965 -0.50406,0.71905 -0.924521,0.438517 z m -1.164294,-0.623482 c 0.01693,-0.410968 0.10052,-0.494559 0.213134,-0.213137 0.101907,0.254659 0.08938,0.558934 -0.02783,0.676158 -0.117228,0.117225 -0.200604,-0.09114 -0.185286,-0.463021 z m 1.626792,-1.117131 c -0.08298,-0.14552 -0.34279,-0.859895 -0.577345,-1.5875 -0.234552,-0.727604 -0.589884,-1.322916 -0.789623,-1.322916 -0.199739,0 -0.270397,-0.241738 -0.157021,-0.537196 0.139386,-0.363238 -0.41353,-1.016667 -1.707419,-2.017801 -1.052458,-0.814335 -1.853039,-1.541127 -1.779069,-1.615098 0.07397,-0.07397 0.700544,0.297258 1.392385,0.82495 0.691841,0.527692 1.257893,0.801215 1.257893,0.607822 0,-0.193389 -0.357188,-0.616458 -0.79375,-0.940153 -0.436563,-0.323695 -0.564092,-0.473142 -0.283398,-0.332108 0.538032,0.270333 -0.803483,-1.80012 -1.408723,-2.174181 -0.184993,-0.114331 -0.336352,-0.537488 -0.336352,-0.940353 0,-0.752849 -0.874613,-1.719619 -2.788793,-3.082636 -0.600469,-0.42757 -1.091762,-1.0097 -1.091762,-1.293619 0,-0.283919 -0.225851,-0.602883 -0.50189,-0.708808 -0.27604,-0.105929 -0.603685,-0.457867 -0.728099,-0.782084 -0.147103,-0.383346 0.120932,-0.268167 0.766474,0.329361 3.215356,2.97622 3.809991,3.489681 4.041357,3.489681 0.140717,0 0.306081,-0.436562 0.367476,-0.970139 0.11187,-0.972259 0.674433,-1.221997 0.942323,-0.418324 0.08191,0.245745 -0.02711,0.323339 -0.255764,0.182027 -0.71598,-0.4425 -0.418424,0.51556 0.407344,1.311553 0.443238,0.427253 0.649613,0.657765 0.458611,0.512244 -0.191002,-0.145521 -0.559237,-0.264583 -0.8183,-0.264583 -0.363874,0 -0.383922,0.16275 -0.08813,0.715437 0.210589,0.393488 0.522705,0.629024 0.693591,0.523413 0.170886,-0.105615 0.425574,-0.0061 0.565974,0.221015 0.159428,0.257958 0.102354,0.31853 -0.152013,0.161322 -0.541276,-0.334525 -0.520063,0.225428 0.03369,0.889264 0.451497,0.541253 2.501738,1.877586 4.233333,2.759255 0.533577,0.271682 0.970139,0.644144 0.970139,0.827702 0,0.183557 -0.436562,0.04577 -0.970139,-0.306201 -0.533576,-0.351966 -1.684514,-1.033889 -2.557639,-1.515381 -1.582351,-0.872607 -1.585211,-0.872829 -0.881944,-0.06816 0.388055,0.444006 0.661557,1.074223 0.60778,1.400479 -0.06632,0.402339 0.330937,0.758416 1.234722,1.106734 0.732874,0.282452 1.491248,0.579843 1.685276,0.660869 0.194027,0.08103 0.134902,-0.116617 -0.131389,-0.439211 -0.600526,-0.727495 -0.265617,-0.76525 0.568329,-0.06407 0.341767,0.287358 0.938893,0.780355 1.326948,1.095548 0.647665,0.526058 0.625955,0.525942 -0.264583,-0.0014 -1.021595,-0.604985 -1.341702,-0.247456 -0.444856,0.49686 0.288904,0.239772 0.440295,0.573458 0.336423,0.741528 -0.248786,0.402541 -1.567261,-0.430724 -1.567261,-0.990494 0,-0.239385 -0.515938,-0.699167 -1.146528,-1.021733 -1.132953,-0.579547 -1.139211,-0.57827 -0.528398,0.107763 0.339972,0.381836 0.520506,0.791877 0.401186,0.911193 -0.11932,0.11932 0.316897,0.542407 0.96937,0.940192 1.214,0.740128 1.158625,1.019094 -0.0716,0.360698 -0.825916,-0.44202 -0.877658,-0.233282 -0.127998,0.516378 0.304899,0.304903 0.399136,0.554366 0.209416,0.554366 -0.189724,0 -0.261923,0.3175 -0.160443,0.705555 0.179324,0.685737 -0.05585,0.973967 -0.359805,0.440973 z M 45.55764,77.753453 c 0,-0.301823 0.144198,-0.500701 0.32044,-0.441953 0.176242,0.05875 0.32044,0.257626 0.32044,0.441953 0,0.184326 -0.144198,0.383205 -0.32044,0.441953 -0.176242,0.05875 -0.32044,-0.140131 -0.32044,-0.441953 z m 12.758796,-0.176389 c -0.119916,-0.194028 -0.0896,-0.357604 0.06737,-0.363506 0.156972,-0.0059 0.0076,-0.172536 -0.331958,-0.370307 -0.339549,-0.197767 -0.617361,-0.644589 -0.617361,-0.992929 0,-0.348343 -0.313756,-0.917296 -0.697237,-1.264341 -0.38348,-0.347045 -0.623313,-0.750602 -0.532963,-0.896789 0.09035,-0.146192 -0.04103,-0.244038 -0.291962,-0.217439 -0.556569,0.059 -2.712455,-1.822174 -3.355494,-2.927925 -0.593255,-1.020145 -0.401216,-0.92874 2.496406,1.188216 1.309687,0.956836 2.38125,1.958393 2.38125,2.225682 0,0.277513 0.17471,0.378001 0.407285,0.234262 0.257655,-0.15924 0.3113,-0.09641 0.146018,0.171023 -0.143697,0.232506 -0.05612,0.669922 0.194614,0.972041 0.250734,0.302115 0.487187,0.731724 0.525452,0.954683 0.03826,0.222963 0.181269,0.683197 0.317789,1.022746 0.262957,0.654025 -0.331469,0.875784 -0.709214,0.264583 z m 7.188948,-0.671516 c 0.294185,-0.186334 0.374721,-0.497643 0.203941,-0.788349 -0.155222,-0.264227 0.06256,-0.177998 0.483972,0.191625 0.978507,0.858256 0.96544,0.91657 -0.203944,0.910061 -0.689882,-0.0038 -0.829691,-0.09436 -0.483969,-0.313337 z m 2.568773,-2.150456 c -0.807093,-0.584655 -1.467443,-1.126984 -1.467443,-1.20517 0,-0.260318 2.773528,1.193504 3.011508,1.578564 0.494239,0.799698 -0.134581,0.647633 -1.544065,-0.373394 z m -1.99661,0.352527 c -0.119916,-0.194027 -0.05928,-0.352777 0.134751,-0.352777 0.194028,0 0.450889,0.15875 0.570805,0.352777 0.119916,0.194028 0.05928,0.352778 -0.134751,0.352778 -0.194028,0 -0.450889,-0.15875 -0.570805,-0.352778 z m 2.645833,-1.411111 c 0,-0.194028 0.149381,-0.352778 0.331957,-0.352778 0.182577,0 0.430072,0.15875 0.549988,0.352778 0.119916,0.194028 -0.02946,0.352778 -0.331957,0.352778 -0.302493,0 -0.549988,-0.15875 -0.549988,-0.352778 z M 63.987572,72.54998 c -0.323695,-0.436562 -0.492439,-0.595312 -0.374985,-0.352777 0.297102,0.613515 -0.180411,0.550742 -0.923054,-0.121342 -0.613325,-0.55505 -0.543948,-1.736778 0.07935,-1.351562 0.176861,0.109308 0.231355,0.344703 0.121098,0.523099 -0.110254,0.1784 0.02046,0.239582 0.290505,0.13596 0.523254,-0.200794 1.407319,0.648155 1.527472,1.466794 0.09966,0.679023 -0.03638,0.622339 -0.720383,-0.300172 z m 4.824003,0.01041 c -0.436563,-0.210548 -0.79375,-0.520964 -0.79375,-0.689814 0,-0.24299 1.07805,0.280525 2.08727,1.013604 0.352294,0.255902 -0.570495,0.02491 -1.29352,-0.32379 z M 47.753871,70.686679 c -0.376633,-0.284872 -0.535383,-0.5129 -0.352777,-0.50673 0.182605,0.0062 0.640164,0.244298 1.016797,0.529166 0.376633,0.284872 0.535383,0.5129 0.352778,0.50673 -0.182606,-0.0062 -0.640164,-0.244298 -1.016798,-0.529166 z m 6.242166,-0.606143 c -0.624505,-0.436563 -1.138207,-0.920891 -1.14156,-1.076286 -0.0034,-0.155395 0.549529,0.141259 1.228626,0.659232 1.088365,0.830135 1.447264,1.210804 1.14156,1.210804 -0.05124,0 -0.604121,-0.357188 -1.228626,-0.79375 z m 1.315086,-0.09627 c -0.37281,-0.449209 -0.350985,-0.500831 0.133193,-0.315034 0.318486,0.122213 0.579065,0.363972 0.579065,0.537242 0,0.453658 -0.204214,0.389946 -0.712258,-0.222208 z m 5.394254,0.323762 c 0.137925,-0.137922 0.07396,-0.463814 -0.142141,-0.7242 -0.239738,-0.288865 -0.255383,-0.473431 -0.04014,-0.473431 0.194028,0 0.535019,0.219586 0.757756,0.487969 0.315165,0.379751 0.268453,0.540357 -0.210636,0.7242 -0.338586,0.129928 -0.502765,0.123388 -0.364843,-0.01453 z m -7.549217,-2.16777 c -0.447857,-0.571063 -0.431253,-0.578549 0.221388,-0.09983 0.388055,0.284646 0.771701,0.562459 0.852546,0.617362 0.08084,0.0549 -0.01878,0.09982 -0.221388,0.09982 -0.202608,0 -0.586254,-0.277812 -0.852546,-0.617361 z m 7.463548,0.278363 c -0.285422,-0.180506 -0.432583,-0.41456 -0.327025,-0.520118 0.105558,-0.105562 0.497837,0.03951 0.871728,0.322375 0.743786,0.562709 0.291832,0.726783 -0.544703,0.197743 z m -5.699659,-3.453363 c -0.43881,-0.559527 -0.426332,-0.572005 0.133193,-0.133195 0.339549,0.266294 0.617361,0.544107 0.617361,0.617361 0,0.29035 -0.289696,0.103474 -0.750554,-0.484166 z M 47.092757,82.03917 c 0.07907,-0.07907 -0.534875,-0.642849 -1.364328,-1.252834 -1.352896,-0.994932 -1.53161,-1.044688 -1.736585,-0.483475 -0.125669,0.344075 -0.06992,0.824029 0.123886,1.066564 0.247398,0.309601 0.208135,0.442581 -0.131792,0.446373 -0.380123,0.0042 -0.370621,0.07719 0.04421,0.339426 0.484281,0.306144 2.727351,0.221202 3.064606,-0.116054 z m 17.976675,-1.639884 c 0.286325,0 0.422476,-0.15875 0.30256,-0.352778 -0.119917,-0.194027 0.03883,-0.352777 0.352777,-0.352777 0.313944,0 0.472694,-0.15875 0.352778,-0.352778 -0.119916,-0.194028 0.09125,-0.352778 0.469265,-0.352778 0.378012,0 1.062066,-0.330789 1.520127,-0.735083 0.72699,-0.641668 0.743165,-0.704247 0.127275,-0.492425 -0.388056,0.133459 -1.121975,0.368014 -1.630927,0.521229 -0.742442,0.223503 -2.11685,0.95624 -3.093649,1.649314 -0.07616,0.05404 0.07679,0.357618 0.339883,0.674624 0.297572,0.358553 0.527661,0.428435 0.608835,0.184912 0.07177,-0.215304 0.364751,-0.39146 0.651076,-0.39146 z m 7.73414,-7.499731 c -0.2872,-0.438326 -1.044923,-1.098141 -1.683829,-1.466257 l -1.16164,-0.669298 0.881944,1.015157 c 1.644105,1.892438 2.962185,2.644543 1.963525,1.120398 z m -5.138525,-2.378047 c 0,-0.194028 -0.15875,-0.352778 -0.352778,-0.352778 -0.194027,0 -0.352777,0.15875 -0.352777,0.352778 0,0.194028 0.15875,0.352778 0.352777,0.352778 0.194028,0 0.352778,-0.15875 0.352778,-0.352778 z m 2.904091,-0.705555 c 0.242345,-0.388056 0.573892,-0.705556 0.73677,-0.705556 0.405119,0 4.132594,-3.786548 5.140454,-5.221923 1.0616,-1.511907 2.18686,-4.594401 1.771,-4.851414 -0.17697,-0.109372 -0.32176,-0.357607 -0.32176,-0.551635 0,-0.194028 0.14778,-0.261447 0.3284,-0.149818 0.18062,0.111633 0.42134,0.0526 0.53492,-0.131191 0.11359,-0.183786 0.0443,-0.434428 -0.15402,-0.556987 -0.1983,-0.122555 -0.3332,-0.945853 -0.29978,-1.829551 0.0446,-1.180045 -0.096,-1.694466 -0.52963,-1.937131 -0.32472,-0.181726 -0.89549,-0.928416 -1.26837,-1.659315 -0.37287,-0.730899 -1.63228,-2.38197 -2.79868,-3.669044 -1.94097,-2.141785 -2.860599,-3.929719 -2.866426,-5.572898 -0.0081,-2.285824 -2.733862,-6.366673 -4.58808,-6.869025 -0.788807,-0.213709 -0.727509,-0.0765 0.580468,1.299246 2.404367,2.528947 3.506865,5.414571 2.74423,7.18263 -0.457662,1.061021 -0.364847,4.368027 0.176131,6.275574 0.350654,1.236441 0.906103,2.065299 2.071451,3.091078 1.949866,1.716338 1.690366,2.313852 -0.307594,0.708251 -0.790797,-0.635505 -1.247454,-0.86046 -1.01479,-0.499904 0.232664,0.360557 0.897933,1.039883 1.478375,1.509614 0.960595,0.777377 1.085335,0.800467 1.389385,0.257164 0.18372,-0.328291 0.49047,-0.500214 0.68167,-0.382047 0.20813,0.128629 0.0571,0.707298 -0.37642,1.44201 -0.39822,0.674942 -0.9847,2.28816 -1.30329,3.584935 -0.629487,2.562218 -1.377549,4.298047 -1.852261,4.298047 -1.02616,0 -2.817929,-1.133228 -2.919137,-1.846244 -0.134666,-0.948747 -0.649933,-0.976094 -1.15902,-0.06152 -0.201072,0.361234 -0.603461,0.845901 -0.8942,1.077041 -0.290734,0.23114 -0.396134,0.552299 -0.234216,0.713684 0.161918,0.161385 0.589375,-0.07041 0.949904,-0.515102 l 0.65551,-0.808527 0.882583,0.767397 0.882587,0.767398 -0.773268,0.626156 -0.773271,0.626152 0.968699,-0.185177 c 0.588599,-0.112518 0.968696,-0.03062 0.968696,0.208725 0,0.216648 -0.142875,0.354217 -0.3175,0.30571 -0.174625,-0.04851 -0.373062,0.069 -0.440972,0.261119 -0.06791,0.192123 0.352778,0.431807 0.934861,0.532631 0.582083,0.100824 1.042458,0.380196 1.023056,0.620825 -0.0194,0.24063 -0.05909,0.675633 -0.08819,0.966675 -0.0291,0.291042 -0.291041,0.529167 -0.582083,0.529167 -0.550887,0 -0.699901,0.41723 -0.29398,0.823147 0.406869,0.406872 0.802297,0.258999 1.257793,-0.470369 z m -7.84298,-1.763889 c 0,-0.194028 -0.168119,-0.352778 -0.373598,-0.352778 -0.205479,0 -0.275484,0.15875 -0.155568,0.352778 0.119916,0.194027 0.288036,0.352777 0.373599,0.352777 0.08556,0 0.155567,-0.15875 0.155567,-0.352777 z M 51.084492,66.792142 c 0,-0.110871 -0.23781,-0.439395 -0.528467,-0.730052 -0.387952,-0.387953 -0.434599,-0.703866 -0.175435,-1.188117 0.235687,-0.440383 0.235455,-0.732314 -7.06e-4,-0.878265 -0.194546,-0.120241 -0.353725,-0.04113 -0.353725,0.1758 0,0.21693 -0.150785,0.301226 -0.335078,0.187328 -0.400069,-0.247254 -1.193268,1.101468 -0.91376,1.553722 0.107195,0.173443 -0.0045,0.40924 -0.24827,0.523984 -0.243743,0.114748 -0.01634,0.127724 0.505349,0.02882 0.521685,-0.09889 1.046991,-0.02046 1.167348,0.17428 0.233292,0.377489 0.882744,0.489676 0.882744,0.152498 z m 15.516951,-0.840461 c 0.48217,-0.370473 0.770841,-0.779417 0.641488,-0.90877 -0.254864,-0.254864 -2.018072,0.899792 -2.036244,1.333458 -0.01827,0.436115 0.466545,0.288491 1.394756,-0.424688 z m 4.603824,-3.279479 c 0.216451,-0.824618 0.641625,-2.401527 0.944835,-3.504247 0.59982,-2.181434 0.5657,-2.27608 -1.280725,-3.551996 -0.850949,-0.588025 -0.853772,-0.585929 -1.444385,1.072772 -0.325473,0.914069 -0.856082,2.4018 -1.179128,3.306068 -0.650085,1.819709 -0.399567,3.131947 0.722542,3.78473 1.26528,0.736071 1.82584,0.458576 2.236861,-1.107327 z m -11.301331,0.79375 c 0,-0.194027 -0.168119,-0.352777 -0.373598,-0.352777 -0.205479,0 -0.275485,0.15875 -0.155568,0.352777 0.119916,0.194028 0.288036,0.352778 0.373598,0.352778 0.08556,0 0.155568,-0.15875 0.155568,-0.352778 z m 1.347453,-1.675694 c 0.062,-0.436563 -0.05208,-0.79375 -0.25351,-0.79375 -0.201436,0 -0.268457,-0.277813 -0.148939,-0.617361 0.48647,-1.382053 1.581573,-3.676435 1.698801,-3.559204 0.06899,0.06899 -0.09828,1.076629 -0.371725,2.239197 -0.720464,3.063113 -0.770213,2.967027 1.495541,2.888637 1.886945,-0.06528 2.01954,-0.128584 2.275014,-1.086083 0.149204,-0.55922 0.820572,-1.51989 1.491929,-2.134828 1.413771,-1.294966 1.964419,-3.5944 1.329831,-5.553213 -0.49664,-1.532999 -0.56565,-5.498712 -0.147993,-8.504611 0.275159,-1.980336 0.231231,-2.618843 -0.254858,-3.704566 -0.844595,-1.886458 -6.891238,-8.542969 -7.760267,-8.542969 -0.342943,0 -0.321638,0.15494 0.08489,0.617361 1.103347,1.255046 1.973692,3.537853 2.760927,7.241561 0.61148,2.87684 0.708882,3.901215 0.400282,4.209814 -0.603091,0.603091 -0.747931,0.278846 -0.991467,-2.219533 -0.366847,-3.763377 -1.868354,-7.624957 -3.806725,-9.790145 -0.405176,-0.452585 -2.02657,-1.602221 -3.6031,-2.554739 -2.034388,-1.229155 -2.995468,-2.043412 -3.311008,-2.805193 -0.244526,-0.590335 -1.159521,-1.702644 -2.033324,-2.471798 l -1.588733,-1.398457 0.210823,-2.029019 c 0.643748,-6.195604 1.012108,-8.989607 1.507536,-11.43465 0.303213,-1.496416 0.489952,-3.087945 0.414976,-3.536731 L 50.513969,5.434006 50.133392,6.31595 c -0.651969,1.510867 -1.878897,8.882839 -1.878827,11.28889 3.7e-5,1.26118 -0.236339,3.072349 -0.52528,4.024817 -0.288942,0.952468 -0.525348,2.241977 -0.525348,2.865571 0,1.600507 -1.361326,4.5894 -1.862177,4.088547 -0.278013,-0.278014 -0.181408,-0.802739 0.347875,-1.889556 0.403025,-0.82756 0.844909,-2.298407 0.981966,-3.268546 0.137056,-0.970139 0.404952,-2.054952 0.595323,-2.410693 0.190371,-0.355741 0.33629,-1.987193 0.324265,-3.625444 -0.01203,-1.638254 0.211076,-3.966566 0.495782,-5.17403 0.284706,-1.207463 0.519994,-2.771313 0.522862,-3.475224 0.0029,-0.703908 0.24547,-1.854846 0.539116,-2.557639 0.495949,-1.186974 0.48968,-1.278597 -0.08819,-1.288951 C 48.12391,4.876902 46.32248,3.175745 46.76886,2.729365 c 0.25085,-0.25085 0.572847,-0.156203 1.032549,0.303498 0.655511,0.65551 0.687555,0.649573 1.710972,-0.317105 0.573622,-0.541821 1.216219,-0.985305 1.427994,-0.985524 0.256349,-2.61e-4 0.305202,-0.526496 0.146164,-1.57443995 -0.138106,-0.910018 -0.01326,-3.08299205 0.295946,-5.15094015 0.428602,-2.8664748 0.452122,-3.886119 0.118419,-5.1337949 -0.229024,-0.856298 -0.416407,-2.05031 -0.416407,-2.653368 0,-0.903889 -0.08742,-1.023911 -0.497759,-0.683362 -0.273768,0.227207 -0.570976,0.286332 -0.660461,0.13139 -0.29252,-0.50649 0.616995,-5.637575 1.10189,-6.216382 0.796604,-0.950887 -0.09406,-2.920943 -1.828643,-4.044763 -1.788173,-1.15854 -2.048193,-1.481507 -1.851535,-2.299758 0.124088,-0.516307 0.05788,-0.5584 -0.348191,-0.221388 -0.795192,0.659951 -0.588345,1.407542 1.064029,3.845652 l 1.546023,2.281185 -0.655613,1.285108 c -0.38627,0.757151 -0.803151,2.72283 -1.014738,4.784689 -0.197519,1.92477 -0.602572,4.1895826 -0.900119,5.0329226 -0.697509,1.9769526 -0.685567,4.1102811 0.03757,6.7112589 0.582156,2.09389855 0.493722,3.2000405 -0.255838,3.2000405 -0.244313,0 -0.336463,-0.35840095 -0.232278,-0.90340795 0.09498,-0.496877 -0.119716,-1.80656395 -0.477109,-2.91041655 l -0.649807,-2.0070094 0.03609,2.6916418 c 0.01985,1.48040015 -0.07382,2.86946315 -0.208141,3.08680515 -0.134324,0.21733995 -0.07611,0.39516395 0.129372,0.39516395 0.563799,0 0.44801,1.454203 -0.151397,1.901388 -0.288747,0.215417 -0.854101,1.661668 -1.256344,3.21389 -0.588954,2.272729 -0.68663,3.38889 -0.50167,5.732639 0.144172,1.826899 0.100605,2.910417 -0.117024,2.910417 -0.421744,0 -0.773066,-0.846797 -0.780369,-1.880937 -0.0044,-0.623178 -0.06876,-0.666852 -0.347376,-0.23573 -0.575032,0.889798 -0.437512,5.840508 0.176389,6.350001 0.291041,0.241543 0.529166,0.635508 0.529166,0.875481 0,0.23997 0.47625,1.328784 1.058334,2.419583 1.095879,2.053629 1.293197,3.20396 0.705555,4.113269 -0.254588,0.393947 -0.343354,0.193298 -0.347375,-0.785223 -0.003,-0.722916 -0.310304,-1.815762 -0.682962,-2.428547 l -0.677559,-1.114157 -0.121035,1.017436 c -0.110977,0.932892 -0.181583,0.860866 -0.849723,-0.866828 l -0.72869,-1.88426 -0.611074,1.600076 c -0.805412,2.108941 -0.815644,6.727441 -0.01901,8.580872 0.888625,2.067447 1.234333,3.409209 0.933658,3.623705 -0.149896,0.106934 -0.08576,0.750052 0.14252,1.429149 l 0.415059,1.234722 0.883785,-1.989762 c 0.486082,-1.09437 0.991814,-2.481612 1.123848,-3.082763 0.132035,-0.601147 0.386599,-1.183559 0.565699,-1.29425 0.612236,-0.378382 0.326175,1.470329 -0.694952,4.491221 -0.880073,2.603603 -0.940786,3.013421 -0.440972,2.976595 0.342318,-0.02522 0.531996,0.172367 0.463301,0.482628 -0.06397,0.288932 -0.111868,1.455208 -0.106432,2.591724 0.01085,2.268189 0.689874,3.720511 1.700621,3.637351 0.553022,-0.0455 0.628241,0.282646 0.633183,2.762261 0.0056,2.78535 0.01635,2.818641 1.063943,3.281528 1.759174,0.777307 1.999619,0.945286 1.879325,1.312912 -0.06349,0.194028 -0.472624,0.307082 -0.909187,0.251231 -0.952323,-0.121832 -0.989968,0.281933 -0.233324,2.502563 0.819171,2.404135 0.40347,2.829387 -0.681848,0.697516 -0.977794,-1.92066 -1.183513,-2.763415 -0.584134,-2.392977 0.689069,0.42587 0.3406,-0.850466 -0.367636,-1.346535 -0.396227,-0.277527 -0.688524,-0.643717 -0.649549,-0.813752 0.03898,-0.170036 -0.02114,-0.547282 -0.133581,-0.838324 -0.112445,-0.291042 -0.283865,-0.767292 -0.380933,-1.058333 -0.09707,-0.291042 -0.189021,-0.02103 -0.204339,0.599997 -0.04682,1.898065 0.713399,4.751275 1.908019,7.161114 0.6252,1.261181 1.341207,2.817273 1.591126,3.457981 0.331808,0.850642 0.607349,1.103545 1.02134,0.937422 0.311818,-0.125123 1.479754,-0.314198 2.595414,-0.420169 1.11566,-0.105971 2.028472,-0.299438 2.028472,-0.429934 0,-0.130492 0.353897,-0.617124 0.786438,-1.081401 0.468673,-0.503061 0.742018,-1.183118 0.676502,-1.683075 l -0.109937,-0.838933 0.747477,0.747479 c 0.745893,0.745892 1.415963,0.702695 1.439985,-0.09283 0.02086,-0.690707 1.510332,-2.291531 2.468628,-2.653174 0.673506,-0.25417 1.046565,-0.821892 1.513544,-2.303318 0.588708,-1.867599 1.297012,-2.917892 1.296631,-1.922675 -7.83e-4,2.02896 -3.18872,6.988183 -4.492213,6.988183 -0.257754,0 -0.56002,0.238125 -0.671704,0.529166 -0.111683,0.291042 -0.58295,0.529167 -1.047261,0.529167 -0.500475,0 -0.844201,0.20731 -0.844201,0.509164 0,0.280039 -0.34761,0.752638 -0.772466,1.05022 -0.887376,0.621541 -0.913432,0.584284 0.948855,1.356667 2.824631,1.171515 4.884765,1.169215 5.051619,-0.0056 z M 48.615048,58.965107 c 0,-0.442443 0.296326,-0.837325 0.732141,-0.975649 1.086478,-0.344833 1.137612,-0.03762 0.148412,0.891688 -0.868883,0.816275 -0.880553,0.817386 -0.880553,0.08396 z m 2.9278,-2.290127 c -1.221279,-1.340852 -1.665148,-2.424247 -1.128983,-2.755614 0.621897,-0.384355 1.023405,-0.0843 1.023405,0.764808 0,0.385868 0.394293,1.066997 0.876207,1.513621 0.481913,0.44662 0.772955,0.915293 0.646759,1.041488 -0.379457,0.379455 -0.659251,0.268062 -1.417388,-0.564303 z m 14.185301,0.152082 c -0.303385,-0.30124 -1.238102,-2.512659 -1.238102,-2.929191 0,-0.170335 0.3175,-0.309697 0.705556,-0.309697 0.616214,0 0.883944,0.51719 0.75861,1.465471 -0.01679,0.126912 0.20255,0.424162 0.48739,0.660555 0.28484,0.236397 0.517889,0.552136 0.517889,0.70165 0,0.385029 -0.941166,0.699337 -1.231343,0.411212 z M 54.965048,56.07844 c 0,-0.182577 0.15875,-0.430072 0.352777,-0.549988 0.194028,-0.119916 0.352778,0.02946 0.352778,0.331957 0,0.302493 -0.15875,0.549988 -0.352778,0.549988 -0.194027,0 -0.352777,-0.149381 -0.352777,-0.331957 z m 7.605539,-1.306068 c 0.138455,-0.942351 0.388849,-2.080885 0.556433,-2.53008 0.16758,-0.449192 0.304694,-1.362005 0.304694,-2.028473 0,-0.666464 0.160136,-1.211756 0.355861,-1.211756 0.406104,0 0.08487,3.696832 -0.404153,4.651114 -0.167467,0.326792 -0.304486,0.99211 -0.304486,1.478485 0,0.486374 -0.171019,0.990014 -0.380044,1.119198 -0.264139,0.163244 -0.303269,-0.287655 -0.128305,-1.478488 z m -8.103346,-0.858489 c -0.924279,-1.09844 -1.222807,-2.442376 -0.542526,-2.442376 0.203929,0 0.598398,0.544771 0.8766,1.2106 0.278201,0.665829 0.666975,1.310199 0.863943,1.431932 0.196968,0.121729 0.358123,0.370713 0.358123,0.55329 0,0.638062 -0.650133,0.323285 -1.55614,-0.753446 z m 10.199195,-2.442376 c -0.119916,-0.194027 -0.04991,-0.352777 0.155568,-0.352777 0.205479,0 0.373599,0.15875 0.373599,0.352777 0,0.194028 -0.07,0.352778 -0.155568,0.352778 -0.08556,0 -0.253683,-0.15875 -0.373599,-0.352778 z M 53.493624,50.588046 c -0.105932,-0.105932 -0.758728,-0.213886 -1.450658,-0.239899 -0.920187,-0.03461 -1.644169,-0.400237 -2.695764,-1.36149 -0.79074,-0.72281 -1.43771,-1.570662 -1.43771,-1.884119 0,-0.94596 0.604154,-0.647594 1.652816,0.816257 0.846104,1.181097 1.180781,1.383824 2.262146,1.370267 1.637283,-0.02053 2.861705,0.373278 2.696992,0.867417 -0.152059,0.456177 -0.751511,0.70788 -1.027822,0.431567 z m 9.617994,-3.288806 c -0.524239,-0.979548 -0.484107,-1.472177 0.119933,-1.472177 0.635896,0 1.095989,1.361951 0.620667,1.837274 -0.238337,0.238336 -0.481919,0.118254 -0.7406,-0.365097 z M 50.764843,46.922692 c -0.978147,-0.751999 -0.806407,-1.801185 0.294835,-1.801185 0.775779,0 2.141481,1.279811 2.141481,2.006798 0,0.673996 -1.451526,0.551494 -2.436316,-0.205613 z m 4.697249,-7.977184 c -0.270227,-1.076671 0.254625,-1.778276 1.090369,-1.457572 0.774532,0.297215 0.57288,2.117771 -0.251893,2.274132 -0.407335,0.07722 -0.681054,-0.189343 -0.838476,-0.81656 z M 42.777079,32.921471 C 42.65792,32.549477 42.41459,31.880462 42.236348,31.43477 c -0.426708,-1.066973 -0.41474,-4.373319 0.01997,-5.516686 0.472239,-1.242085 1.159311,-1.186699 0.809203,0.06523 -0.44063,1.575619 -0.310514,4.848723 0.233095,5.863576 0.379365,0.70823 0.404094,1.041958 0.09976,1.346292 -0.304335,0.304338 -0.458346,0.236982 -0.621294,-0.271709 z m 5.814579,-0.764547 c -0.197287,-0.533577 -0.608974,-1.637426 -0.914859,-2.452998 -0.509099,-1.357394 -0.507859,-1.531151 0.01466,-2.053668 0.525899,-0.5259 0.571084,-0.520256 0.574259,0.07174 0.0019,0.35341 0.398771,1.49176 0.881945,2.529675 0.483174,1.037911 0.878498,2.109473 0.878498,2.38125 0,0.877541 -1.064657,0.524266 -1.434501,-0.476003 z m 0.988437,-42.63241 c -0.282615,-0.282613 0.08727,-1.200231 0.483807,-1.200231 0.173269,0 0.315035,0.3175 0.315035,0.705556 0,0.687631 -0.374181,0.919339 -0.798842,0.494675 z M 67.293802,60.70813 c 0.177094,-0.617503 0.207401,-1.122733 0.06734,-1.122733 -0.347877,0 -1.411989,2.399845 -1.170982,2.640855 0.308815,0.308815 0.756161,-0.306542 1.103642,-1.518122 z M 45.440048,47.040964 c 0,-0.584627 -0.141379,-0.815386 -0.401184,-0.654819 -0.222905,0.137763 -0.703732,-0.127328 -1.08201,-0.59654 l -0.680826,-0.844487 0.421786,0.881945 c 0.409639,0.856544 1.374389,2.116667 1.620521,2.116667 0.06694,0 0.121713,-0.406245 0.121713,-0.902766 z m -2.226266,-6.770151 c -0.08873,-0.339549 -0.161333,-0.06174 -0.161333,0.617361 0,0.679097 0.0726,0.95691 0.161333,0.617361 0.08873,-0.339549 0.08873,-0.895174 0,-1.234722 z m 16.690154,-9.173345 c 0,-0.708646 -1.4411,-5.069875 -2.247141,-6.800571 -0.68532,-1.471486 -0.856308,-2.273508 -0.695704,-3.263195 0.296525,-1.827272 0.7653,-1.638296 0.901702,0.363499 l 0.114181,1.675694 0.297332,-1.671362 c 0.380039,-2.136278 0.136293,-2.73836 -1.10859,-2.73836 -0.739507,0 -1.428693,0.457948 -2.672536,1.775834 -0.980547,1.038917 -2.099392,1.860501 -2.696211,1.979867 -1.313263,0.26265 -1.561779,0.945822 -0.642928,1.767402 0.400138,0.35778 1.106441,1.24684 1.569564,1.97569 0.505458,0.795475 2.003061,2.088931 3.746603,3.235882 2.941032,1.934694 3.433728,2.178569 3.433728,1.69962 z m -5.238637,-4.584989 c -0.548923,-1.044092 -0.856267,-4.219519 -0.433678,-4.480691 0.24102,-0.14896 0.380649,0.16515 0.380649,0.856312 0,0.969878 0.07607,1.050854 0.682363,0.726373 0.3753,-0.200854 0.85155,-0.365189 1.058334,-0.365189 0.654063,0 0.407042,0.524588 -0.417781,0.887219 -0.801244,0.352266 -0.95827,1.179664 -0.450918,2.375976 0.155566,0.366815 0.108373,0.617361 -0.116287,0.617361 -0.20796,0 -0.524167,-0.277812 -0.702682,-0.617361 z M 50.979698,22.12169 c 0.542706,-0.232117 1.809863,-1.263992 2.815903,-2.293055 1.00604,-1.02906 2.11729,-1.873448 2.469444,-1.876418 0.352154,-0.0028 0.878405,-0.168589 1.169447,-0.368039 0.412143,-0.282441 0.29512,-0.350997 -0.529167,-0.309997 -1.644156,0.08178 -1.99946,0.0063 -1.763889,-0.374897 0.119916,-0.194028 0.679928,-0.352778 1.244471,-0.352778 0.68673,0 0.96934,-0.148801 0.853911,-0.449608 -0.234861,-0.612034 -2.968871,-0.345556 -3.776239,0.368064 -0.930618,0.822561 -1.224005,0.180784 -0.327287,-0.715935 0.566161,-0.566162 1.169421,-0.767612 2.216454,-0.740159 1.281599,0.03362 1.380573,-0.02029 0.907027,-0.493825 -0.292352,-0.292354 -0.901701,-0.550186 -1.35411,-0.572961 -0.568391,-0.02861 -0.857393,-0.286674 -0.93529,-0.835159 -0.1085,-0.763958 -1.121992,-1.16229 -1.121992,-0.440972 0,0.194027 0.15875,0.352777 0.352778,0.352777 0.194027,0 0.352777,0.3175 0.352777,0.705556 0,0.470369 -0.235185,0.705556 -0.705555,0.705556 -0.388056,0 -0.705556,0.15875 -0.705556,0.352777 0,0.194028 -0.255109,0.352778 -0.56691,0.352778 -0.554661,0 -0.550654,-0.06142 0.10933,-1.675694 0.206767,-0.505735 -0.208117,-0.567256 -0.893856,-0.132542 -0.302359,0.191678 -0.472237,1.037452 -0.477202,2.375849 -0.0042,1.143021 -0.227185,3.030721 -0.495432,4.194887 -0.696311,3.02192 -0.697915,3.018847 1.160943,2.223795 z m 0.803274,-3.99621 c -0.609759,-0.734713 -0.160042,-1.090934 0.519443,-0.411448 0.300281,0.30028 0.545966,0.636682 0.545966,0.747553 0,0.391771 -0.624947,0.194621 -1.065409,-0.336105 z m 0.800826,-6.422641 c 0.767047,-0.22055 0.796166,-0.656678 0.06264,-0.93816 -0.737643,-0.283058 -1.914722,0.374407 -1.914722,1.069482 0,0.389731 0.183449,0.478977 0.617361,0.300344 0.339549,-0.139788 0.895174,-0.334038 1.234723,-0.431666 z M 50.378937,3.846506 c 0,-0.194028 -0.07001,-0.352778 -0.155569,-0.352778 -0.08556,0 -0.253682,0.15875 -0.373598,0.352778 -0.119916,0.194028 -0.04991,0.352778 0.155569,0.352778 0.205479,0 0.373598,-0.15875 0.373598,-0.352778 z m -1.763889,-23.817681 c 0,-0.293891 -0.565936,-1.127329 -1.257634,-1.852084 l -1.257634,-1.317736 1.16944,1.832997 c 1.306772,2.048254 1.345828,2.087049 1.345828,1.336823 z m 4.586111,-2.427355 c 0,-0.779281 -1.010844,-3.901345 -1.52537,-4.711215 -0.154088,-0.242535 -0.46129,-0.440972 -0.682672,-0.440972 -0.289933,0 -0.28411,0.118404 0.02082,0.423333 0.576158,0.576159 0.532056,0.987778 -0.105834,0.987778 -0.291041,0 -0.529166,0.143888 -0.529166,0.319751 0,0.175863 0.28142,0.246157 0.625378,0.15621 0.516695,-0.135118 0.627047,0.06988 0.634976,1.179555 0.01488,2.082141 0.424842,3.291426 1.036297,3.056789 0.289063,-0.110924 0.52557,-0.547977 0.525571,-0.971229 z m -3.503472,-4.358437 c 0.01337,-0.921632 0.106568,-2.151945 0.20711,-2.734028 0.201804,-1.168332 0.201257,-1.409455 -0.0084,-3.691101 -0.07956,-0.865938 -0.321039,-1.63323 -0.536627,-1.705092 -0.268712,-0.08957 -0.406282,1.015693 -0.437466,3.514711 -0.02502,2.004954 -0.07961,4.121621 -0.121308,4.703704 -0.0849,1.185191 0.05204,1.5875 0.540395,1.5875 0.182577,0 0.342896,-0.754062 0.356264,-1.675694 z m 1.734181,-3.351389 c 0.003,-0.145521 -0.232723,-0.264584 -0.523765,-0.264584 -0.540194,0 -0.722784,0.747124 -0.28868,1.181228 0.236879,0.236879 0.801909,-0.400619 0.812445,-0.916644 z m 1.063735,-1.957223 c 1.490037,-0.72457 2.822222,-3.130347 2.822222,-5.096616 0,-2.048051 -1.500819,-4.703864 -3.127013,-5.533487 -3.491085,-1.781018 -7.628234,-0.244711 -8.335455,3.095324 -0.846856,3.999497 0.704703,7.046138 3.837787,7.535878 0.578838,0.09048 0.670805,-0.14363 0.705556,-1.796052 0.04554,-2.16536 0.760299,-3.022921 1.800213,-2.159869 0.470122,0.390167 0.545148,0.887261 0.382937,2.537182 -0.226156,2.300321 -0.09747,2.39565 1.913753,1.41764 z M 75.982952,128.61471 c -0.12588,-0.83945 -0.13119,-1.78083 -0.0118,-2.09198 0.11939,-0.31114 -0.0469,-1.86012 -0.36961,-3.44217 -0.62274,-3.05322 -0.54251,-3.96919 0.17882,-2.04164 0.42915,1.14678 0.96419,9.10204 0.61218,9.10204 -0.0994,0 -0.28372,-0.68682 -0.4096,-1.52625 z m -6.039356,-2.37778 c -0.127892,-0.20694 -0.156873,-0.45191 -0.0644,-0.54438 0.09247,-0.0925 0.262135,0.0768 0.377031,0.37625 0.238541,0.62163 0.03524,0.73097 -0.312631,0.16813 z m 3.727906,-14.43471 c -0.28673,-0.17721 -0.19884,-0.31887 0.27467,-0.44269 0.38298,-0.10015 0.88607,-0.0648 1.11798,0.0785 0.28673,0.17721 0.19884,0.31886 -0.27468,0.44269 -0.38298,0.10015 -0.88607,0.0648 -1.11797,-0.0785 z m -2.89112,-2.56335 c -0.610422,-0.49183 -1.118867,-1.67569 -0.719677,-1.67569 0.141266,0 0.455129,0.3175 0.697473,0.70555 0.598039,0.95762 1.425294,0.88676 2.276174,-0.19496 0.94037,-1.19549 1.21672,-0.84262 0.40984,0.52332 -0.68177,1.15414 -1.718052,1.40381 -2.66381,0.64178 z m -2.358669,-4.97146 c -1.088185,-2.90843 -1.840131,-7.087802 -1.909307,-10.612042 -0.06239,-3.17845 0.578753,-6.906082 1.187827,-6.906082 0.427151,0 0.404128,1.648582 -0.03447,2.468102 -0.504702,0.94304 -0.503943,6.07445 0.0014,9.173571 0.237264,1.4552 0.810112,3.625401 1.272991,4.822671 0.915709,2.36851 1.015436,2.93844 0.514171,2.93844 -0.180086,0 -0.644744,-0.8481 -1.03257,-1.88466 z m -5.88645,-6.958262 c -0.127892,-0.20693 -0.156873,-0.45191 -0.0644,-0.54438 0.09247,-0.0925 0.262135,0.0768 0.377031,0.37625 0.238541,0.62163 0.03524,0.73097 -0.312631,0.16813 z m -1.414607,-3.31659 c -0.281139,-0.67286 -0.492749,-1.58568 -0.470242,-2.02847 0.03612,-0.7105 0.05933,-0.72219 0.197591,-0.0995 0.08617,0.38805 0.383967,1.30086 0.661776,2.02847 0.635656,1.66483 0.300697,1.7505 -0.389125,0.0995 z"
       style="fill:#000000;stroke-width:0.35277778" />
  </g>
</svg>
