<?xml version="1.0" encoding="UTF-8" standalone="no"?>
<svg
   xmlns:dc="http://purl.org/dc/elements/1.1/"
   xmlns:cc="http://creativecommons.org/ns#"
   xmlns:rdf="http://www.w3.org/1999/02/22-rdf-syntax-ns#"
   xmlns:svg="http://www.w3.org/2000/svg"
   xmlns="http://www.w3.org/2000/svg"
   id="svg4154"
   version="1.1"
   viewBox="0 0 140.00005 75.486237"
   height="75.486237mm"
   width="140.00005mm">
  <defs
     id="defs4148" />
  <metadata
     id="metadata4151">
    <rdf:RDF>
      <cc:Work
         rdf:about="">
        <dc:format>image/svg+xml</dc:format>
        <dc:type
           rdf:resource="http://purl.org/dc/dcmitype/StillImage" />
        <dc:title></dc:title>
      </cc:Work>
    </rdf:RDF>
  </metadata>
  <g
     transform="translate(-34.992167,-89.050158)"
     id="layer1">
    <path
       id="path4761"
       d="m 56.443616,164.42862 c -4.338233,-0.78465 -9.508086,-3.78562 -9.279778,-5.38669 0.09728,-0.68219 0.358864,-0.76431 2.737627,-0.85938 1.446538,-0.0578 2.858089,-0.29435 3.13678,-0.52564 0.297319,-0.24675 1.44721,-0.3944 2.782655,-0.35729 l 2.275946,0.0632 -0.232642,-0.92691 c -0.225537,-0.89862 -0.756482,-1.47792 -2.037949,-2.22359 -0.893694,-0.52002 -0.757471,-1.34413 0.264583,-1.60065 0.48507,-0.12175 0.881945,-0.33207 0.881945,-0.46739 0,-0.54493 -1.556311,-4.84204 -2.005702,-5.53792 -0.264668,-0.40983 -0.582254,-1.83858 -0.705746,-3.175 -0.123492,-1.33641 -0.419447,-2.89636 -0.657677,-3.46656 -0.349166,-0.83573 -0.338908,-1.30383 0.05291,-2.41436 0.416642,-1.18089 0.411052,-1.80774 -0.03914,-4.38935 -0.288859,-1.65644 -0.525199,-3.4029 -0.525199,-3.88102 0,-0.88969 -1.612657,-4.10707 -2.841869,-5.66976 -0.37725,-0.47959 -0.691295,-1.04902 -0.697879,-1.26539 -0.0066,-0.21637 -0.318697,-1.0284 -0.693585,-1.80451 -0.785648,-1.62648 -0.918575,-4.61455 -0.268732,-6.0408 0.348007,-0.76379 0.347394,-0.98853 -0.003,-1.10533 -0.241908,-0.0806 -1.077839,-0.67965 -1.857624,-1.33114 -1.396479,-1.16673 -1.44097,-1.17756 -2.959856,-0.72044 -1.823967,0.54893 -2.032324,0.45149 -2.894847,-1.35376 -0.362442,-0.75859 -0.936797,-1.51265 -1.276346,-1.67569 -0.339548,-0.16305 -0.895173,-0.43159 -1.234722,-0.59676 -0.394614,-0.19196 -0.658111,-0.79656 -0.730303,-1.67569 -0.06213,-0.75646 -0.390011,-1.69289 -0.728634,-2.08094 -1.707313,-1.95655 -2.04205,-3.2648 -1.873854,-7.323593 0.05249,-1.26655 0.263056,-1.83 0.856951,-2.29306 0.433053,-0.33765 1.379194,-1.20922 2.102536,-1.93682 0.723343,-0.72761 1.417743,-1.32292 1.543111,-1.32292 0.125368,0 0.535481,-0.39097 0.911361,-0.86883 0.876988,-1.11491 2.760967,-1.47256 4.655626,-0.88381 0.805902,0.25043 1.755137,0.48345 2.10941,0.51783 0.682161,0.0662 2.789547,2.11112 3.99918,3.88064 0.476013,0.69634 0.797921,1.90299 0.941136,3.52778 0.250961,2.847173 0.915953,4.929643 1.94203,6.081603 0.655333,0.73573 0.979186,0.79891 3.670199,0.71602 2.324923,-0.0716 3.151051,0.0399 3.891761,0.5252 0.517172,0.33886 1.847024,0.95536 2.955223,1.36999 1.62887,0.60944 5.828686,3.49453 9.247745,6.35279 0.26416,0.22083 1.175251,0.93199 2.024648,1.58035 0.849394,0.64836 2.119623,1.81559 2.822734,2.59385 0.70311,0.77826 2.227407,1.99152 3.387322,2.69613 l 2.108938,1.28111 2.583275,-0.7506 c 1.420802,-0.41284 3.511483,-0.75061 4.645963,-0.75061 1.868325,0 2.292763,0.15435 4.504376,1.63801 1.34293,0.9009 3.325609,1.99585 4.405957,2.43323 1.60417,0.64945 2.22295,1.16218 3.37538,2.7969 0.77611,1.10092 1.68892,2.15698 2.02847,2.3468 0.77906,0.43551 0.78952,1.29899 0.026,2.14271 -0.80043,0.88446 -0.43512,1.11647 2.88444,1.83192 1.55223,0.33455 3.06035,0.66663 3.35139,0.73796 0.29104,0.0713 1.48167,0.35943 2.64584,0.64021 2.14113,0.51642 4.52507,1.59568 10.15099,4.59558 1.70249,0.90781 3.54784,1.65057 4.10078,1.65057 0.55295,0 1.7,0.25 2.54901,0.55555 1.25967,0.45334 2.22511,0.50209 5.24783,0.265 4.57107,-0.35854 8.49286,-0.2065 10.58333,0.4103 0.87313,0.25762 2.97775,1.11716 4.67693,1.91009 3.8691,1.80552 8.28258,2.97896 10.96059,2.91416 2.34642,-0.0568 2.70694,-0.20156 2.70694,-1.08707 0,-0.5594 -0.45035,-0.65856 -3.79237,-0.83507 -2.08579,-0.11016 -4.34798,-0.39249 -5.02708,-0.62741 -0.6791,-0.23491 -1.9491,-0.66461 -2.82222,-0.95487 -1.57626,-0.52402 -3.79001,-1.47296 -7.29477,-3.12695 -2.41606,-1.1402 -4.25675,-1.30235 -10.16773,-0.89568 -2.7961,0.19238 -5.16847,0.20741 -5.46806,0.0346 -0.40523,-0.23368 -0.3226,-0.31232 0.35278,-0.33579 0.48507,-0.0169 2.23132,-0.14074 3.88056,-0.27531 1.64923,-0.13457 4.50673,-0.24467 6.35,-0.24467 3.28764,0 3.41849,0.0325 6.87916,1.71079 1.94028,0.94093 4.95653,2.21093 6.70278,2.82222 3.12687,1.09459 3.26492,1.11024 9.10595,1.03262 l 5.93094,-0.0788 0.49411,1.18256 c 0.27176,0.65041 0.72984,1.27303 1.01797,1.3836 1.11491,0.42783 1.68017,2.36396 1.83558,6.28725 0.10638,2.68548 0.36723,4.41863 0.86544,5.75023 0.63918,1.70835 0.6621,2.02835 0.22095,3.08419 -0.57201,1.36901 -2.81174,3.46011 -3.70604,3.46011 -0.60646,0 -2.53573,-1.89955 -2.53573,-2.49666 0,-0.1691 0.48701,-0.55929 1.08224,-0.86709 l 1.08224,-0.55965 -2.66974,-2.94067 c -1.46836,-1.61737 -2.66974,-3.11177 -2.66974,-3.3209 0,-0.47869 -1.50451,-1.26551 -3.3894,-1.77258 -1.59866,-0.43007 -7.60907,-0.93883 -14.98886,-1.26875 -2.63797,-0.11794 -5.65422,-0.44275 -6.70278,-0.72182 -2.33387,-0.62115 -5.33721,-0.66031 -6.91395,-0.0901 -1.00413,0.3631 -1.33515,0.33221 -2.25341,-0.21021 -1.18777,-0.70164 -5.37121,-0.90026 -10.90716,-0.51786 -1.64923,0.11393 -4.87968,0.0602 -7.17876,-0.11943 -3.46775,-0.27091 -4.88063,-0.5728 -8.29028,-1.7714 -2.26057,-0.79466 -4.55171,-1.44254 -5.091438,-1.43973 -0.55648,0.003 -1.551391,0.46323 -2.298162,1.06336 -2.699487,2.16936 -3.869728,1.95763 -5.208576,-0.94241 -0.525611,-1.1385 -1.41363,-2.4086 -1.973376,-2.82244 -0.978859,-0.72371 -7.408368,-2.83772 -8.630549,-2.83772 -0.326419,0 -1.429526,-0.86318 -2.451351,-1.91818 -2.137893,-2.2073 -3.700829,-3.07326 -6.678891,-3.70051 -1.164167,-0.2452 -2.481322,-0.58943 -2.927015,-0.76495 -0.445692,-0.17553 -1.1104,-0.31914 -1.477126,-0.31914 -0.572555,0 -0.636676,0.1855 -0.453761,1.31268 0.117161,0.72197 0.840067,2.66666 1.606459,4.32153 l 1.39344,3.00885 -0.270595,3.175 c -0.148826,1.74625 -0.314434,4.445 -0.368017,5.99722 -0.05358,1.55222 -0.109079,3.02958 -0.123321,3.28303 -0.04352,0.77442 -3.104469,1.91103 -4.784661,1.77668 l -1.510898,-0.12082 -0.153353,2.64997 c -0.195184,3.37284 -0.832626,4.4364 -2.860177,4.77217 -0.812091,0.13448 -1.714655,0.35553 -2.005697,0.49122 -0.291042,0.13568 -1.164167,0.13185 -1.940278,-0.009 z m 4.934218,-2.22366 c 0.796431,-0.79643 0.848745,-1.10687 0.906533,-5.37986 0.03373,-2.49406 0.08199,-5.56653 0.107248,-6.82771 0.04686,-2.34021 -0.587929,-5.02606 -1.423776,-6.02412 -1.000975,-1.19524 -1.185181,-3.96053 -0.636083,-9.5487 0.22907,-2.3312 0.131139,-3.23906 -0.723018,-6.70277 -1.217391,-4.93667 -1.276401,-8.92564 -0.121482,-8.21186 0.192676,0.11908 0.245508,0.68718 0.117926,1.26805 -0.12712,0.57878 -0.135032,1.55586 -0.01757,2.17128 0.184976,0.96924 0.460936,1.20612 2.062558,1.77047 1.016956,0.35834 2.632784,0.84434 3.590727,1.08001 1.858373,0.45719 2.607973,1.26708 1.172746,1.26708 -0.888174,0 -3.760219,-0.84079 -5.118791,-1.49852 -0.43627,-0.21121 -0.861914,-0.31533 -0.945871,-0.23137 -0.08396,0.084 0.03485,1.10284 0.264054,2.26419 0.406061,2.05763 0.462326,2.13405 2.203859,2.99348 0.982941,0.48507 2.332316,1.09078 2.998611,1.34602 0.666298,0.25525 1.48711,0.61243 1.824027,0.79375 0.336917,0.18132 1.376729,0.32967 2.310694,0.32967 0.933965,0 1.848933,0.13857 2.03326,0.30793 0.476045,0.43738 5.450416,0.78434 5.450416,0.38016 0,-0.18106 -0.555625,-1.05711 -1.234722,-1.94678 -0.679097,-0.88966 -1.233745,-1.88322 -1.232549,-2.20791 0.0014,-0.40465 0.147077,-0.31293 0.462848,0.2916 0.769571,1.47333 1.718275,2.82223 1.984918,2.82223 0.13867,0 0.518905,-1.24147 0.844967,-2.75883 0.64063,-2.98121 2.07222,-5.6315 3.573152,-6.61495 1.24533,-0.81597 1.647461,-0.2742 0.500394,0.67415 -1.431495,1.1835 -2.263814,2.65649 -1.776448,3.14385 0.612041,0.61204 0.53903,1.51989 -0.08086,1.00543 -0.381932,-0.31698 -0.526052,-0.25055 -0.672656,0.31006 -0.102616,0.39242 -0.04129,0.62369 0.136285,0.51394 0.177575,-0.10974 0.470207,0.16785 0.650293,0.61688 0.298285,0.74373 0.331904,0.7536 0.377645,0.11086 0.02762,-0.38806 0.130285,-0.50712 0.228149,-0.26459 0.09786,0.24254 0.660396,0.44097 1.250068,0.44097 0.856908,0 0.993256,-0.095 0.679217,-0.47343 -0.216101,-0.26038 -0.275227,-0.60132 -0.131389,-0.75764 0.143835,-0.15632 -0.09491,-0.19646 -0.530549,-0.0892 -0.692887,0.17059 -0.765263,0.0882 -0.57797,-0.65805 0.120872,-0.48158 0.01912,-1.08801 -0.233669,-1.3926 -0.339164,-0.40866 -0.348718,-0.63859 -0.03939,-0.94791 0.22461,-0.22462 0.410813,-0.25758 0.413784,-0.0733 0.0028,0.18433 0.141058,0.12108 0.306856,-0.14054 0.165799,-0.26163 0.588596,-0.42038 0.939546,-0.35278 0.597366,0.11506 0.600297,0.1607 0.04592,0.71507 -0.325691,0.32569 -0.592169,0.68288 -0.592169,0.79375 0,0.40001 1.357147,0.19106 1.554847,-0.23939 0.11139,-0.24253 0.107611,-0.0639 -0.0084,0.39696 -0.141909,0.56374 -0.08312,0.75894 0.179645,0.59654 0.502451,-0.31053 0.507481,-1.84974 0.0071,-2.15902 -0.246242,-0.15219 -0.26174,-0.35881 -0.0433,-0.57725 0.218444,-0.21844 0.04004,-0.6404 -0.498429,-1.17887 -0.461268,-0.46126 -0.838659,-1.24006 -0.838659,-1.73068 0,-0.70847 -0.34484,-1.06877 -1.675694,-1.75085 -0.921632,-0.47234 -2.469445,-1.68017 -3.439584,-2.68407 -2.484384,-2.57085 -12.065744,-9.69467 -13.758333,-10.22944 -0.776111,-0.24521 -2.046111,-0.79934 -2.822222,-1.2314 -1.203664,-0.67008 -1.787271,-0.76095 -3.969822,-0.61811 -2.017747,0.13206 -2.751971,0.0408 -3.472811,-0.43148 -0.561743,-0.36807 -1.241255,-0.51683 -1.762817,-0.38593 -0.918936,0.23064 -1.186934,-0.30071 -0.31955,-0.63355 0.902122,-0.34618 0.561771,-2.69465 -0.390521,-2.69465 -0.270283,0 -0.491423,0.15875 -0.491423,0.35278 0,0.19402 -0.386178,0.35277 -0.858172,0.35277 -0.548341,0 -0.93902,0.25473 -1.082106,0.70556 -0.123164,0.38805 -0.436256,0.70555 -0.695759,0.70555 -0.349356,0 -0.421062,-0.37846 -0.276254,-1.45809 0.154656,-1.15304 0.09228,-1.42168 -0.298152,-1.28403 -0.271548,0.0957 -0.455908,0.51375 -0.409689,0.92893 0.04622,0.41517 -0.0564,0.75486 -0.228038,0.75486 -0.482754,0 -2.50183,-2.429903 -2.50183,-3.010893 0,-0.74025 0.703288,-0.64167 0.716775,0.10047 0.01042,0.5733 0.04634,0.57102 0.503259,-0.032 0.333821,-0.44055 0.727247,-0.57471 1.223503,-0.4172 0.460935,0.14629 0.731463,0.0766 0.731463,-0.18849 0,-0.27924 0.35578,-0.34949 1.058333,-0.20898 1.089929,0.21798 1.501938,-0.32817 0.529167,-0.70146 -0.291042,-0.11168 -0.529167,-0.52209 -0.529167,-0.91201 0,-0.55656 -0.166679,-0.66537 -0.775393,-0.50619 -0.426466,0.11152 -0.985927,0.028 -1.243247,-0.18552 -0.25732,-0.21355 -0.561174,-0.29496 -0.675231,-0.1809 -0.114057,0.11405 -1.03587,-0.2602 -2.048472,-0.83168 -1.012602,-0.57148 -2.096702,-1.03905 -2.409112,-1.03905 -1.220909,0 -0.907342,-0.69319 0.482907,-1.06755 1.044101,-0.28115 1.575663,-0.28589 1.845089,-0.0165 0.759948,0.75995 1.260488,0.44672 0.821518,-0.51409 -0.332012,-0.7267 -0.571655,-0.84906 -1.289726,-0.65851 -0.485069,0.12871 -1.564526,0.27017 -2.398794,0.31435 -1.174213,0.0622 -1.761406,0.33046 -2.599498,1.18768 -0.595457,0.60905 -0.929666,1.10736 -0.742688,1.10736 0.186979,0 0.63069,-0.32125 0.986024,-0.71389 0.480686,-0.53115 0.743014,-0.61017 1.024815,-0.30868 0.271432,0.29039 0.253801,0.45102 -0.06222,0.5669 -0.621434,0.22786 -0.550545,1.16123 0.0882,1.16123 0.291041,0 0.529166,-0.15875 0.529166,-0.35278 0,-0.50723 0.434502,-0.44429 2.646659,0.38338 1.732327,0.64815 1.939115,0.82741 1.729574,1.49931 -0.130897,0.41973 -0.397037,0.86529 -0.591422,0.99014 -0.235116,0.15101 -0.224565,1.09521 0.03152,2.820613 0.37713,2.54094 0.184329,3.4599 -0.621419,2.96192 -0.240435,-0.1486 -0.30808,-0.70352 -0.173322,-1.42185 0.12156,-0.64797 0.06623,-1.45472 -0.122962,-1.79278 -0.316386,-0.565353 -0.377009,-0.552953 -0.755675,0.15459 -0.226431,0.42309 -0.315608,0.92473 -0.19817,1.11475 0.117437,0.19001 0.01595,0.34548 -0.225532,0.34548 -0.576618,0 -2.072029,-1.41501 -2.072029,-1.960623 0,-0.23459 -0.338119,-0.51495 -0.751375,-0.62302 -0.554459,-0.14499 -0.68629,-0.3638 -0.503029,-0.8349 0.438645,-1.12759 0.38625,-1.34634 -0.294364,-1.22894 -0.572331,0.0987 -0.635571,-0.0412 -0.446284,-0.98768 0.137289,-0.68644 0.08938,-1.02163 -0.126927,-0.88794 -0.191106,0.11811 -0.347466,0.59121 -0.347466,1.05133 0,0.59899 -0.225435,0.86861 -0.79375,0.94932 -1.045801,0.14853 -1.223653,1.64018 -0.440168,3.691713 0.488664,1.27955 0.743974,1.5372 1.527679,1.5417 1.456885,0.008 1.900343,0.44518 1.613245,1.58907 -0.225427,0.89817 -0.04209,1.18484 1.82674,2.85623 1.974611,1.76601 2.109806,1.82846 2.734445,1.26317 0.493026,-0.44618 0.613497,-0.91999 0.482411,-1.89732 -0.09609,-0.71644 -0.08308,-1.39426 0.02893,-1.50627 0.199135,-0.19913 1.659624,2.10227 2.680126,4.22327 0.560161,1.16423 1.877172,2.50833 2.170434,2.21506 0.101252,-0.10125 0.02091,-0.61332 -0.178552,-1.13793 -0.199456,-0.52461 -0.362055,-1.45944 -0.361329,-2.0774 0.0016,-1.30985 1.250288,-3.55683 1.790985,-3.22266 0.243288,0.15036 0.190344,0.42863 -0.154338,0.81121 -0.78561,0.87197 -1.119075,2.542 -0.57475,2.87841 0.651514,0.40266 0.541722,4.59609 -0.155642,5.94464 -0.737865,1.42687 -0.664328,4.46242 0.150759,6.22317 l 0.653229,1.41111 0.02616,-2.73402 c 0.01439,-1.50372 0.168105,-2.73403 0.341588,-2.73403 0.405059,0 0.697312,5.7534 0.306099,6.02598 -0.16194,0.11283 0.333436,1.14539 1.100835,2.29458 1.179141,1.76578 1.458672,2.55249 1.804569,5.07878 0.451025,3.2941 1.373327,5.68927 2.492642,6.47327 0.8082,0.56609 1.887139,3.63187 1.386954,3.94101 -0.331465,0.20486 -1.056522,-0.89502 -1.056522,-1.6027 0,-0.22728 -0.396392,-0.88432 -0.880871,-1.46009 l -0.88087,-1.04686 -0.390385,0.99593 c -0.28692,0.73198 -0.283281,1.55692 0.01373,3.1126 0.222263,1.16417 0.486188,2.81928 0.5865,3.67803 0.100313,0.85875 0.345664,1.86645 0.545225,2.23933 1.064519,1.98908 3.123338,10.0683 3.123338,12.25662 0,0.36279 0.347609,0.9031 0.772466,1.20068 0.424854,0.29758 0.679203,0.63432 0.565214,0.7483 -0.390201,0.39021 -2.748792,-0.26144 -2.748792,-0.75944 0,-0.26945 -0.22114,-0.48991 -0.491423,-0.48991 -0.270283,0 -0.5828,-0.23813 -0.694484,-0.52917 -0.307336,-0.8009 -1.870782,-0.63499 -3.324423,0.35278 l -1.297898,0.88194 h 1.493003 c 0.885133,0 1.493003,0.16426 1.493003,0.40344 0,0.28608 -0.744037,0.33877 -2.557639,0.18114 -2.937401,-0.2553 -2.588761,0.29739 0.464801,0.73684 1.048499,0.15089 1.927447,0.47547 2.017268,0.74493 0.121864,0.36559 -0.119367,0.42543 -1.029155,0.25526 l -1.18833,-0.22225 1.058333,0.50917 c 0.639948,0.30788 2.215232,0.5205 3.984785,0.53782 2.637605,0.0258 3.009874,-0.0548 3.771655,-0.81655 z m 12.748567,-30.56418 c -0.788691,-0.93731 -1.230351,-2.1045 -0.796332,-2.1045 0.2528,0 2.037376,2.8896 1.881092,3.04588 -0.0874,0.0874 -0.575546,-0.33622 -1.08476,-0.94138 z M 55.91445,131.7486 c 0,-0.17375 0.3175,-0.97306 0.705555,-1.77624 0.388056,-0.80318 0.705556,-1.85551 0.705556,-2.3385 0,-0.48299 0.15875,-0.97628 0.352777,-1.09619 0.61939,-0.38281 0.388564,2.7665 -0.296376,4.04364 -0.621434,1.15873 -1.467512,1.83172 -1.467512,1.16729 z m 20.935625,-2.40393 c -0.114896,-0.29941 -0.120474,-0.6328 -0.01238,-0.74088 0.308931,-0.30893 0.948997,0.21507 0.948997,0.77692 0,0.67693 -0.672945,0.65104 -0.936597,-0.036 z m -13.163296,-0.42575 c 0.0062,-0.14553 0.244299,-0.57274 0.529167,-0.94938 0.502796,-0.66475 0.531936,-0.66565 0.996099,-0.0309 0.29275,0.40035 0.703122,0.56758 1.058334,0.43127 0.376086,-0.14431 0.580182,-0.0404 0.580182,0.29546 0,0.60886 -0.485617,0.66063 -1.434303,0.15291 -0.470369,-0.25174 -0.682364,-0.25174 -0.682364,0 0,0.20085 -0.238125,0.36519 -0.529167,0.36519 -0.291041,0 -0.524118,-0.11907 -0.517948,-0.26459 z m -1.549905,-0.97014 c -0.111682,-0.29104 -0.06628,-0.52917 0.100906,-0.52917 0.167177,0 0.395336,0.23813 0.507022,0.52917 0.111683,0.29104 0.06628,0.52916 -0.100905,0.52916 -0.167178,0 -0.395337,-0.23812 -0.507023,-0.52916 z m 10.520014,-0.19986 c -0.127893,-0.20694 -0.14411,-0.46468 -0.03603,-0.57275 0.290209,-0.29021 1.285261,0.16281 1.285261,0.58515 0,0.47881 -0.95148,0.46936 -1.249228,-0.0124 z m 2.523147,-0.35346 c -1.188656,-0.63708 -1.658154,-0.69192 -3.698942,-0.43207 -2.481728,0.316 -3.572199,0.24055 -3.572199,-0.24717 0,-0.40936 1.557556,-0.7095 3.880555,-0.74778 2.062879,-0.034 5.306949,0.96785 5.5563,1.7159 0.216567,0.64971 -0.623627,0.53764 -2.165714,-0.28888 z m 3.839898,-7.21844 c -1.708407,-0.87898 -4.13477,-2.40647 -5.391915,-3.39442 -3.333387,-2.61961 -7.358807,-4.96952 -10.434348,-6.09123 -2.882011,-1.05113 -3.990884,-1.87273 -1.943495,-1.44 3.21952,0.68047 9.054719,3.69075 13.008719,6.71098 1.067153,0.81514 3.32934,2.31455 5.027083,3.33204 1.697743,1.01749 3.086806,1.99191 3.086806,2.16537 0,0.45 0.05832,0.47232 -3.35285,-1.28274 z m -10.005211,-2.32883 c -1.461943,-1.98793 -5.155713,-5.09288 -7.191245,-6.0449 -0.921632,-0.43104 -1.675694,-0.98308 -1.675694,-1.22675 0,-0.24367 0.0857,-0.44304 0.190443,-0.44304 0.522609,0 3.373741,1.65403 5.027987,2.9169 1.837432,1.40271 5.364903,5.30397 5.364903,5.93339 0,0.70944 -0.700253,0.24614 -1.716394,-1.1356 z M 51.05236,115.72344 c 0.08693,-0.26106 0.440997,-0.52951 0.786813,-0.59655 0.402172,-0.078 0.571797,0.0492 0.4707,0.35278 -0.08693,0.26106 -0.440997,0.52951 -0.786813,0.59655 -0.402173,0.078 -0.571798,-0.0492 -0.4707,-0.35278 z m 0.872971,-1.93554 c -0.135165,-0.13517 -0.02056,-0.49676 0.254668,-0.80355 0.275232,-0.30679 0.553391,-1.0218 0.61813,-1.58892 0.06474,-0.56712 0.33764,-1.10345 0.606445,-1.19185 0.387036,-0.12728 0.436936,0.12399 0.239805,1.20752 -0.254943,1.40129 -1.278862,2.81699 -1.719048,2.3768 z m 14.138433,-3.68167 c -2.066735,-0.81822 -4.50487,-2.33331 -4.50487,-2.79938 0,-0.5556 0.483373,-0.41114 1.749185,0.52275 0.64939,0.4791 2.188358,1.20642 3.419927,1.61626 1.231571,0.40984 2.239221,0.89097 2.239221,1.06918 0,0.47945 -1.023994,0.33527 -2.903463,-0.40881 z m -8.445908,-1.75703 c -0.518335,-0.38699 -1.07396,-0.66491 -1.234722,-0.6176 -0.526136,0.15483 -2.585351,-0.72731 -2.585351,-1.10753 0,-0.51185 0.252698,-0.47689 2.654289,0.3672 2.585308,0.90866 3.342933,1.30381 3.342933,1.74353 0,0.56882 -1.178317,0.36013 -2.177149,-0.3856 z m -7.347851,-1.51061 c 0,-0.51693 2.077832,-2.50596 2.34194,-2.24185 0.07517,0.0752 -0.421011,0.728 -1.102631,1.45072 -0.739226,0.78381 -1.239309,1.10304 -1.239309,0.79113 z m -3.175,-9.581483 c -0.476706,-0.57439 -0.362679,-0.6462 0.500314,-0.31503 0.306911,0.11777 0.558019,0.35589 0.558019,0.52916 0,0.48798 -0.571623,0.37232 -1.058333,-0.21413 z M 172.94902,161.90364 c 1.2263,-1.31378 1.28162,-2.40184 0.28287,-5.56345 -0.59327,-1.87803 -0.90133,-3.61277 -0.86856,-4.89108 0.0626,-2.44349 -0.31118,-4.47907 -0.91446,-4.97975 -0.31109,-0.25818 -1.85055,-0.2896 -4.85221,-0.099 -6.01498,0.38189 -8.71037,-0.13707 -15.07944,-2.90336 -1.64923,-0.71632 -3.62971,-1.52998 -4.40105,-1.80812 -1.56461,-0.5642 -7.35656,-0.65667 -11.11332,-0.17742 -1.3245,0.16896 -2.8076,0.15355 -3.52778,-0.0367 -0.68341,-0.18049 -2.21942,-0.55045 -3.41336,-0.82213 -1.19393,-0.27168 -4.44831,-1.65187 -7.23195,-3.0671 -4.14694,-2.10835 -5.82582,-2.75193 -9.29448,-3.56294 -2.32833,-0.54439 -5.01477,-1.22632 -5.96985,-1.5154 -1.3517,-0.40913 -1.90541,-0.43521 -2.49862,-0.11774 -0.90379,0.4837 -3.02511,4.05753 -3.84591,6.47927 -0.767268,2.26383 -1.179128,3.0337 -2.221536,4.1526 -0.477274,0.51229 -0.717233,1.02448 -0.533245,1.13819 0.183987,0.11371 2.697311,1.0058 5.585171,1.98243 4.69292,1.58707 5.77835,1.81982 10.21846,2.19116 3.55212,0.29707 6.09176,0.31373 8.91188,0.0585 3.47956,-0.31494 4.05783,-0.46334 4.90997,-1.25999 0.8598,-0.80381 1.14029,-0.87359 2.5534,-0.63526 1.56295,0.26359 1.51429,0.32089 -0.47026,0.55378 -1.14151,0.13395 -2.08392,0.79086 -1.79809,1.25335 0.10633,0.17204 0.82684,0.31281 1.60114,0.31281 0.77429,0 1.83648,0.21315 2.36043,0.47367 0.75603,0.37593 1.28021,0.39024 2.54012,0.0693 1.21646,-0.30983 1.46382,-0.48259 1.05833,-0.73917 -0.822,-0.52011 -2.28104,-2.27329 -1.89191,-2.27329 0.19127,0 0.7269,0.35323 1.1903,0.78495 1.07574,1.0022 5.98335,2.58709 8.87708,2.86681 1.22731,0.11863 4.93022,0.37551 8.2287,0.57083 9.37977,0.55543 11.96826,1.05605 13.91053,2.69036 0.99952,0.84104 1.09727,0.86077 1.29595,0.26155 0.11819,-0.35646 0.43602,-1.14835 0.70628,-1.75976 0.27027,-0.6114 0.49623,-1.80203 0.50213,-2.64583 0.009,-1.27366 0.0756,-1.4225 0.39287,-0.8765 0.44248,0.76152 0.16003,3.48275 -0.58636,5.64916 -0.49172,1.42721 -0.48377,1.46094 0.6106,2.59004 0.60984,0.62919 1.63618,1.31804 2.28076,1.53077 1.18294,0.39041 1.46774,0.81318 0.81823,1.2146 -0.23646,0.14614 -0.23646,0.43775 0,0.87957 0.49896,0.93233 0.43906,1.52113 -0.13245,1.30182 -0.55712,-0.21379 -1.27771,0.38603 -1.27771,1.06358 0,0.79715 2.25939,0.55189 3.08735,-0.33514 z m -6.38464,-12.33579 c -0.27064,-1.03493 -0.0267,-1.21357 0.44744,-0.32764 0.21514,0.402 0.24518,0.79911 0.0687,0.90819 -0.17249,0.10661 -0.40475,-0.15464 -0.51613,-0.58055 z m -9.6852,-1.32957 c -0.64043,-0.15167 -1.27543,-0.39588 -1.41111,-0.54268 -0.13567,-0.1468 0.22957,-0.14599 0.81165,0.002 0.58209,0.14779 1.93146,0.38744 2.99862,0.53254 1.93482,0.26308 1.93581,0.26385 0.35277,0.27397 -0.87312,0.006 -2.11149,-0.11396 -2.75193,-0.26563 z m -18.41473,-0.88673 c -0.55666,-0.67073 -0.065,-0.67538 1.4588,-0.0138 l 1.18703,0.51536 -1.10333,0.0138 c -0.60683,0.008 -1.30096,-0.22431 -1.5425,-0.51536 z m 8.42993,-0.20029 c -2.57069,-0.37792 -6.66604,-2.01827 -6.66604,-2.67 0,-0.38781 0.22099,-0.34401 0.97013,0.19231 1.24869,0.89394 2.8667,1.29605 7.79902,1.93819 2.20366,0.28689 4.09543,0.6104 4.20394,0.71891 0.28399,0.28399 -3.97999,0.1627 -6.30705,-0.17941 z m -33.30077,-1.26836 c -1.81538,-0.21993 -7.35086,-1.57892 -8.59853,-2.11098 -2.63237,-1.12255 -0.025,-0.92186 2.98086,0.22943 0.40278,0.15427 1.99028,0.46431 3.52778,0.68897 1.5375,0.22466 3.3158,0.4868 3.95178,0.58254 0.63598,0.0957 1.06318,0.3248 0.94932,0.50902 -0.20467,0.33116 -0.7499,0.35075 -2.81121,0.10102 z m 20.10834,-0.82674 c -1.92158,-0.29098 -3.70417,-0.99618 -3.70417,-1.4654 0,-0.39961 0.48606,-0.37453 0.90741,0.0468 0.18864,0.18863 1.60945,0.52657 3.15736,0.75097 3.11781,0.452 4.67355,1.02286 2.63801,0.96799 -0.6791,-0.0183 -2.02847,-0.15348 -2.99861,-0.30038 z m -14.64028,-5.5256 c -2.52769,-0.9496 -3.01442,-1.28401 -2.67296,-1.8365 0.15061,-0.24369 0.61668,-0.15732 1.36273,0.25256 0.62361,0.3426 1.88626,0.90481 2.80589,1.24935 1.76346,0.66068 2.51042,1.30392 1.43558,1.23623 -0.351,-0.0221 -1.67006,-0.42784 -2.93124,-0.90164 z m -50.590822,15.24415 c 0.25492,-0.34863 0.392585,-1.41632 0.334782,-2.59652 -0.054,-1.10242 0.110406,-3.19504 0.365333,-4.65025 0.571825,-3.26416 0.373292,-4.73308 -1.096652,-8.11389 -0.63271,-1.4552 -1.285952,-3.42421 -1.451648,-4.37557 -0.1657,-0.95136 -0.539394,-1.843 -0.830436,-1.98142 -0.538296,-0.25604 -2.496224,-0.95947 -3.615972,-1.29914 -0.921872,-0.27964 -0.767302,0.68951 0.264583,1.65891 0.995599,0.93532 1.121569,1.41111 0.373599,1.41111 -0.27959,0 -0.587639,0.1283 -0.684551,0.28511 -0.162631,0.26314 1.17402,4.3444 3.449235,10.53172 1.05766,2.87625 1.526985,6.78552 0.826276,6.88253 -0.240231,0.0333 -0.992406,0.0749 -1.671503,0.0925 -0.988508,0.0257 -1.256714,0.18577 -1.345015,0.80288 -0.100093,0.69952 0.006,0.75196 1.146528,0.56687 1.644107,-0.2668 1.659816,0.4062 0.02208,0.9467 -1.945411,0.64204 -1.448322,0.94067 1.122832,0.67455 1.584942,-0.16405 2.499441,-0.43806 2.790511,-0.83612 z m -2.678621,-3.51954 c 0,-1.13324 -1.098927,-5.77125 -1.718994,-7.255 -0.364882,-0.87313 -0.935129,-2.46063 -1.267217,-3.52778 -1.038094,-3.33591 -1.329707,-3.96496 -1.620185,-3.49496 -0.147256,0.23827 -0.143047,0.68554 0.0093,0.99395 0.546368,1.10563 1.069446,3.09881 1.079535,4.11355 0.0056,0.56831 0.318527,2.14454 0.695283,3.50274 0.376756,1.35819 0.689635,3.30288 0.695283,4.32152 0.01009,1.82041 0.02836,1.85209 1.068606,1.85209 0.684121,0 1.058333,-0.17895 1.058333,-0.50611 z m 104.371213,-6.38085 c 0.076,-0.076 0.0442,-0.38314 -0.0707,-0.68255 -0.1541,-0.40159 -0.73063,-0.54438 -2.19799,-0.54438 -1.66886,0 -1.95462,0.0898 -1.77496,0.55802 0.11777,0.30691 0.21413,0.72423 0.21413,0.92739 0,0.34046 3.46445,0.10662 3.82955,-0.25848 z m -74.385102,-0.91579 c 0,-0.19403 -0.15875,-0.25467 -0.352778,-0.13475 -0.194027,0.11991 -0.352777,0.37677 -0.352777,0.5708 0,0.19403 0.15875,0.25467 0.352777,0.13475 0.194028,-0.11991 0.352778,-0.37678 0.352778,-0.5708 z m -1.688119,-4.12631 c -0.09375,-0.52103 -0.309287,-1.12402 -0.478974,-1.33997 -0.214799,-0.27337 -0.03967,-0.34125 0.57651,-0.22346 0.612958,0.11717 0.886689,0.40055 0.890429,0.92181 0.0041,0.57201 0.08012,0.63463 0.316748,0.26093 0.31005,-0.48964 0.0025,-1.89069 -0.763337,-3.47653 -0.210661,-0.43627 -0.287514,-0.88873 -0.170776,-1.00546 0.447484,-0.44749 0.892598,0.26433 1.122041,1.79434 0.155812,1.03904 0.414966,1.59184 0.74626,1.59184 0.557515,0 0.689514,-1.07338 0.197389,-1.60514 -0.170589,-0.18432 -0.500397,-0.93045 -0.732913,-1.65805 -0.408358,-1.27787 -1.044275,-1.78706 -1.101443,-0.88195 -0.0223,0.35278 -0.06344,0.35278 -0.205786,0 -0.09786,-0.24253 -0.402833,-0.44097 -0.677704,-0.44097 -0.274873,0 -0.501935,-0.19844 -0.504585,-0.44097 -0.0028,-0.24254 -0.107544,-0.82494 -0.233094,-1.29423 -0.182436,-0.6819 -0.116487,-0.81035 0.328397,-0.63963 0.618254,0.23724 0.967846,-0.38077 0.967846,-1.71097 0,-1.14719 0.563404,-1.08132 1.001085,0.11705 0.583042,1.59637 0.455358,-0.006 -0.139623,-1.75203 -0.415554,-1.21959 -0.759816,-1.65331 -1.411111,-1.77781 -0.65217,-0.12467 -0.861462,-0.0123 -0.861462,0.46256 0,0.34498 0.198437,0.71984 0.440972,0.83302 0.352778,0.16463 0.352778,0.24695 0,0.41157 -0.242535,0.11319 -0.440972,0.77465 -0.440972,1.46991 0,1.34007 -0.410094,1.33995 -0.558737,-1.7e-4 -0.04841,-0.43647 -0.121094,-0.83327 -0.161519,-0.88177 -0.04042,-0.0485 -0.09334,-0.2734 -0.117591,-0.49977 -0.02424,-0.22637 -0.282222,-0.47658 -0.573264,-0.55603 -0.428198,-0.11688 -0.43784,-0.0804 -0.05053,0.19109 0.3755,0.26324 0.384073,0.39399 0.03979,0.60676 -0.270316,0.16707 -0.701915,-0.0531 -1.123851,-0.57326 l -0.685007,-0.84449 0.223728,1.05834 c 0.123053,0.58208 0.612655,1.34998 1.088006,1.70644 0.475354,0.35646 0.769952,0.80073 0.654664,0.98727 -0.128679,0.20821 -0.4018,0.17965 -0.707373,-0.0739 -0.393707,-0.32675 -0.497758,-0.29345 -0.497758,0.15926 0,0.3148 0.185938,0.57237 0.413194,0.57237 0.762166,0 1.703582,1.15887 1.692254,2.08314 -0.01027,0.83755 -0.05121,0.86279 -0.481006,0.29654 -0.721081,-0.94999 -2.576071,-1.4963 -3.232068,-0.95187 -0.443703,0.36824 -0.711627,0.27399 -1.576451,-0.55457 -0.573042,-0.54901 -1.151026,-0.88907 -1.284408,-0.75569 -0.133378,0.13338 0.0634,0.46721 0.437293,0.74184 0.670662,0.49262 0.670694,0.51483 0.0021,1.65199 -0.468165,0.79644 -0.549928,1.1952 -0.264584,1.29031 0.227133,0.0757 0.412969,0.43256 0.412969,0.793 0,0.36043 0.183758,0.7689 0.408347,0.9077 0.282427,0.17455 0.34405,0.007 0.199835,-0.54498 -0.181254,-0.69312 -0.09627,-0.77591 0.649986,-0.63326 0.665871,0.12729 0.858499,0.0137 0.858499,-0.50626 0,-0.64375 0.03066,-0.64181 0.772075,0.0489 0.424642,0.39561 0.879866,0.7193 1.011608,0.7193 0.131741,0 0.204357,0.62343 0.16136,1.38541 -0.04299,0.76198 0.05498,1.59542 0.217714,1.85208 0.236107,0.37239 0.30227,0.35976 0.327501,-0.0625 0.192514,-3.22209 0.888926,-3.31242 1.794954,-0.23283 0.733429,2.49291 1.473698,3.17952 1.082224,1.00377 z m -3.027539,-4.83303 c -0.31019,-0.80834 -0.278737,-1.22958 0.0918,-1.22958 0.473001,0 0.812631,1.13011 0.448931,1.49381 -0.18815,0.18815 -0.408449,0.0805 -0.540734,-0.26423 z m 7.382104,5.74657 c 0.119585,-0.11959 0.278248,-0.84893 0.352598,-1.62076 0.1209,-1.25525 0.0614,-1.38405 -0.563852,-1.22055 -0.722312,0.18889 -1.097276,1.12924 -0.972132,2.43797 0.06682,0.69879 0.67921,0.90751 1.183386,0.40334 z m -11.838668,-1.64674 c 0,-0.17327 -0.260579,-0.41503 -0.579064,-0.53724 -0.48418,-0.1858 -0.506003,-0.13418 -0.133194,0.31503 0.508046,0.61216 0.712258,0.67587 0.712258,0.22221 z m -2.474845,-1.00788 c -0.0028,-0.14552 -0.13963,-0.47633 -0.303686,-0.73514 -0.243131,-0.38355 -0.335477,-0.37361 -0.499459,0.0537 -0.110645,0.28834 -0.106278,0.61915 0.0097,0.73513 0.296658,0.29666 0.799896,0.2626 0.79344,-0.0537 z m 1.30472,-1.21268 c -0.112614,-0.28142 -0.196208,-0.19783 -0.213134,0.21314 -0.01531,0.37189 0.06806,0.58025 0.185286,0.46302 0.117224,-0.11723 0.129755,-0.4215 0.02783,-0.67616 z m 3.872893,-0.0891 c -0.118978,-0.31005 -0.436732,-0.45013 -0.749138,-0.33025 -0.72614,0.27865 -0.687613,0.75425 0.07484,0.92385 0.798372,0.17758 0.926832,0.0645 0.674296,-0.5936 z m -8.69999,-0.17673 c 0,-0.18257 -0.15875,-0.43007 -0.352778,-0.54998 -0.194028,-0.11992 -0.352778,0.0294 -0.352778,0.33195 0,0.3025 0.15875,0.54999 0.352778,0.54999 0.194028,0 0.352778,-0.14938 0.352778,-0.33196 z m 0.593764,-0.43974 c -0.112614,-0.28142 -0.196208,-0.19783 -0.213135,0.21314 -0.01531,0.37188 0.06806,0.58024 0.185286,0.46302 0.117225,-0.11723 0.129756,-0.4215 0.02783,-0.67616 z m 16.625559,-1.23651 c 0.06609,-0.46202 -0.144025,-0.90151 -0.529167,-1.10687 -0.556944,-0.29698 -0.642232,-0.18525 -0.665822,0.87216 -0.02057,0.92231 0.106158,1.18741 0.529167,1.10688 0.305922,-0.0582 0.605543,-0.45072 0.665822,-0.87217 z m -19.561193,0.0679 c -0.111686,-0.29104 -0.02734,-0.52916 0.187459,-0.52916 0.214789,0 0.390522,-0.23813 0.390522,-0.52917 0,-0.52019 -0.700966,-0.78127 -0.710371,-0.26458 -0.0028,0.14552 -0.100542,0.62177 -0.217537,1.05833 -0.12494,0.46622 -0.05474,0.79375 0.170134,0.79375 0.21057,0 0.291476,-0.23813 0.179793,-0.52917 z m -1.538686,-0.17639 c 0,-0.19402 -0.436562,-0.35034 -0.970139,-0.34737 -0.755981,0.004 -0.853323,0.0809 -0.440972,0.34737 0.69022,0.44606 1.411111,0.44606 1.411111,0 z m 25.041822,-1.4993 c -0.007,-0.59019 -0.61524,-1.52543 -0.84337,-1.2973 -0.27334,0.27334 0.17934,1.73827 0.53714,1.73827 0.17139,0 0.3092,-0.19844 0.30623,-0.44097 z m -19.489269,-1.08128 c -0.474835,-1.02258 -0.966442,-1.24804 -0.966442,-0.44323 0,0.51605 1.037446,1.75119 1.27302,1.51561 0.07188,-0.0719 -0.06608,-0.55446 -0.306578,-1.07238 z m 17.730779,0.32867 c 0,-0.54411 -0.248968,-0.9059 -0.705558,-1.0253 -0.52334,-0.13686 -0.705552,-0.0108 -0.705552,0.48802 0,0.36989 0.238122,0.67253 0.529172,0.67253 0.29104,0 0.52916,0.15875 0.52916,0.35277 0,0.19403 0.0794,0.35278 0.17639,0.35278 0.097,0 0.176388,-0.37836 0.176388,-0.8408 z m -19.760369,-0.6585 c -0.009,-0.82377 -0.429105,-2.02848 -0.707376,-2.02848 -0.222286,0 -1.051698,1.84992 -1.051698,2.3457 0,0.0681 0.396875,0.12375 0.881945,0.12375 0.485069,0 0.879778,-0.19844 0.877129,-0.44097 z m 22.935369,-0.47872 c 0,-0.27028 -0.21167,-0.49142 -0.47037,-0.49142 -0.65576,0 -0.92433,0.33783 -0.71085,0.89416 0.22626,0.58962 1.18122,0.26403 1.18122,-0.40274 z m -19.542416,-0.39588 c -0.358606,-0.3586 -0.654491,0.18129 -0.360264,0.65736 0.222261,0.35963 0.305357,0.35991 0.42485,0.001 0.0817,-0.24511 0.05264,-0.54156 -0.06459,-0.65878 z m 5.984293,-1.20217 c -0.237004,-0.80268 -0.696504,-1.65361 -1.021116,-1.89098 -0.324612,-0.23736 -0.590204,-0.59551 -0.590204,-0.7959 0,-0.42473 -0.896761,-0.83658 -1.18782,-0.54552 -0.109157,0.10915 -0.03076,0.51181 0.174191,0.89478 0.204964,0.38298 0.268626,1.25086 0.141478,1.92862 -0.156041,0.83177 -0.109206,1.15692 0.144095,1.00037 0.206404,-0.12757 0.375278,-0.55171 0.375278,-0.94254 0,-1.14945 1.150246,-0.63541 1.487107,0.66459 0.163325,0.63029 0.434417,1.14599 0.602428,1.14599 0.16801,0 0.111562,-0.65674 -0.125437,-1.45941 z m -3.553877,0.13649 c -0.139788,-0.33955 -0.334038,-0.89517 -0.431666,-1.23472 -0.292025,-1.01564 -0.628752,-0.69936 -0.563347,0.52914 0.03359,0.6306 0.07326,1.18624 0.08819,1.23475 0.01492,0.0485 0.282261,0.0882 0.594063,0.0882 0.40155,0 0.492774,-0.18008 0.312755,-0.61736 z m 11.044076,-1.46834 c -0.13056,-0.88955 -0.02043,-1.05343 0.821005,-1.22172 0.905341,-0.18107 0.949841,-0.2709 0.650798,-1.3136 -0.409279,-1.42707 -0.695544,-1.71518 -0.695544,-0.70004 0,0.47474 -0.175786,0.73515 -0.437388,0.64795 -0.470436,-0.15681 -1.679279,1.16883 -1.679279,1.84153 0,0.65905 0.697946,1.77325 1.110784,1.77325 0.21946,0 0.316611,-0.43468 0.229624,-1.02737 z m 3.245704,-1.75711 c 0,-0.17327 -0.23813,-0.40641 -0.529168,-0.5181 -0.53773,-0.20634 -0.72248,0.16944 -0.29398,0.59795 0.33715,0.33715 0.823148,0.29 0.823148,-0.0798 z m 1.42158,-1.78208 c -0.21344,-0.39881 -0.51956,-0.72511 -0.68027,-0.72511 -0.49719,0 -0.24247,1.41877 0.31702,1.76582 0.68543,0.42516 0.86793,-0.0977 0.36325,-1.04071 z m -11.787606,-0.72511 c -0.138353,-0.86522 -0.08756,-1.41111 0.1313,-1.41111 0.196321,0 0.356948,0.15875 0.356948,0.35278 0,0.19402 0.15875,0.35277 0.352777,0.35277 0.44933,0 0.44933,-1.42138 0,-2.11666 -0.291006,-0.45031 -0.34278,-0.43551 -0.347376,0.0993 -0.0028,0.34564 -0.23942,0.71824 -0.525445,0.828 -0.578111,0.22184 -0.637537,3.30607 -0.0637,3.30607 0.177087,0 0.219925,-0.63298 0.0955,-1.41111 z m -3.457177,0.1749 c -0.221385,-0.48589 -0.470602,-0.81535 -0.553815,-0.73214 -0.24916,0.24916 0.287814,1.61557 0.634894,1.61557 0.176791,0 0.140307,-0.39754 -0.08108,-0.88343 z m 7.714188,0.11173 c -0.112613,-0.28142 -0.196208,-0.19783 -0.213134,0.21314 -0.01531,0.37188 0.06806,0.58025 0.185286,0.46302 0.117225,-0.11723 0.129755,-0.4215 0.02783,-0.67616 z m 0.882022,-0.36307 c -0.253139,-0.25314 -0.417452,-0.27396 -0.417452,-0.0529 0,0.47088 0.417198,0.88808 0.652639,0.65264 0.100249,-0.10025 -0.0056,-0.37012 -0.235187,-0.59973 z m 2.354238,-1.72614 c -0.634492,-0.40204 -1.360579,-0.39519 -1.360579,0.0128 0,0.37215 1.080999,0.68786 1.536968,0.44886 0.166236,-0.0871 0.08686,-0.29489 -0.176389,-0.46169 z m -4.389829,-1.01964 c 0.257313,0 0.445668,-0.35308 0.423443,-0.79375 -0.0284,-0.56347 -0.295896,-0.83048 -0.921971,-0.92034 -1.17402,-0.16852 -5.644444,0.63913 -5.644444,1.01975 0,0.43466 0.626194,0.75538 0.830238,0.42522 0.09539,-0.15434 0.962458,-0.31495 1.926815,-0.35691 1.641874,-0.0714 1.768761,-0.015 1.995213,0.88724 0.211179,0.8414 0.285273,0.88591 0.584535,0.35116 0.188485,-0.3368 0.551264,-0.61237 0.806171,-0.61237 z m 2.323694,0 c 0,-0.19403 -0.15875,-0.35278 -0.352777,-0.35278 -0.194028,0 -0.352778,0.15875 -0.352778,0.35278 0,0.19403 0.15875,0.35278 0.352778,0.35278 0.194027,0 0.352777,-0.15875 0.352777,-0.35278 z M 46.217795,109.20847 c -0.293646,-0.70279 -0.533901,-1.37148 -0.533901,-1.48598 0,-0.11449 -0.460925,0.34146 -1.024278,1.01322 l -1.024277,1.2214 1.288861,0.21452 c 0.708873,0.11799 1.410054,0.23705 1.558178,0.26459 0.148125,0.0275 0.02906,-0.52495 -0.264583,-1.22775 z m -3.708901,0.41668 c 0,-0.27959 -0.15875,-0.60646 -0.352778,-0.72637 -0.194027,-0.11992 -0.352777,0.10884 -0.352777,0.50834 0,0.39951 0.15875,0.72638 0.352777,0.72638 0.194028,0 0.352778,-0.22876 0.352778,-0.50835 z m 7.408333,-9.01665 c 0,-0.19403 -0.07001,-0.35278 -0.155569,-0.35278 -0.08556,0 -0.253681,0.15875 -0.373597,0.35278 -0.119916,0.19403 -0.04991,0.35278 0.155569,0.35278 0.205478,0 0.373597,-0.15875 0.373597,-0.35278 z m 1.411111,-2.105593 c 0,-0.47239 -0.169231,-0.62955 -0.529166,-0.49143 -0.565958,0.21718 -0.674974,0.56973 -0.293982,0.95072 0.444952,0.44496 0.823148,0.23393 0.823148,-0.45929 z m -11.384432,-2.34088 c -0.117225,-0.11722 -0.421496,-0.12976 -0.676158,-0.0279 -0.281422,0.11261 -0.197829,0.19621 0.213137,0.21313 0.371886,0.0153 0.580246,-0.0681 0.463021,-0.18528 z m 11.384432,-0.29521 c 0,-0.0856 -0.15875,-0.25368 -0.352777,-0.3736 -0.194028,-0.11991 -0.352778,-0.0499 -0.352778,0.15557 0,0.20548 0.15875,0.3736 0.352778,0.3736 0.194027,0 0.352777,-0.07 0.352777,-0.15557 z m -2.845647,-4.28238 c -0.708427,-0.8536 -1.97099,-1.30921 -4.915566,-1.77384 -1.03068,-0.16263 -1.380614,-0.0357 -2.116667,0.76768 l -0.881842,0.96253 0.881945,-0.26164 c 1.990704,-0.59056 2.778028,-0.58924 3.922084,0.006 1.191956,0.62073 3.18667,1.18906 3.448326,0.98249 0.07616,-0.0601 -0.07607,-0.36782 -0.33828,-0.68376 z m 77.281759,45.682923 c -1.26118,-0.59829 -3.24556,-1.4812 -4.40973,-1.96202 -1.16416,-0.48082 -2.59291,-1.08444 -3.175,-1.34138 -1.7234,-0.76072 -7.64323,-2.57595 -9.2401,-2.83334 -0.81345,-0.13111 -1.66951,-0.46794 -1.90236,-0.7485 -0.51972,-0.62622 -0.15776,-1.08378 0.46241,-0.58454 0.24723,0.19901 1.24325,0.52903 2.21339,0.73337 1.91584,0.40353 9.12954,2.70702 9.81065,3.13275 0.23095,0.14435 0.60871,0.29115 0.83948,0.32622 0.23077,0.0351 1.97288,0.80934 3.87136,1.72061 1.89848,0.91127 3.97571,1.74188 4.61607,1.84579 1.57085,0.25492 1.82587,0.79947 0.37423,0.79912 -0.64204,-1.5e-4 -2.19922,-0.48979 -3.4604,-1.08808 z"
       style="fill:#000000;stroke-width:0.35277778" />
  </g>
</svg>
