<?xml version="1.0" encoding="UTF-8" standalone="no"?>
<!-- Created with Inkscape (http://www.inkscape.org/) -->

<svg
   xmlns:dc="http://purl.org/dc/elements/1.1/"
   xmlns:cc="http://creativecommons.org/ns#"
   xmlns:rdf="http://www.w3.org/1999/02/22-rdf-syntax-ns#"
   xmlns:svg="http://www.w3.org/2000/svg"
   xmlns="http://www.w3.org/2000/svg"
   xmlns:sodipodi="http://sodipodi.sourceforge.net/DTD/sodipodi-0.dtd"
   xmlns:inkscape="http://www.inkscape.org/namespaces/inkscape"
   width="231.41687mm"
   height="138.13835mm"
   viewBox="0 0 231.41688 138.13835"
   version="1.1"
   id="svg8"
   inkscape:version="0.92.2 5c3e80d, 2017-08-06"
   sodipodi:docname="Figure_122.svg">
  <defs
     id="defs2" />
  <sodipodi:namedview
     id="base"
     pagecolor="#ffffff"
     bordercolor="#666666"
     borderopacity="1.0"
     inkscape:pageopacity="0.0"
     inkscape:pageshadow="2"
     inkscape:zoom="0.7"
     inkscape:cx="366.3862"
     inkscape:cy="274.14092"
     inkscape:document-units="mm"
     inkscape:current-layer="layer1"
     showgrid="false"
     fit-margin-top="0"
     fit-margin-left="0"
     fit-margin-right="0"
     fit-margin-bottom="0"
     inkscape:window-width="1440"
     inkscape:window-height="807"
     inkscape:window-x="0"
     inkscape:window-y="1"
     inkscape:window-maximized="1" />
  <metadata
     id="metadata5">
    <rdf:RDF>
      <cc:Work
         rdf:about="">
        <dc:format>image/svg+xml</dc:format>
        <dc:type
           rdf:resource="http://purl.org/dc/dcmitype/StillImage" />
        <dc:title></dc:title>
      </cc:Work>
    </rdf:RDF>
  </metadata>
  <g
     inkscape:label="Layer 1"
     inkscape:groupmode="layer"
     id="layer1"
     transform="translate(71.743194,198.6452)">
    <path
       style="fill:#000000;stroke-width:0.35277778"
       d="m -1.2597609,-60.689854 c -0.101395,-0.101395 -1.318478,-0.400452 -2.704627,-0.66457 -2.292142,-0.436749 -2.521292,-0.428046 -2.531495,0.09616 -0.01019,0.524245 -0.05009,0.525755 -0.440972,0.01669 -0.296474,-0.386129 -1.305002,-0.632418 -3.2519761,-0.794159 -1.552222,-0.128951 -4.806597,-0.465279 -7.231945,-0.747399 -10.353361,-1.204323 -14.165714,-1.620488 -17.991667,-1.964009 -7.263723,-0.652194 -11.38986,-1.051535 -15.698611,-1.519368 -3.650026,-0.396307 -12.847269,-0.474867 -18.168056,-0.155183 -1.543428,0.09273 -1.5875,0.06656 -1.5875,-0.942693 v -1.038074 l 8.290278,0.06109 c 9.625982,0.07093 13.597371,0.306923 18.873611,1.121522 1.358195,0.209692 3.739445,0.53128 5.291667,0.714644 1.552222,0.183363 3.457222,0.41518 4.233333,0.51515 1.618838,0.20852 5.827706,0.699506 12.170834,1.419793 2.425347,0.275407 5.917848,0.577603 7.761111,0.671548 2.746227,0.139965 9.7695991,0.744111 11.9944451,1.031759 0.705718,0.09124 0.967603,-2.902991 0.290506,-3.32146 -0.25345,-0.156643 -1.33531,-0.381476 -2.404135,-0.499628 -2.150304,-0.237705 -7.5917431,-1.154815 -8.5578991,-1.44236 -0.383289,-0.114075 -0.617361,0.0052 -0.617361,0.314522 0,0.274045 -0.283665,0.75498 -0.630372,1.068744 -0.826939,0.748369 -1.929352,0.457772 -4.030175,-1.062355 -0.914065,-0.661405 -2.184065,-1.272441 -2.822223,-1.357859 -0.638157,-0.08542 -2.906536,-0.396572 -5.040841,-0.691452 -2.134306,-0.294876 -5.309306,-0.616101 -7.055556,-0.713828 -1.74625,-0.09773 -3.658973,-0.334984 -4.250496,-0.52724 -0.591524,-0.192257 -1.702774,-0.421439 -2.469445,-0.509292 -0.766671,-0.08786 -2.663948,-0.321669 -4.216171,-0.519585 -1.552222,-0.197919 -3.854097,-0.449943 -5.115278,-0.560056 -1.26118,-0.110109 -2.84868,-0.336045 -3.527777,-0.50208 -2.898859,-0.708748 -15.760038,-0.736932 -17.067125,-0.0374 -1.191477,0.637656 -1.984073,0.262389 -1.977474,-0.936272 0.01048,-1.903339 0.348432,-2.059838 3.356627,-1.554371 1.485832,0.249664 4.631279,0.509267 6.989881,0.576894 4.194257,0.120266 8.520323,0.405737 11.343924,0.748573 0.776111,0.09423 2.919236,0.322644 4.7625,0.507581 1.843264,0.184933 4.700764,0.582337 6.35,0.883115 1.649236,0.300779 4.797189,0.771112 6.99545,1.045193 2.198264,0.274076 4.564616,0.65509 5.258562,0.846698 0.693946,0.191608 1.386431,0.2713 1.538855,0.177098 0.152425,-0.0942 1.199198,-0.02515 2.326164,0.153486 1.126963,0.178622 2.101399,0.275425 2.165407,0.215114 0.06401,-0.06031 -0.126245,-0.480614 -0.422794,-0.934011 -0.296545,-0.453397 -0.640704,-1.935607 -0.764794,-3.293802 -0.308268,-3.374058 -0.737242,-4.596955 -2.077755,-5.923138 -0.629557,-0.62283 -1.441401,-1.64543 -1.804095,-2.27245 l -0.659448,-1.140033 1.042363,-1.094984 c 0.5733,-0.602244 2.015759,-1.676726 3.205463,-2.387746 2.24221,-1.34003 3.704445,-2.89581 6.578508,-6.99933 4.715743,-6.733043 7.0724151,-9.903703 7.9890381,-10.748443 0.556694,-0.51303 1.115018,-1.40106 1.240726,-1.9734 0.125706,-0.57235 0.737324,-1.53659 1.359151,-2.14278 1.760933,-1.71667 5.42926801,-4.65242 5.81335401,-4.65242 0.19036599,0 0.55135999,-0.2473 0.80220699,-0.54955 0.250846,-0.30225 0.982426,-0.76947 1.625734,-1.03826 1.108607,-0.46321 3.296239,-3.28376 3.296239,-4.2499 0,-0.22435 1.627187,-2.15561 3.6159719,-4.2917 1.988785,-2.13609 4.727223,-5.19947 6.085417,-6.80752 1.358195,-1.60804 4.278556,-4.72899 6.489697,-6.93542 2.211137,-2.20643 3.933497,-4.09844 3.827469,-4.20447 -0.10603,-0.10603 -1.83577,0.2923 -3.843863,0.88517 -4.918449,1.45213 -7.827049,1.81004 -12.646914,1.55624 -4.6120119,-0.24286 -8.5795069,0.25927 -10.75273389,1.36088 -1.60361201,0.81286 -4.24719801,0.96039 -6.35698901,0.35476 -2.271145,-0.65195 -5.0573161,-0.49 -10.2768401,0.59733 -4.127356,0.85982 -5.334029,0.98087 -7.714827,0.77396 -5.763437,-0.50088 -12.129961,-0.11891 -17.462501,1.04769 -0.873125,0.19101 -1.905,0.41736 -2.293055,0.503 -1.371017,0.30257 -3.887344,1.3027 -4.409723,1.75267 -0.291041,0.25071 -0.711891,0.51623 -0.935222,0.59005 -0.22333,0.0738 -1.522526,1.18478 -2.8871,2.46879 -1.364575,1.28401 -2.712867,2.42352 -2.996206,2.53225 -0.781874,0.30003 -2.287273,2.42772 -2.483564,3.5102 -0.188024,1.03689 -1.637962,2.57723 -2.761697,2.93389 -0.905642,0.28744 -2.252479,-0.9596 -2.528853,-2.34147 -0.113885,-0.56943 -0.184055,-1.07424 -0.155932,-1.12182 0.178497,-0.30196 -0.889314,-1.674 -1.302815,-1.674 -0.436059,0 -1.386696,-1.25454 -1.336597,-1.76389 0.0095,-0.097 -0.122383,-0.5439 -0.293166,-0.9931 -0.387459,-1.01909 -0.391472,-1.38513 -0.01683,-1.53514 0.161528,-0.0647 0.696992,-1.00555 1.18992,-2.09083 0.678152,-1.49309 1.314881,-2.25742 2.616729,-3.14112 2.393271,-1.62456 5.2594,-3.17592 5.867485,-3.17592 0.280491,0 0.890916,-0.50725 1.356498,-1.12723 0.465583,-0.61998 1.283077,-1.63313 1.816653,-2.25144 0.533576,-0.6183 0.970139,-1.31104 0.970139,-1.53941 0,-0.22837 0.182769,-0.30227 0.406154,-0.16421 0.721751,0.44607 13.078572,0.26872 14.234124,-0.20429 0.582083,-0.23827 2.01137,-0.63791 3.176189,-0.88808 1.164823,-0.25017 2.990448,-0.86018 4.056945,-1.35557 1.0665,-0.49539 3.996739,-1.56307 6.51165,-2.37261 4.444185,-1.43057 4.67198,-1.46638 8.113889,-1.27557 6.39487,0.35452 10.9256021,0.97079 11.2427211,1.52924 0.239716,0.42213 0.391661,0.43424 0.834732,0.0665 0.516798,-0.42891 1.212406,-0.72872 3.98748601,-1.71863 2.91155299,-1.0386 4.13965699,-1.59596 5.46805599,-2.48161 2.824727,-1.88325 6.6707029,-3.5655 9.6299659,-4.21218 1.664783,-0.3638 3.145183,-0.58834 3.289783,-0.49897 0.1446,0.0894 0.868687,-0.0608 1.60908,-0.33374 0.740395,-0.27292 2.671938,-0.78172 4.292321,-1.13065 2.298838,-0.49503 3.010898,-0.79435 3.240835,-1.3623 0.277524,-0.6855 0.295985,-0.67782 0.317042,0.13186 l 0.02237,0.85975 1.054273,-1.01005 c 0.579854,-0.55553 1.145049,-1.29607 1.255998,-1.64564 0.116431,-0.36683 0.792205,-0.79457 1.598212,-1.01161 0.76807,-0.20682 2.14756,-0.69805 3.06554,-1.09163 2.46937,-1.05874 9.0606,-2.7814 10.64216,-2.7814 0.75715,0 1.82607,-0.22549 2.37537,-0.50109 0.5493,-0.27559 1.68237,-0.77999 2.51793,-1.12088 0.8927,-0.3642 1.98381,-1.21182 2.64583,-2.05538 1.56635,-1.99589 2.47704,-3.07507 2.89052,-3.42531 0.19403,-0.16435 1.10186,-0.89567 2.01741,-1.62516 0.91555,-0.72949 3.13805,-2.52238 4.93889,-3.98419 1.80084,-1.46182 3.67113,-2.9097 4.1562,-3.21753 0.48507,-0.30782 1.27882,-0.95826 1.76389,-1.44542 1.93709,-1.94543 6.61182,-5.61837 8.01745,-6.29932 1.34598,-0.65206 2.02845,-0.71109 7.01409,-0.60667 l 5.52304,0.11567 0.11445,-1.05326 c 0.063,-0.5793 0.2746,-1.10666 0.47035,-1.1719 0.19575,-0.0653 0.71571,-0.83908 1.15547,-1.71961 1.19117,-2.38509 1.87364,-2.76147 5.88972,-3.24822 4.073079,-0.49365 4.412059,-0.39675 6.499779,1.85789 0.74077,0.8 1.48418,1.58426 1.65202,1.7428 0.16784,0.15854 1.01416,0.95506 1.88071,1.77003 1.39856,1.31533 1.60396,1.70924 1.82854,3.50677 0.27567,2.20641 -0.13548,3.194 -1.17766,2.82872 -0.39432,-0.1382 -0.47394,-0.0897 -0.2388,0.14535 0.19403,0.19398 1.14653,0.559 2.11667,0.81115 0.97014,0.25215 2.38648,0.75058 3.14743,1.10762 1.14098,0.53535 1.62448,0.58427 2.75795,0.27906 0.75593,-0.20355 2.19708,-0.29089 3.20257,-0.1941 1.00549,0.0968 3.57441,0.3421 5.70872,0.54512 2.13431,0.20302 5.74333,0.55323 8.02005,0.77824 4.56633,0.45129 8.33521,0.24787 11.02995,-0.59532 1.05163,-0.32905 3.61578,-0.61573 6.35,-0.70993 2.52236,-0.0869 5.37986,-0.19679 6.35,-0.24421 1.54228,-0.0754 1.77688,0.005 1.86724,0.63593 0.0606,0.42365 0.53452,0.88488 1.14653,1.11588 0.76091,0.28721 1.04318,0.62537 1.04318,1.24972 0,1.158 -0.93056,1.52399 -5.14907,2.02514 -1.92169,0.22829 -5.79586,0.9692 -8.60927,1.64646 -3.28227,0.79014 -5.55629,1.16171 -6.346,1.03691 -1.1431,-0.18064 -3.34381,0.29454 -6.354,1.37196 -4.41796,1.5813 -6.11559,1.88674 -14.81667,2.66584 -2.03729,0.18242 -4.49791,0.45604 -5.46805,0.60805 -0.97014,0.15201 -2.16077,0.23985 -2.64584,0.19519 -0.48507,-0.0447 -2.62819,-0.22943 -4.7625,-0.4106 -2.1343,-0.18118 -4.29538,-0.49379 -4.8024,-0.6947 -0.50701,-0.20091 -1.566649,-0.27881 -2.354739,-0.1731 -1.10556,0.14828 -1.67225,0.0218 -2.4806,-0.55384 -1.67446,-1.19232 -3.95738,-1.17109 -4.61128,0.0429 -0.23515,0.43656 -0.6972,1.28843 -1.02676,1.89304 -2.27388,4.17155 -10.07757,10.82405 -14.20224,12.10715 -0.86153,0.268 -2.15242,0.93838 -2.86865,1.48972 -0.71623,0.55135 -1.45011,1.00245 -1.63084,1.00245 -0.18073,0 -1.39811,0.87666 -2.70529,1.94813 -2.89499,2.37297 -5.32066,3.83281 -5.83766,3.51329 -0.45525,-0.28136 -2.20983,0.38231 -3.69343,1.39705 -0.58208,0.39813 -1.10299,0.74261 -1.15759,0.76552 -0.0546,0.0229 -0.16799,0.42032 -0.25199,0.88314 -0.19278,1.06204 -2.40494,3.00868 -5.86811,5.16377 -2.09629,1.3045 -2.8757,2.02603 -3.5241,3.26243 -2.10052,4.00536 -8.53382,11.60089 -12.10907,14.29669 -0.76528,0.57703 -1.85604,1.47092 -2.42391,1.98643 -0.56786,0.51551 -1.84672,1.37153 -2.84191,1.90226 -0.995186,0.53074 -2.142038,1.26448 -2.548562,1.63054 -0.872913,0.78603 -3.282308,2.0563 -3.900286,2.0563 -0.238309,0 -1.51443,1.11984 -2.835826,2.48853 -2.552622,2.64399 -4.271624,3.80839 -6.763611,4.58146 -1.624771,0.50404 -2.939147,1.69686 -9.7980779,8.8919 -1.966701,2.06308 -4.42732599,4.296593 -5.46805599,4.963373 -2.14933401,1.37702 -10.95884811,10.13567 -12.76571611,12.692008 -1.084728,1.534661 -1.201458,1.942095 -1.263403,4.409722 -0.03754,1.495358 -0.285408,3.591959 -0.550823,4.659112 -0.265413,1.067152 -0.59,2.925723 -0.721304,4.13016 -0.267042,2.449568 -0.363379,2.357941 2.825679,2.687471 6.1035891,0.630693 11.83089011,1.388516 12.78630111,1.691859 0.91141499,0.289373 1.08285799,0.483761 0.841442,0.954049 -0.166755,0.324844 -0.308053,1.586237 -0.313997,2.803091 -0.0059,1.216857 -0.205595,2.44717 -0.443667,2.734027 -0.434192,0.523173 -1.126871,0.681899 -1.47156401,0.33721 z M -16.7278,-69.348446 c -0.41214,-0.770096 -0.206548,-4.590902 0.34991,-6.502887 0.169411,-0.582083 0.501533,-2.147097 0.738057,-3.477813 0.351723,-1.978851 0.345136,-2.471953 -0.03617,-2.707616 -0.365534,-0.225912 -0.269424,-0.579536 0.445043,-1.637464 0.501191,-0.742131 1.126331,-1.770288 1.389197,-2.28479 1.247623,-2.441971 10.1494661,-11.452451 14.76543611,-14.945634 1.66853699,-1.26268 4.83844299,-4.28686 7.14645299,-6.81791 3.8122399,-4.18066 4.3244869,-4.61311 6.3310379,-5.34473 1.41592,-0.51627 2.561802,-1.22599 3.260489,-2.01944 0.592515,-0.67288 1.528367,-1.45832 2.079674,-1.74543 0.917519,-0.47782 0.950744,-0.55977 0.39243,-0.96802 -0.33547,-0.2453 -0.544297,-0.64295 -0.464058,-0.88366 0.157551,-0.47266 3.559532,-1.76141 4.713697,-1.78567 0.388056,-0.008 1.558435,-0.52927 2.600844,-1.15804 1.042409,-0.62877 2.522132,-1.48259 3.28827,-1.89736 0.766137,-0.41479 1.690427,-1.04979 2.053957,-1.41111 0.36354,-0.36134 1.41135,-1.2126 2.32846,-1.89169 2.66834,-1.97584 5.00193,-4.21808 6.95782,-6.68549 1.00136,-1.26323 2.02579,-2.53796 2.27651,-2.83273 1.05969,-1.24588 3.24831,-4.23653 3.24831,-4.43868 0,-0.12062 0.31533,-0.6202 0.70074,-1.11018 1.39154,-1.76905 0.1914,-1.79551 -2.28824,-0.0505 -1.59014,1.11907 -3.48268,1.62055 -4.14427,1.09814 -0.24301,-0.19189 -1.33286,-0.43606 -2.42188,-0.5426 -1.08902,-0.10654 -2.75589,-0.58498 -3.70416,-1.0632 -1.56736,-0.79044 -1.93161,-0.84082 -4.00573,-0.55408 -2.166756,0.29954 -2.362058,0.40821 -3.880551,2.15918 -0.879432,1.01407 -3.114382,3.35313 -4.96655,5.1979 -2.279199,2.2701 -4.151517,4.5798 -5.793176,7.14649 -2.157074,3.37254 -3.362854,4.58856 -3.362854,3.39142 0,-0.93812 -4.3430509,4.25318 -5.3527259,6.39816 -0.593654,1.26119 -1.213509,2.37801 -1.377452,2.48183 -0.163947,0.10383 -0.949586,1.19678 -1.745866,2.42878 -0.990903,1.53312 -1.56216,2.12564 -1.810219,1.87758 -0.248059,-0.24806 -0.240792,-0.58972 0.02304,-1.08268 0.681034,-1.27252 0.435102,-1.18344 -2.34856799,0.85066 -4.41216401,3.22409 -5.62470401,4.54715 -5.90979401,6.44845 -0.134892,0.8996 -0.393926,1.91346 -0.575631,2.25301 -0.361382,0.67531 -1.363881,0.84818 -1.363881,0.23519 0,-0.81636 -0.88869,-0.0177 -2.0926,1.88056 -0.692334,1.09165 -2.0320001,3.034023 -2.9770391,4.316403 -0.945039,1.28237 -1.606744,2.44309 -1.470463,2.57937 0.136285,0.13629 0.460947,-0.0437 0.721473,-0.40001 0.617157,-0.84401 1.80467,-0.62481 1.639228,0.30258 -0.176509,0.98942 -1.46025,2.68399 -1.850552,2.44277 -0.182355,-0.1127 -0.240224,-0.35269 -0.128591,-0.53332 0.111629,-0.18062 0.135315,-0.3284 0.05263,-0.3284 -0.08268,0 -0.605551,0.67469 -1.161931,1.49931 -2.279381,3.37829 -3.137775,5.230024 -2.583289,5.572715 0.550153,0.340015 0.258681,1.540391 -0.405077,1.66822 -0.300694,0.05791 -0.740601,-0.257768 -0.977572,-0.701506 -0.469057,-0.878325 -0.147232,-1.703009 2.10451,-5.392899 l 1.076406,-1.76389 -1.739671,1.94027 c -0.956818,1.06716 -2.121485,2.36574 -2.58815,2.88574 -0.466665,0.52 -1.681918,1.370077 -2.700564,1.889055 -1.110399,0.565725 -1.849825,1.17602 -1.846449,1.523986 0.0032,0.319215 0.501032,1.136015 1.106519,1.815112 1.746187,1.958478 2.760998,4.458346 2.764956,6.811144 0.0018,1.126755 0.185134,2.770195 0.407197,3.652086 0.349536,1.388125 0.598241,1.689993 1.852084,2.247964 0.796583,0.354489 1.493604,0.655736 1.548938,0.669442 0.05533,0.01372 -0.07497,-0.303156 -0.289575,-0.704138 z m -1.398531,-4.738998 c 0,-0.291041 0.153769,-0.529166 0.341707,-0.529166 0.187936,0 0.250328,0.238125 0.138646,0.529166 -0.111686,0.291042 -0.265452,0.529167 -0.341708,0.529167 -0.07625,0 -0.138645,-0.238125 -0.138645,-0.529167 z m 14.8166671,-29.962336 c 0,-0.27797 0.321313,-0.60738 0.714029,-0.73202 1.002715,-0.31825 4.938462,-4.02948 5.31023,-5.00731 0.333156,-0.87626 1.201903,-1.08885 1.480697,-0.36232 0.195283,0.50891 -3.69837399,4.9069 -5.249556,5.92951 -1.210582,0.79807 -2.2554,0.87781 -2.2554,0.17214 z m 10.08586,-5.44054 c -0.307167,-0.49701 2.649153,-2.87351 3.5745809,-2.87351 0.871739,0 0.433381,0.65816 -1.2722889,1.91024 -1.847946,1.35651 -2.01584,1.42676 -2.302292,0.96327 z m 9.6696959,-6.72521 c 0,-0.69713 0.465381,-1.4754 1.078428,-1.80349 0.963453,-0.51563 1.130755,0.15076 0.30227,1.20401 -0.7271,0.92436 -1.380698,1.20814 -1.380698,0.59948 z m 4.860287,-5.5151 c -0.426357,-0.42905 0.06994,-0.86375 0.986155,-0.86375 0.47625,0 1.141567,-0.14093 1.478484,-0.31317 0.336917,-0.17224 1.565074,-0.75816 2.729241,-1.30203 1.164167,-0.54388 2.953187,-1.5142 3.975601,-2.15628 2.087227,-1.31078 2.655227,-1.44109 2.487617,-0.57074 -0.0699,0.36311 -1.86469,1.4748 -4.585103,2.84004 -4.307703,2.16182 -6.534531,2.90681 -7.071995,2.36593 z m -0.979731,-5.44166 c 0,-0.39193 2.747433,-2.62455 5.693311,-4.62652 1.094031,-0.74348 3.46268,-1.90634 5.263668,-2.58413 2.29949,-0.8654 3.63624,-1.60475 4.48928,-2.48301 1.25553,-1.29262 1.65679,-1.47947 1.99657,-0.92971 0.58742,0.95047 -2.16023,3.21697 -4.743,3.91244 -2.935039,0.79032 -8.170297,3.75672 -10.516742,5.95899 -1.146376,1.07594 -2.183087,1.43302 -2.183087,0.75194 z m -34.239046,33.373643 c -0.08623,-0.0834 -0.457468,0.26938 -0.824967,0.78395 l -0.668179,0.93559 0.824971,-0.78395 c 0.453732,-0.43118 0.754411,-0.85219 0.668175,-0.93559 z M -59.96964,-126.26819 c 0.117554,-0.46838 0.888826,-1.37563 1.713938,-2.01613 0.825112,-0.6405 1.817703,-1.44463 2.205759,-1.78697 0.388055,-0.34234 1.301176,-1.08485 2.029156,-1.65003 1.115624,-0.86614 1.22685,-1.06473 0.707858,-1.26389 -0.548063,-0.21031 -0.519056,-0.31057 0.263899,-0.9121 0.483803,-0.3717 1.135302,-0.67936 1.447774,-0.68367 0.312473,-0.004 1.116112,-0.37972 1.785866,-0.83422 0.669753,-0.45451 1.688641,-0.83977 2.264196,-0.85613 0.575555,-0.0164 2.123329,-0.2795 3.439498,-0.58473 1.316168,-0.30525 3.068747,-0.55499 3.894614,-0.55499 0.82587,0 2.284455,-0.23031 3.241304,-0.51181 2.950253,-0.86794 5.839076,-1.16589 9.079139,-0.93642 1.708344,0.12099 3.357707,0.0792 3.665252,-0.0929 0.338081,-0.18921 1.288133,-0.1498 2.402805,0.0996 1.59102,0.35606 2.224736,0.31482 4.625026,-0.30096 3.854295,-0.9888 10.0813521,-1.14045 11.7432311,-0.28599 1.522071,0.78258 2.21366,0.77608 3.84041,-0.0361 2.697406,-1.34675 6.042325,-1.78781 14.8908069,-1.96347 4.33632,-0.0861 5.733073,-0.26279 9.172222,-1.16035 2.23132,-0.58235 5.24757,-1.26622 6.702778,-1.51971 1.455209,-0.25349 3.042705,-0.65997 3.527775,-0.90328 1.32028,-0.66228 3.88056,-2.96182 3.88056,-3.48538 0,-0.25217 0.24531,-0.66207 0.54513,-0.9109 0.46543,-0.38627 0.5299,-1.49769 0.44097,-7.60147 -0.0945,-6.48636 -0.15578,-7.10245 -0.6611,-6.64633 -0.30632,0.27649 -0.81289,0.50271 -1.12571,0.50271 -0.31282,0 -0.65915,0.14625 -0.76962,0.325 -0.11047,0.17874 -0.95328,0.61067 -1.8729,0.95983 -0.9479,0.3599 -2.405061,1.36504 -3.364543,2.32084 -1.396947,1.39159 -1.920568,1.68868 -2.998611,1.70136 -0.718365,0.008 -1.941117,0.15774 -2.717229,0.33176 -0.776111,0.17401 -3.633611,0.78175 -6.35,1.35052 -5.585587,1.16954 -7.150082,1.72788 -10.4069449,3.714 -3.719466,2.26823 -5.090082,2.92535 -7.82112499,3.74972 -1.42219901,0.4293 -3.45894401,1.22703 -4.52609701,1.77274 -1.067153,0.54571 -2.306708,1.07446 -2.75457,1.17501 -1.261653,0.28324 -0.830464,-0.78917 0.6324,-1.57283 0.67607,-0.36218 1.15232,-0.6591 1.058333,-0.65984 -2.81771,-0.0221 -7.3807991,-0.37734 -9.0265741,-0.70271 -1.551111,-0.30666 -2.783759,-0.32702 -4.409723,-0.0728 -2.432911,0.38035 -10.107489,3.01005 -13.5457,4.64145 -2.043155,0.96946 -10.737917,2.75856 -11.404385,2.34666 -0.155852,-0.0963 -1.884281,-0.2662 -3.840955,-0.37752 l -3.55759,-0.20239 -1.00548,1.34994 c -1.215881,1.63242 -3.755959,3.95484 -4.325485,3.95484 -1.534084,0 -6.400412,4.0397 -6.367047,5.2855 0.0079,0.29444 0.484136,1.08496 1.058334,1.75673 0.593444,0.69429 1.043996,1.62953 1.043996,2.16712 0,0.5424 0.241283,1.03831 0.565769,1.16282 0.323026,0.12396 0.479135,0.44287 0.363849,0.7433 -0.111055,0.28941 -0.06536,0.5262 0.101543,0.5262 0.166904,0 0.399643,-0.38322 0.517198,-0.85159 z m 9.986859,-12.47669 c -0.700649,-0.77421 -0.793151,-1.59808 -0.158134,-1.40843 0.242534,0.0724 1.197104,0.35568 2.121265,0.62943 1.9851,0.58803 2.002153,1.18875 0.03792,1.33595 -1.018221,0.0763 -1.565928,-0.0761 -2.001054,-0.55695 z m 35.737005,-2.37033 c 0,-0.35018 0.350228,-0.52917 1.035368,-0.52917 0.569454,0 1.436956,-0.15269 1.927789,-0.3393 1.4306411,-0.54393 1.4985261,0.27989 0.07218,0.87586 -1.633671,0.68259 -3.035332,0.67917 -3.035332,-0.007 z m 4.8059801,-0.81159 c -0.126375,-0.20448 0.467801,-0.62741 1.360372,-0.96828 0.871611,-0.33287 1.76519,-0.82264 1.985726,-1.08837 0.408689,-0.49244 3.518217,-0.68971 3.9569,-0.25103 0.477238,0.47724 -0.5975,1.17899 -1.805644,1.17899 -0.688569,0 -1.529933,0.25158 -1.869701,0.55906 -0.747606,0.67657 -3.312629,1.07934 -3.627653,0.56963 z m 25.5329099,-5.3731 c 0,-0.39414 0.277813,-0.80984 0.617361,-0.92377 0.339549,-0.11393 1.776501,-0.75779 3.193228,-1.43079 2.398575,-1.13942 3.597745,-1.3038 3.597745,-0.49319 0,0.36655 -3.955878,2.33443 -5.443051,2.70768 -0.50249,0.12612 -1.000859,0.37047 -1.107493,0.543 -0.350128,0.56652 -0.85779,0.32806 -0.85779,-0.40293 z m 11.994445,-5.91065 c 0,-0.93951 0.923999,-1.62143 3.127318,-2.30799 2.30167,-0.7172 2.73994,-0.7317 2.98285,-0.0987 0.12871,0.33542 -0.33452,0.6814 -1.46156,1.09162 -1.5655,0.5698 -3.809808,1.50987 -4.384025,1.83633 -0.145521,0.0827 -0.264583,-0.15185 -0.264583,-0.52128 z m 16.179378,9.2432 c 0.25589,0.15815 0.39922,-0.0471 0.39578,-0.56663 -0.003,-0.47621 -0.11306,-0.64835 -0.26459,-0.4144 -0.14255,0.22008 -0.57668,0.45983 -0.96473,0.53276 -0.44289,0.0833 -0.74359,0.45961 -0.80772,1.01096 l -0.10217,0.87833 0.67112,-0.84448 c 0.37343,-0.4699 0.84907,-0.73451 1.07231,-0.59654 z m -8.94743,-0.49925 c -0.11992,-0.19403 -0.37678,-0.35278 -0.57081,-0.35278 -0.19403,0 -0.25466,0.15875 -0.13475,0.35278 0.11992,0.19402 0.37678,0.35277 0.57081,0.35277 0.19402,0 0.25466,-0.15875 0.13475,-0.35277 z m 13.47015,-1.12448 c -0.11261,-0.28142 -0.19621,-0.19783 -0.21313,0.21314 -0.0153,0.37188 0.0681,0.58024 0.18528,0.46302 0.11723,-0.11723 0.12976,-0.4215 0.0278,-0.67616 z m -0.70435,-2.15625 c 0.25485,-0.15516 0.46093,-0.55203 0.45796,-0.88194 -0.005,-0.51886 -0.0543,-0.5284 -0.36733,-0.0707 -0.25802,0.37725 -0.29561,0.0481 -0.13093,-1.14652 0.21276,-1.54338 0.17212,-1.6757 -0.51461,-1.6757 -0.41009,0 -0.74561,0.15875 -0.74561,0.35278 0,0.19403 0.15875,0.35278 0.35277,0.35278 0.38844,0 0.49177,2.21286 0.12066,2.58397 -0.12767,0.12767 -0.44517,0.0553 -0.70556,-0.16079 -0.38071,-0.31595 -0.46857,-0.1599 -0.44863,0.79682 0.0191,0.91796 0.0858,1.0339 0.29192,0.50758 0.37604,-0.96026 0.81009,-0.13577 0.58271,1.10689 -0.12962,0.70839 -0.0644,0.63839 0.23141,-0.24836 0.22654,-0.6791 0.6204,-1.36168 0.87524,-1.51684 z m -4.8283,1.67241 c 0,-0.3025 -0.16134,-0.45028 -0.35853,-0.32841 -0.1972,0.12188 -0.26721,0.36937 -0.15557,0.54999 0.30241,0.48932 0.5141,0.39808 0.5141,-0.22158 z m 2.03582,-0.0894 c 0.0768,-0.23041 -0.0897,-0.41892 -0.37,-0.41892 -0.35209,0 -0.46974,-0.29992 -0.38056,-0.97014 l 0.12909,-0.97014 -0.38767,0.98178 c -0.21323,0.53998 -0.29325,1.22786 -0.17783,1.52864 0.2311,0.60224 0.96707,0.50848 1.18697,-0.15122 z m -4.68777,-2.42539 c 0.2472,-1.32179 0.53067,-4.22888 0.62992,-6.4602 0.0993,-2.23132 0.1154,-3.50132 0.0359,-2.82222 -0.24567,2.09797 -0.48996,2.85974 -0.84641,2.63944 -0.18834,-0.1164 -0.34244,0.0226 -0.34244,0.30895 0,0.28633 0.1762,0.57933 0.39156,0.65111 0.28008,0.0934 0.22986,1.23309 -0.17639,4.00328 -0.63465,4.32767 -0.65701,4.59832 -0.35476,4.29608 0.11724,-0.11725 0.41543,-1.29465 0.66264,-2.61644 z m 1.25208,0.95938 c -0.71305,-0.71305 -0.7168,-0.71311 -0.7168,-0.0112 0,0.38805 0.15875,0.70555 0.35278,0.70555 0.19403,0 0.3576,0.27781 0.3635,0.61736 0.0101,0.58057 0.0318,0.58124 0.36402,0.0113 0.2673,-0.45859 0.17882,-0.78059 -0.3635,-1.32292 z m 11.27765,0.32071 c 0,-0.18257 -0.15875,-0.33195 -0.35278,-0.33195 -0.19403,0 -0.35278,0.24749 -0.35278,0.54998 0,0.3025 0.15875,0.45188 0.35278,0.33196 0.19403,-0.11992 0.35278,-0.36741 0.35278,-0.54999 z m -13.9036,-3.59515 c 0.0999,-1.01827 0.0223,-1.67569 -0.19792,-1.67569 -0.19931,0 -0.36237,0.61515 -0.36237,1.36701 0,0.75186 -0.0836,1.9028 -0.1858,2.55764 -0.17219,1.10335 -0.15768,1.12598 0.19791,0.30868 0.21105,-0.48507 0.45773,-1.63601 0.54818,-2.55764 z m 11.20492,2.99593 c 0.0909,-0.147 0.27663,-0.86138 0.41286,-1.5875 0.21925,-1.16872 0.16645,-1.32023 -0.46009,-1.32023 -0.56962,0 -0.73437,0.27899 -0.84408,1.42943 -0.075,0.7862 -0.0652,1.50057 0.0217,1.5875 0.24327,0.24328 0.68609,0.18766 0.86956,-0.1092 z m 1.81504,-1.23204 c 0.12691,-0.63059 0.31529,-1.44422 0.4186,-1.80807 0.12129,-0.42715 0.0495,-0.57601 -0.20273,-0.42015 -0.21481,0.13276 -0.39057,0.61953 -0.39057,1.08169 0,0.46217 -0.15875,0.93842 -0.35278,1.05834 -0.44299,0.27378 -0.4648,1.23472 -0.028,1.23472 0.17862,0 0.42859,-0.51594 0.55551,-1.14653 z m 1.24123,0.70556 c 0.003,-0.24254 0.10362,-0.83785 0.22438,-1.32292 0.14718,-0.59119 0.10246,-0.76564 -0.13566,-0.52917 -0.52775,0.52412 -0.87724,2.29306 -0.45304,2.29306 0.19773,0 0.36167,-0.19844 0.36432,-0.44097 z m -10.48581,-0.97063 c 0.10155,-0.38832 0.0407,-0.61708 -0.13524,-0.50834 -0.17593,0.10873 -0.31988,0.42645 -0.31988,0.70604 0,0.73016 0.23971,0.62603 0.45512,-0.1977 z m 11.6669,0.17688 c 0.11168,-0.29104 0.0493,-0.52917 -0.13864,-0.52917 -0.18794,0 -0.34171,0.23813 -0.34171,0.52917 0,0.29104 0.0624,0.52916 0.13864,0.52916 0.0763,0 0.23003,-0.23812 0.34171,-0.52916 z m -10.38833,-1.94028 c 0.0173,-0.47037 -0.0186,-0.47037 -0.32258,0 -0.18808,0.29104 -0.33325,0.84667 -0.32258,1.23472 l 0.0194,0.70556 0.30319,-0.70556 c 0.16675,-0.38805 0.31192,-0.94368 0.32258,-1.23472 z m 0.62396,0.63941 c -0.11261,-0.28142 -0.1962,-0.19783 -0.21313,0.21314 -0.0153,0.37188 0.0681,0.58024 0.18529,0.46302 0.11722,-0.11723 0.12975,-0.4215 0.0278,-0.67616 z m -1.77123,-1.08038 c -0.0979,-0.24254 -0.17794,-0.0441 -0.17794,0.44097 0,0.48507 0.0801,0.68351 0.17794,0.44097 0.0979,-0.24253 0.0979,-0.63941 0,-0.88194 z m 14.23025,0.79817 c 0,-0.59389 2.84465,-2.17993 5.27093,-2.93881 1.27259,-0.39804 2.80707,-1.13095 3.40996,-1.62869 3.02325,-2.49593 5.22497,-3.97168 7.89966,-5.29487 1.26119,-0.62393 2.53119,-1.27823 2.82223,-1.45401 0.29104,-0.17578 1.0877,-0.6072 1.77036,-0.95872 3.76913,-1.94078 7.69932,-5.67652 10.83218,-10.29624 1.12075,-1.65266 2.39492,-3.40114 2.83149,-3.8855 0.70125,-0.77803 1.00886,-1.41703 0.68215,-1.41703 -1.89373,0 -6.99057,-1.68865 -7.47819,-2.47763 -0.92881,-1.50285 -6.72273,-1.94361 -9.16716,-0.69737 -0.76115,0.38806 -1.58846,0.70556 -1.83848,0.70556 -0.68093,0 -0.54779,-1.04982 0.16279,-1.28357 0.33954,-0.11169 1.1176,-0.42421 1.72901,-0.69448 0.6114,-0.27027 1.78966,-0.4914 2.61834,-0.4914 0.82868,0 2.85951,-0.25349 4.51296,-0.56332 1.6897,-0.31662 3.61129,-0.46658 4.3878,-0.34241 2.26604,0.36236 4.12619,1.04795 4.12619,1.52079 0,0.52981 -0.38573,0.54041 -2.43958,0.067 -3.98218,-0.9179 -5.29528,-0.51945 -3.25626,0.98806 1.1197,0.82783 2.66701,1.30008 5.97945,1.82497 1.22314,0.19382 3.23817,0.83163 4.47785,1.41735 1.66737,0.78779 3.01661,1.12825 5.184443,1.30821 2.70575,0.22461 2.89336,0.19832 2.44632,-0.34285 -0.42173,-0.51053 -0.39773,-0.58612 0.18609,-0.58612 0.36864,0 0.98339,0.21468 1.36611,0.47708 0.38272,0.26239 1.41024,0.58187 2.28336,0.70996 0.87313,0.12809 2.35172,0.42227 3.28578,0.65374 1.92368,0.4767 2.5273,0.0797 2.1719,-1.42835 -0.15401,-0.65351 -0.0642,-0.79607 0.43746,-0.69454 0.65891,0.13334 0.76594,1.00446 0.26857,2.18592 -0.26752,0.63548 -0.14145,0.65675 2.50995,0.4235 1.53539,-0.13507 3.26787,-0.31302 3.84995,-0.39544 0.58208,-0.0824 3.36021,-0.31233 6.17361,-0.51092 2.81341,-0.19858 6.38528,-0.6085 7.9375,-0.91091 1.55223,-0.30242 4.01285,-0.69356 5.46806,-0.86921 1.45521,-0.17564 4.38919,-0.72231 6.51995,-1.21481 2.13077,-0.49251 4.47233,-0.89546 5.20348,-0.89546 0.73114,0 1.32935,-0.14726 1.32935,-0.32724 0,-0.17998 -0.91282,-0.27162 -2.02847,-0.20365 -1.35421,0.0825 -2.20437,-0.0341 -2.55764,-0.35068 -0.42262,-0.37876 -1.31056,-0.4103 -4.40973,-0.15659 -2.86223,0.2343 -5.03774,0.18618 -8.29027,-0.18339 -2.42535,-0.27557 -6.23535,-0.59047 -8.46667,-0.69978 -2.23132,-0.1093 -5.62561,-0.34374 -7.54286,-0.52096 -1.91725,-0.17723 -3.6635,-0.26043 -3.88055,-0.1849 -1.50543,0.52391 -2.75643,0.35562 -6.40878,-0.86213 l -4.011,-1.33733 -4.07857,0.31301 c -3.763703,0.28885 -4.242123,0.25339 -6.196823,-0.45933 -2.11269,-0.77033 -4.50294,-0.79995 -7.9217,-0.0982 -0.99333,0.2039 -1.02275,0.17982 -0.479,-0.39199 0.38815,-0.40817 1.35311,-0.67134 2.92393,-0.79743 2.25555,-0.18105 2.31938,-0.2117 1.68053,-0.80687 -1.48436,-1.3829 -2.64591,-1.65286 -8.00602,-1.86076 -4.94282,-0.1917 -5.39221,-0.15503 -6.81685,0.55638 -1.3524,0.67534 -6.61594,4.90056 -8.26274,6.63278 -0.33864,0.35621 -1.71971,1.29242 -3.06904,2.08047 -3.08951,1.80437 -7.65303,5.76855 -11.09767,9.64018 -2.39029,2.68658 -4.77002,4.47882 -5.95414,4.48424 -1.12543,0.005 -3.07595,0.78961 -3.07595,1.23709 0,0.27518 0.47625,1.2513 1.05834,2.16915 0.58208,0.91785 1.05833,1.80708 1.05833,1.97607 0,0.16898 0.39688,0.82757 0.88195,1.46353 0.48506,0.63596 0.88194,1.30529 0.88194,1.48739 0,0.31551 0.71935,1.32029 2.3137,3.23174 0.6629,0.79474 0.80128,0.82826 1.5875,0.38449 0.47372,-0.26738 1.33908,-0.91686 1.92303,-1.4433 0.72616,-0.65463 1.84385,-1.12168 3.53632,-1.4777 1.36102,-0.2863 3.23796,-0.84777 4.17099,-1.24771 1.92151,-0.82366 3.17521,-0.94442 2.97101,-0.28619 -0.15913,0.51292 -2.31208,1.63763 -3.92285,2.0493 -4.10371,1.0488 -5.41139,1.52209 -5.88536,2.13011 -0.29569,0.37931 -1.01006,0.816 -1.5875,0.97043 -1.39308,0.37257 -1.32418,0.83092 0.32153,2.13876 1.34048,1.06528 2.68552,1.43667 2.68552,0.74152 z m -4.42423,-9.55289 c -0.28308,-0.45803 -0.28299,-0.4581 1.24923,-0.93035 1.83336,-0.56506 4.65348,-1.56994 5.55572,-1.97964 0.99587,-0.45222 1.45586,-0.0464 0.74882,0.66066 -0.59352,0.59352 -5.79221,2.62229 -6.72469,2.62429 -0.3281,7.1e-4 -0.70118,-0.16803 -0.82908,-0.37496 z m 14.30201,-0.62248 c 0,-0.95679 1.57351,-1.62715 3.74565,-1.59575 2.21536,0.032 2.71078,0.32788 1.73899,1.03847 -0.44279,0.32378 -1.0955,0.42651 -1.83198,0.28834 -0.73068,-0.13707 -1.5532,-0.0105 -2.2762,0.35013 -1.40315,0.69998 -1.37646,0.70156 -1.37646,-0.0812 z m -18.34445,-0.72032 c 0,-0.58434 5.27765,-5.31955 6.18187,-5.5465 1.1268,-0.28281 1.60769,0.12728 0.79717,0.6798 -2.82544,1.92608 -3.59952,2.60128 -4.35597,3.79958 -0.6294,0.99705 -1.10926,1.37505 -1.74555,1.37505 -0.48264,0 -0.87752,-0.13856 -0.87752,-0.30793 z m 16.06646,-2.84269 c -0.24076,-0.38956 0.27473,-0.75475 1.84103,-1.30425 1.45967,-0.51209 1.93641,0.0695 0.80678,0.98423 -0.85153,0.68953 -2.31046,0.86586 -2.64781,0.32002 z m 11.87459,-0.77614 c -0.63972,-0.18443 -1.25036,-0.56268 -1.35698,-0.84053 -0.10662,-0.27785 -0.73415,-0.60654 -1.39452,-0.73043 -1.28458,-0.24099 -1.47579,-0.53755 -0.74022,-1.14802 0.3344,-0.27752 0.93796,-0.23392 2.20486,0.15927 1.11101,0.34482 2.53111,0.48375 3.91098,0.38264 2.62303,-0.19222 3.36673,0.1266 2.2006,0.94339 -0.45099,0.31588 -1.08517,0.57433 -1.4093,0.57433 -0.32412,0 -0.68069,0.23813 -0.79238,0.52917 -0.22702,0.5916 -0.90581,0.62529 -2.62304,0.13018 z m -19.6341,-2.04348 c -0.37646,-0.60914 1.84727,-1.78868 4.59399,-2.43681 2.20036,-0.51921 2.79578,-0.80213 3.03201,-1.44073 0.37391,-1.01079 1.17677,-0.77052 1.17677,0.35218 0,0.6598 -0.3589,1.02871 -1.5875,1.63176 -0.87312,0.42856 -2.03038,0.78575 -2.57169,0.79375 -0.5413,0.008 -1.60654,0.33204 -2.36719,0.72009 -1.53926,0.78528 -1.98029,0.85885 -2.27639,0.37976 z m 15.13595,-2.52365 c -0.11633,-0.18823 0.47486,-0.63878 1.31376,-1.00122 1.81645,-0.78478 3.64195,-0.79976 3.64195,-0.0299 0,0.35795 -0.29548,0.4992 -0.91323,0.43655 -0.50227,-0.051 -1.56971,0.13899 -2.37209,0.42209 -0.90548,0.31947 -1.53911,0.3849 -1.67039,0.17247 z m 10.8471,-0.74888 c -0.86863,-0.86864 -0.0134,-2.2728 1.11945,-1.83807 0.73574,0.28233 0.74724,1.76661 0.0159,2.04727 -0.71049,0.27263 -0.64061,0.28551 -1.13532,-0.2092 z m -14.26801,-0.59847 c -0.92061,-0.31113 -1.67343,-0.64508 -1.67294,-0.74209 0.002,-0.43974 1.91877,-1.03996 2.2531,-0.70563 0.19407,0.19407 0.63302,0.35285 0.97544,0.35285 0.65506,0 1.48683,1.15966 1.10537,1.54112 -0.29205,0.29205 -0.6581,0.23066 -2.66097,-0.44625 z m -3.08865,-4.04591 c 0,-0.54199 0.94061,-1.04391 1.41123,-0.75305 0.55363,0.34216 4.77408,-0.78737 6.52627,-1.74664 1.61298,-0.88306 2.00045,-0.95042 4.52912,-0.7873 2.22835,0.14374 3.05027,0.0489 4.23333,-0.48822 1.55048,-0.70399 4.81949,-0.92735 4.81949,-0.3293 0,0.19402 -0.19844,0.36349 -0.44097,0.37658 -1.72115,0.0929 -3.03978,0.44096 -4.12328,1.08829 -1.00973,0.60324 -1.88031,0.76031 -4.43158,0.79953 -2.51892,0.0387 -3.64884,0.2385 -5.46806,0.9668 -2.78487,1.11488 -7.05555,1.64349 -7.05555,0.87331 z m 3.00016,-2.34313 c 0.37216,-0.60218 2.03788,-1.3128 3.70261,-1.57959 2.04232,-0.3273 1.56843,0.21107 -1.05833,1.20232 -2.12677,0.80257 -2.9826,0.92468 -2.64428,0.37727 z m 54.258343,-2.26327 c 0.0687,-0.20605 2.23334,-0.56026 4.85838,-0.79499 2.60398,-0.23284 5.17107,-0.50858 5.70465,-0.61275 0.7313,-0.14277 0.97013,-0.0512 0.97013,0.37207 0,0.42325 -0.23882,0.51484 -0.97013,0.37205 -0.53358,-0.10418 -2.16077,0.0242 -3.61598,0.28535 -3.66443,0.65755 -7.10255,0.84476 -6.94705,0.37827 z m -11.86823,-0.38267 c -1.9022,-0.52273 -2.16094,-0.68404 -1.86508,-1.16276 0.1217,-0.19692 0.88411,-0.12137 1.88741,0.18704 0.92578,0.28457 1.88167,0.57644 2.1242,0.6486 0.24254,0.0722 0.44097,0.29493 0.44097,0.49505 0,0.45244 -0.43202,0.4244 -2.5875,-0.16793 z m -12.699533,-1.4673 c -0.49397,-0.49396 -0.19848,-0.82296 0.73495,-0.81833 1.323603,0.007 2.557643,0.36453 2.557643,0.74189 0,0.36017 -2.940593,0.42845 -3.292593,0.0764 z m -46.45448,29.42755 c 0.003,-0.14552 -0.15335,-0.26458 -0.34738,-0.26458 -0.19402,0 -0.35034,0.35719 -0.34737,0.79375 0.004,0.64186 0.0708,0.69249 0.34737,0.26458 0.18809,-0.29104 0.34441,-0.64823 0.34738,-0.79375 z m -7.65422,-2.38125 c 0.12287,-1.44481 0.0904,-1.90156 -0.0879,-1.23472 -0.28811,1.07785 -0.47264,3.94226 -0.23673,3.67477 0.0713,-0.0808 0.21738,-1.17887 0.32463,-2.44005 z m 1.15199,0.79597 c 0.0451,-0.5348 0.17826,-1.92486 0.29594,-3.08902 0.15475,-1.5309 0.12372,-1.844 -0.11211,-1.13138 -0.44467,1.34369 -0.88574,5.78119 -0.54222,5.45512 0.15202,-0.1443 0.3133,-0.69993 0.35839,-1.23472 z m 2.93965,-0.59114 c 0.17236,-0.9226 0.19284,-1.54455 0.0455,-1.38211 -0.30339,0.3345 -0.84808,3.54876 -0.55103,3.25171 0.10568,-0.10567 0.33316,-0.94699 0.50552,-1.8696 z m -8.96053,-1.59032 c 0.10752,-1.42199 0.29621,-2.74838 0.41929,-2.94753 0.12869,-0.20822 0.0507,-0.25514 -0.18349,-0.11039 -0.22401,0.13845 -0.40729,0.62986 -0.40729,1.09202 0,0.46217 -0.11906,0.91385 -0.26458,1.00374 -0.14552,0.0899 -0.20887,0.98281 -0.14078,1.98428 0.0681,1.00147 0.18175,1.7629 0.25258,1.69208 0.0708,-0.0708 0.21674,-1.29221 0.32427,-2.7142 z m 7.00731,2.27874 c 0.10929,-0.28483 0.0469,-0.6117 -0.13865,-0.72638 -0.18555,-0.11468 -0.33737,0.11836 -0.33737,0.51787 0,0.8518 0.19618,0.93774 0.47602,0.20851 z m -3.12185,-1.24603 c 0.11991,-0.19402 0.0593,-0.35277 -0.13475,-0.35277 -0.19403,0 -0.45089,0.15875 -0.57081,0.35277 -0.11992,0.19403 -0.0593,0.35278 0.13475,0.35278 0.19403,0 0.45089,-0.15875 0.57081,-0.35278 z m 4.7625,-1.9179 c 0,-0.51261 -0.97839,-1.45463 -1.23955,-1.19347 -0.0903,0.0903 0.03,0.57561 0.26732,1.07849 0.43353,0.91864 0.97223,0.98235 0.97223,0.11498 z m -5.90328,-7.14175 c 0.14869,-0.22913 0.12564,-0.50603 -0.0512,-0.61533 -0.46322,-0.28629 -0.65431,0.41318 -0.86743,3.17531 l -0.18849,2.44273 0.41841,-2.29306 c 0.23012,-1.26118 0.54005,-2.48052 0.68874,-2.70965 z m 2.83049,2.70965 c 0.10148,-0.38805 0.0406,-0.70555 -0.13524,-0.70555 -0.17586,0 -0.31975,0.3175 -0.31975,0.70555 0,0.38806 0.0609,0.70556 0.13524,0.70556 0.0744,0 0.21827,-0.3175 0.31975,-0.70556 z m 73.010983,-12.73669 c 1.11566,-0.22687 2.02847,-0.56025 2.02847,-0.74084 0,-0.18059 -0.27781,-0.25103 -0.61736,-0.15654 -0.33954,0.0945 -1.64923,0.27103 -2.91041,0.39232 -1.88155,0.18095 -3.04622,0.0298 -6.48995,-0.84242 -2.30829,-0.58462 -4.34229,-0.97308 -4.51999,-0.86326 -0.1777,0.10983 -1.50379,0.19506 -2.94686,0.1894 -1.96048,-0.008 -2.62376,0.10899 -2.62376,0.46154 0,0.71801 3.02035,1.59276 5.6191,1.6274 1.27512,0.017 3.11215,0.14019 4.08229,0.27376 2.30833,0.31781 5.84564,0.17369 8.37847,-0.34136 z m -19.352323,-0.8741 c 0.46959,-1.22375 0.17935,-1.49117 -2.26982,-2.09137 -2.36743,-0.58017 -2.51636,-0.57939 -3.175,0.0167 -0.96165,0.87029 -0.87083,1.07668 0.49077,1.11527 0.65,0.0184 1.88032,0.35401 2.73403,0.74575 1.93743,0.88901 1.96003,0.89119 2.22002,0.21368 z m 27.120153,-0.37894 c -0.23884,-0.0966 -0.71509,-0.10252 -1.05834,-0.0131 -0.34324,0.0894 -0.14782,0.16851 0.43426,0.1757 0.58209,0.007 0.86292,-0.066 0.62408,-0.16263 z m 26.63733,-7.78614 c -0.72247,-0.0758 -1.99247,-0.0769 -2.82222,-0.002 -0.82975,0.0745 -0.23863,0.13654 1.31359,0.13782 1.55222,0.001 2.23111,-0.0597 1.50863,-0.13549 z m -52.30863,-3.10838 c 1.56763,-0.33666 3.17802,-0.44779 4.40972,-0.30431 l 1.94028,0.22603 -0.98768,-1.05009 c -1.46516,-1.55775 -5.18593,-2.51031 -5.18593,-1.32765 0,0.29104 -0.22114,0.52916 -0.491423,0.52916 -0.27029,0 -0.56892,0.20194 -0.66363,0.44875 -0.20787,0.54171 -2.01995,0.75416 -2.01995,0.23682 0,-0.68202 1.70992,-2.09525 2.27346,-1.87899 0.30182,0.11582 0.548763,0.042 0.548763,-0.16396 0,-0.34781 -0.653463,-0.51311 -3.615973,-0.91471 -0.63059,-0.0855 -1.78153,-0.0244 -2.55764,0.13582 -1.31056,0.27049 -1.24291,0.29414 0.94932,0.33181 2.42437,0.0417 2.92046,0.26014 2.42203,1.06661 -0.21058,0.34073 -0.764,0.39747 -2.09339,0.21463 -1.2244,-0.1684 -1.80713,-0.12411 -1.80713,0.13734 0,0.21224 0.23254,0.38588 0.51676,0.38588 0.28421,0 0.68667,0.3175 0.89435,0.70556 0.20768,0.38805 0.68326,0.70555 1.05684,0.70555 0.37358,0 0.88393,0.23209 1.13412,0.51575 0.56019,0.63515 0.3196,0.63515 3.277103,0 z m 6.93067,-3.03904 c -0.082,-1.38923 -0.9521,-3.08694 -1.594,-3.11007 -0.16928,-0.006 -0.10697,0.23088 0.13846,0.52661 0.57399,0.69162 0.24001,1.02688 -0.59422,0.5965 -1.10531,-0.57024 -4.29505,-0.83658 -5.06757,-0.42314 -1.111443,0.59482 -0.514403,0.98554 1.20909,0.79128 1.75081,-0.19734 5.15118,0.49145 5.15118,1.04344 0,0.20271 -0.34523,0.26205 -0.79375,0.13643 -0.43656,-0.12227 -1.50812,-0.31263 -2.38125,-0.42303 -1.17911,-0.14907 -1.45137,-0.10386 -1.05833,0.17577 0.29104,0.20706 0.81486,0.37891 1.16404,0.38188 0.8524,0.007 2.82083,1.03605 3.18982,1.66715 0.46317,0.79218 0.72998,0.22095 0.63653,-1.36282 z m -12.927893,-1.94109 c -0.38806,-0.0821 -1.07718,-0.22904 -1.53138,-0.32662 -0.54345,-0.11676 -0.75833,-0.35332 -0.62844,-0.69182 0.10857,-0.28292 0.0436,-0.5144 -0.14431,-0.5144 -0.18794,0 -0.34171,0.39688 -0.34171,0.88195 0,0.8227 0.11256,0.87919 1.6757,0.84102 0.92163,-0.0225 1.35819,-0.10807 0.97014,-0.19013 z m 2.55029,0.0179 c -0.11723,-0.11722 -0.4215,-0.12975 -0.67616,-0.0279 -0.28142,0.11262 -0.19783,0.19621 0.21314,0.21314 0.37188,0.0153 0.58024,-0.0681 0.46302,-0.18529 z m -0.96279,-1.19797 c 0,-0.19403 -0.39688,-0.35278 -0.88195,-0.35278 -0.48507,0 -0.88194,0.15875 -0.88194,0.35278 0,0.19403 0.39687,0.35278 0.88194,0.35278 0.48507,0 0.88195,-0.15875 0.88195,-0.35278 z m 8.103673,-0.71934 c -0.49633,-0.31389 -1.11644,-0.39026 -3.87034,-0.47665 -0.746233,-0.0234 -1.202793,-0.2043 -1.154023,-0.45722 0.0444,-0.23016 -0.19941,-0.39738 -0.54177,-0.37159 -0.65337,0.0492 -0.89413,1.30395 -0.25708,1.33981 0.20095,0.0113 1.53669,0.0846 2.968303,0.16288 1.43161,0.0783 2.68838,0.22777 2.79282,0.33221 0.10444,0.10445 0.27791,0.10189 0.38547,-0.006 0.10756,-0.10756 -0.038,-0.34326 -0.32338,-0.52377 z m -1.25196,-2.40471 c -0.69798,-1.39913 -2.842853,-2.31091 -4.698643,-1.99738 -0.79613,0.13451 -1.44752,0.38935 -1.44752,0.56633 0,0.44201 0.96412,0.40684 1.24359,-0.0454 0.1248,-0.20192 0.57073,-0.26362 0.99096,-0.13711 1.291393,0.38877 3.761383,2.0653 3.762043,2.55353 3.5e-4,0.25398 0.14651,0.37163 0.32481,0.26144 0.18503,-0.11435 0.1098,-0.63006 -0.17524,-1.20145 z m -5.793383,0.27675 c 0,-0.34069 -0.5042,-0.46218 -1.41111,-0.34002 -1.09813,0.14793 -0.96907,0.54398 0.19701,0.6046 0.66775,0.0347 1.2141,-0.0844 1.2141,-0.26458 z"
       id="path9668"
       inkscape:connector-curvature="0" />
  </g>
</svg>
